/eos/lyoeos.in2p3.fr/grid/cms/store/data/Run2016F/SingleMuon/NANOAOD/HIPM_UL2016_MiniAODv2_NanoAODv9-v2/24310000/0B34D946-6943-2145-8ACB-F9B9E7667AA2.root
/eos/lyoeos.in2p3.fr/grid/cms/store/data/Run2016F/SingleMuon/NANOAOD/HIPM_UL2016_MiniAODv2_NanoAODv9-v2/24310000/23DC8594-DE1C-6A49-B42A-FAA170B60FF5.root
/eos/lyoeos.in2p3.fr/grid/cms/store/data/Run2016F/SingleMuon/NANOAOD/HIPM_UL2016_MiniAODv2_NanoAODv9-v2/24310000/F877B334-0821-094E-80C4-98B68E958A0A.root
/eos/lyoeos.in2p3.fr/grid/cms/store/data/Run2016F/SingleMuon/NANOAOD/HIPM_UL2016_MiniAODv2_NanoAODv9-v2/2520000/01809DF6-DF59-BC4E-89A5-8DEECB8FFCB9.root
/eos/lyoeos.in2p3.fr/grid/cms/store/data/Run2016F/SingleMuon/NANOAOD/HIPM_UL2016_MiniAODv2_NanoAODv9-v2/2520000/0C1CD98B-22B8-074C-949F-03E1383DCB75.root
/eos/lyoeos.in2p3.fr/grid/cms/store/data/Run2016F/SingleMuon/NANOAOD/HIPM_UL2016_MiniAODv2_NanoAODv9-v2/2520000/18356356-C4BC-AC4F-8425-DFAE16C848D9.root
/eos/lyoeos.in2p3.fr/grid/cms/store/data/Run2016F/SingleMuon/NANOAOD/HIPM_UL2016_MiniAODv2_NanoAODv9-v2/2520000/284AB51F-D052-8A4B-884E-8A94D62BB37B.root
/eos/lyoeos.in2p3.fr/grid/cms/store/data/Run2016F/SingleMuon/NANOAOD/HIPM_UL2016_MiniAODv2_NanoAODv9-v2/2520000/563AF4D6-5E25-1B42-8E0C-80A31DF92B93.root
/eos/lyoeos.in2p3.fr/grid/cms/store/data/Run2016F/SingleMuon/NANOAOD/HIPM_UL2016_MiniAODv2_NanoAODv9-v2/2520000/788FFCCB-CABC-2343-BDFB-0D74499A862D.root
/eos/lyoeos.in2p3.fr/grid/cms/store/data/Run2016F/SingleMuon/NANOAOD/HIPM_UL2016_MiniAODv2_NanoAODv9-v2/2520000/8D358DD3-8D4A-344E-8ED3-0289EE049650.root
/eos/lyoeos.in2p3.fr/grid/cms/store/data/Run2016F/SingleMuon/NANOAOD/HIPM_UL2016_MiniAODv2_NanoAODv9-v2/2520000/905B6424-C899-E543-B899-2EDED52A6A65.root
/eos/lyoeos.in2p3.fr/grid/cms/store/data/Run2016F/SingleMuon/NANOAOD/HIPM_UL2016_MiniAODv2_NanoAODv9-v2/2520000/A026A7D3-589D-3441-8E0D-B35D4594E9C9.root
/eos/lyoeos.in2p3.fr/grid/cms/store/data/Run2016F/SingleMuon/NANOAOD/HIPM_UL2016_MiniAODv2_NanoAODv9-v2/2520000/BA080323-9F29-4A43-99A7-80D1D610EAD0.root
/eos/lyoeos.in2p3.fr/grid/cms/store/data/Run2016F/SingleMuon/NANOAOD/HIPM_UL2016_MiniAODv2_NanoAODv9-v2/40000/3B235D84-910B-A247-92A1-5DF85F27D41B.root
/eos/lyoeos.in2p3.fr/grid/cms/store/data/Run2016F/SingleMuon/NANOAOD/HIPM_UL2016_MiniAODv2_NanoAODv9-v2/40000/4DE17FA4-5365-AA48-A038-F53632746875.root
/eos/lyoeos.in2p3.fr/grid/cms/store/data/Run2016F/SingleMuon/NANOAOD/HIPM_UL2016_MiniAODv2_NanoAODv9-v2/40000/6C9A6392-2ABC-E044-AB07-4D1D1208BA5F.root
/eos/lyoeos.in2p3.fr/grid/cms/store/data/Run2016F/SingleMuon/NANOAOD/HIPM_UL2016_MiniAODv2_NanoAODv9-v2/40000/7DA7C388-9DB7-834F-BE25-62E419D7FCCA.root
/eos/lyoeos.in2p3.fr/grid/cms/store/data/Run2016F/SingleMuon/NANOAOD/HIPM_UL2016_MiniAODv2_NanoAODv9-v2/40000/87454DDF-FD2C-B44E-A901-A25D66E08449.root
/eos/lyoeos.in2p3.fr/grid/cms/store/data/Run2016F/SingleMuon/NANOAOD/HIPM_UL2016_MiniAODv2_NanoAODv9-v2/40000/C6758395-CE07-0B4F-ACAD-D286B7E6C2DB.root
/eos/lyoeos.in2p3.fr/grid/cms/store/data/Run2016F/SingleMuon/NANOAOD/HIPM_UL2016_MiniAODv2_NanoAODv9-v2/40000/DA0E8A6C-084E-3D45-8966-F02654E2FA78.root
/eos/lyoeos.in2p3.fr/grid/cms/store/data/Run2016F/SingleMuon/NANOAOD/HIPM_UL2016_MiniAODv2_NanoAODv9-v2/40000/DF966D8D-C642-7A4B-AD9E-3712563617B4.root
/eos/lyoeos.in2p3.fr/grid/cms/store/data/Run2016F/SingleMuon/NANOAOD/HIPM_UL2016_MiniAODv2_NanoAODv9-v2/40000/E1C0B1B2-A438-8C46-AE65-2271C1A59241.root
/eos/lyoeos.in2p3.fr/grid/cms/store/data/Run2016F/SingleMuon/NANOAOD/HIPM_UL2016_MiniAODv2_NanoAODv9-v2/40000/E27AEAB3-0BB5-2948-9E9E-4C7183452922.root
/eos/lyoeos.in2p3.fr/grid/cms/store/data/Run2016F/SingleMuon/NANOAOD/HIPM_UL2016_MiniAODv2_NanoAODv9-v2/40000/E38F5179-112A-7842-A85C-3DDA65C13A02.root
/eos/lyoeos.in2p3.fr/grid/cms/store/data/Run2016F/SingleMuon/NANOAOD/HIPM_UL2016_MiniAODv2_NanoAODv9-v2/50000/0118BA07-4F07-5D4F-AB33-26FFF0773F77.root
/eos/lyoeos.in2p3.fr/grid/cms/store/data/Run2016F/SingleMuon/NANOAOD/HIPM_UL2016_MiniAODv2_NanoAODv9-v2/50000/0E12A8E4-0066-214A-9677-2B6A3AF4582F.root
/eos/lyoeos.in2p3.fr/grid/cms/store/data/Run2016F/SingleMuon/NANOAOD/HIPM_UL2016_MiniAODv2_NanoAODv9-v2/50000/11E58CAE-E9EB-2944-AF6A-3F9BCF0AAEB1.root
/eos/lyoeos.in2p3.fr/grid/cms/store/data/Run2016F/SingleMuon/NANOAOD/HIPM_UL2016_MiniAODv2_NanoAODv9-v2/50000/1204832C-DD11-0240-81AE-6C9D98726085.root
/eos/lyoeos.in2p3.fr/grid/cms/store/data/Run2016F/SingleMuon/NANOAOD/HIPM_UL2016_MiniAODv2_NanoAODv9-v2/50000/19274791-5919-984B-A0B1-AD382DCEC9FE.root
/eos/lyoeos.in2p3.fr/grid/cms/store/data/Run2016F/SingleMuon/NANOAOD/HIPM_UL2016_MiniAODv2_NanoAODv9-v2/50000/20DDDFF1-FDC4-F144-97F5-77A802681D7B.root
/eos/lyoeos.in2p3.fr/grid/cms/store/data/Run2016F/SingleMuon/NANOAOD/HIPM_UL2016_MiniAODv2_NanoAODv9-v2/50000/25143663-A29B-A54B-8327-5E31D21EDCAF.root
/eos/lyoeos.in2p3.fr/grid/cms/store/data/Run2016F/SingleMuon/NANOAOD/HIPM_UL2016_MiniAODv2_NanoAODv9-v2/50000/2B65937F-FFE5-CA4D-AA9D-B632B036FC05.root
/eos/lyoeos.in2p3.fr/grid/cms/store/data/Run2016F/SingleMuon/NANOAOD/HIPM_UL2016_MiniAODv2_NanoAODv9-v2/50000/378EE750-A25A-1F42-8E91-A064D208E5E1.root
/eos/lyoeos.in2p3.fr/grid/cms/store/data/Run2016F/SingleMuon/NANOAOD/HIPM_UL2016_MiniAODv2_NanoAODv9-v2/50000/4479250E-F28D-5E45-AEDC-839629E5FA8B.root
/eos/lyoeos.in2p3.fr/grid/cms/store/data/Run2016F/SingleMuon/NANOAOD/HIPM_UL2016_MiniAODv2_NanoAODv9-v2/50000/670D4262-6145-6F45-BACE-125BA3DDE312.root
/eos/lyoeos.in2p3.fr/grid/cms/store/data/Run2016F/SingleMuon/NANOAOD/HIPM_UL2016_MiniAODv2_NanoAODv9-v2/50000/78A93EC9-6B42-E246-88B5-C009661BA901.root
/eos/lyoeos.in2p3.fr/grid/cms/store/data/Run2016F/SingleMuon/NANOAOD/HIPM_UL2016_MiniAODv2_NanoAODv9-v2/50000/7A16E813-4D88-A043-A158-CF68F43EA58F.root
/eos/lyoeos.in2p3.fr/grid/cms/store/data/Run2016F/SingleMuon/NANOAOD/HIPM_UL2016_MiniAODv2_NanoAODv9-v2/50000/7D69AC89-AE4E-1B44-9865-6FB86AF229E5.root
/eos/lyoeos.in2p3.fr/grid/cms/store/data/Run2016F/SingleMuon/NANOAOD/HIPM_UL2016_MiniAODv2_NanoAODv9-v2/50000/815A6421-DDAA-6648-841F-01DCE1EF485D.root
/eos/lyoeos.in2p3.fr/grid/cms/store/data/Run2016F/SingleMuon/NANOAOD/HIPM_UL2016_MiniAODv2_NanoAODv9-v2/50000/CB21316F-49BC-6E4E-A2E5-56D02D827943.root
/eos/lyoeos.in2p3.fr/grid/cms/store/data/Run2016F/SingleMuon/NANOAOD/HIPM_UL2016_MiniAODv2_NanoAODv9-v2/50000/CC26CEB3-2DFC-624A-8EC9-469BF3D08682.root
/eos/lyoeos.in2p3.fr/grid/cms/store/data/Run2016F/SingleMuon/NANOAOD/HIPM_UL2016_MiniAODv2_NanoAODv9-v2/50000/ECC050F5-37B4-9242-A315-021113A3C25A.root
/eos/lyoeos.in2p3.fr/grid/cms/store/data/Run2016F/SingleMuon/NANOAOD/HIPM_UL2016_MiniAODv2_NanoAODv9-v2/50000/F5A5AA76-1E24-2748-81D7-F17B73042E4D.root
/eos/lyoeos.in2p3.fr/grid/cms/store/data/Run2016F/SingleMuon/NANOAOD/UL2016_MiniAODv2_NanoAODv9-v1/130000/7F5791FE-262B-EA45-BE19-04E4F21FEE1E.root
/eos/lyoeos.in2p3.fr/grid/cms/store/data/Run2016F/SingleMuon/NANOAOD/UL2016_MiniAODv2_NanoAODv9-v1/130000/A6CA373A-583D-BD42-9556-0351CF148FDC.root
/eos/lyoeos.in2p3.fr/grid/cms/store/data/Run2016F/SingleMuon/NANOAOD/UL2016_MiniAODv2_NanoAODv9-v1/130000/FF9B5EE5-4C8E-3F41-B608-AC8DD47E51F2.root
/eos/lyoeos.in2p3.fr/grid/cms/store/data/Run2016F/SingleMuon/NANOAOD/UL2016_MiniAODv2_NanoAODv9-v1/70000/0B54974C-D6CA-0748-9ED9-03BB3DDD82C8.root
/eos/lyoeos.in2p3.fr/grid/cms/store/data/Run2016F/SingleMuon/NANOAOD/UL2016_MiniAODv2_NanoAODv9-v1/70000/15A7AA88-B1A1-384F-8AA5-13031C1A5E87.root
