/eos/lyoeos.in2p3.fr/grid/cms/store/data/Run2016D/SingleElectron/NANOAOD/HIPM_UL2016_MiniAODv2_NanoAODv9-v2/2430000/32E978A7-01CA-614A-97AF-1F02791AE3ED.root
/eos/lyoeos.in2p3.fr/grid/cms/store/data/Run2016D/SingleElectron/NANOAOD/HIPM_UL2016_MiniAODv2_NanoAODv9-v2/2430000/3E88BFFD-1F74-E746-B2CF-BBD42A659CD6.root
/eos/lyoeos.in2p3.fr/grid/cms/store/data/Run2016D/SingleElectron/NANOAOD/HIPM_UL2016_MiniAODv2_NanoAODv9-v2/2530000/028C17E4-99C9-EA4C-A305-FB76D5AB4475.root
/eos/lyoeos.in2p3.fr/grid/cms/store/data/Run2016D/SingleElectron/NANOAOD/HIPM_UL2016_MiniAODv2_NanoAODv9-v2/2530000/14294AFD-56CE-9746-B77D-87DEC8CBF2E1.root
/eos/lyoeos.in2p3.fr/grid/cms/store/data/Run2016D/SingleElectron/NANOAOD/HIPM_UL2016_MiniAODv2_NanoAODv9-v2/2530000/1473225E-43A4-5043-9FF5-652BC6EC1500.root
/eos/lyoeos.in2p3.fr/grid/cms/store/data/Run2016D/SingleElectron/NANOAOD/HIPM_UL2016_MiniAODv2_NanoAODv9-v2/2530000/195F4EAB-5E7D-6A42-A335-1755DA0DFFF8.root
/eos/lyoeos.in2p3.fr/grid/cms/store/data/Run2016D/SingleElectron/NANOAOD/HIPM_UL2016_MiniAODv2_NanoAODv9-v2/2530000/1A5E822B-5870-2544-8A9E-066D7F849A66.root
/eos/lyoeos.in2p3.fr/grid/cms/store/data/Run2016D/SingleElectron/NANOAOD/HIPM_UL2016_MiniAODv2_NanoAODv9-v2/2530000/1C33C652-694E-F74C-8922-288BE646BBC2.root
/eos/lyoeos.in2p3.fr/grid/cms/store/data/Run2016D/SingleElectron/NANOAOD/HIPM_UL2016_MiniAODv2_NanoAODv9-v2/2530000/1D6254D9-2B82-C841-B0F5-85E332915435.root
/eos/lyoeos.in2p3.fr/grid/cms/store/data/Run2016D/SingleElectron/NANOAOD/HIPM_UL2016_MiniAODv2_NanoAODv9-v2/2530000/1DFE90FD-3AF2-404B-925E-16D143D782ED.root
/eos/lyoeos.in2p3.fr/grid/cms/store/data/Run2016D/SingleElectron/NANOAOD/HIPM_UL2016_MiniAODv2_NanoAODv9-v2/2530000/1F6468DA-607C-E446-827B-0B8C03D9382F.root
/eos/lyoeos.in2p3.fr/grid/cms/store/data/Run2016D/SingleElectron/NANOAOD/HIPM_UL2016_MiniAODv2_NanoAODv9-v2/2530000/2C0F7FAF-2C00-6E47-88C0-CBB65D499883.root
/eos/lyoeos.in2p3.fr/grid/cms/store/data/Run2016D/SingleElectron/NANOAOD/HIPM_UL2016_MiniAODv2_NanoAODv9-v2/2530000/2CD13873-A68E-E344-9452-BF30FCCB4A9E.root
/eos/lyoeos.in2p3.fr/grid/cms/store/data/Run2016D/SingleElectron/NANOAOD/HIPM_UL2016_MiniAODv2_NanoAODv9-v2/2530000/2E43AB21-6A18-4240-8781-E9AFF8438030.root
/eos/lyoeos.in2p3.fr/grid/cms/store/data/Run2016D/SingleElectron/NANOAOD/HIPM_UL2016_MiniAODv2_NanoAODv9-v2/2530000/2ED51983-002F-4145-9A15-1BDDCB56C291.root
/eos/lyoeos.in2p3.fr/grid/cms/store/data/Run2016D/SingleElectron/NANOAOD/HIPM_UL2016_MiniAODv2_NanoAODv9-v2/2530000/334A0DFB-D68B-064F-8B74-8B1F12A78E19.root
/eos/lyoeos.in2p3.fr/grid/cms/store/data/Run2016D/SingleElectron/NANOAOD/HIPM_UL2016_MiniAODv2_NanoAODv9-v2/2530000/34659672-8BC9-3A4F-8603-3B5252AC7BA3.root
/eos/lyoeos.in2p3.fr/grid/cms/store/data/Run2016D/SingleElectron/NANOAOD/HIPM_UL2016_MiniAODv2_NanoAODv9-v2/2530000/3723F868-1C0E-1B4E-A951-805A6203F476.root
/eos/lyoeos.in2p3.fr/grid/cms/store/data/Run2016D/SingleElectron/NANOAOD/HIPM_UL2016_MiniAODv2_NanoAODv9-v2/2530000/37D229F7-B7CC-744D-B261-DC2398444CF5.root
/eos/lyoeos.in2p3.fr/grid/cms/store/data/Run2016D/SingleElectron/NANOAOD/HIPM_UL2016_MiniAODv2_NanoAODv9-v2/2530000/396AA7E9-EFF0-B24F-BFBE-AE7AA7FD332B.root
/eos/lyoeos.in2p3.fr/grid/cms/store/data/Run2016D/SingleElectron/NANOAOD/HIPM_UL2016_MiniAODv2_NanoAODv9-v2/2530000/3F68C60A-022B-0541-9611-4AAA864E00CC.root
/eos/lyoeos.in2p3.fr/grid/cms/store/data/Run2016D/SingleElectron/NANOAOD/HIPM_UL2016_MiniAODv2_NanoAODv9-v2/2530000/402A4605-D939-3240-8F5B-EF36E16B839A.root
/eos/lyoeos.in2p3.fr/grid/cms/store/data/Run2016D/SingleElectron/NANOAOD/HIPM_UL2016_MiniAODv2_NanoAODv9-v2/2530000/51FDBD48-727D-C94B-967C-115D43B09399.root
/eos/lyoeos.in2p3.fr/grid/cms/store/data/Run2016D/SingleElectron/NANOAOD/HIPM_UL2016_MiniAODv2_NanoAODv9-v2/2530000/52D6F24E-EFCE-BE4F-AC2E-0E28A13A6CCE.root
/eos/lyoeos.in2p3.fr/grid/cms/store/data/Run2016D/SingleElectron/NANOAOD/HIPM_UL2016_MiniAODv2_NanoAODv9-v2/2530000/5642BEE6-4D52-8F47-9B7F-65E40BAE3D8F.root
/eos/lyoeos.in2p3.fr/grid/cms/store/data/Run2016D/SingleElectron/NANOAOD/HIPM_UL2016_MiniAODv2_NanoAODv9-v2/2530000/569877C4-3AE7-4744-9BF7-FC92A03A7EEC.root
/eos/lyoeos.in2p3.fr/grid/cms/store/data/Run2016D/SingleElectron/NANOAOD/HIPM_UL2016_MiniAODv2_NanoAODv9-v2/2530000/5937905D-0B18-AA45-8742-A7DE5CF64180.root
/eos/lyoeos.in2p3.fr/grid/cms/store/data/Run2016D/SingleElectron/NANOAOD/HIPM_UL2016_MiniAODv2_NanoAODv9-v2/2530000/5A472B95-1F3C-E947-9D0A-D37F9E80B158.root
/eos/lyoeos.in2p3.fr/grid/cms/store/data/Run2016D/SingleElectron/NANOAOD/HIPM_UL2016_MiniAODv2_NanoAODv9-v2/2530000/61790966-2098-7740-BDBB-3E1A89EA2E8D.root
/eos/lyoeos.in2p3.fr/grid/cms/store/data/Run2016D/SingleElectron/NANOAOD/HIPM_UL2016_MiniAODv2_NanoAODv9-v2/2530000/68E75797-4A57-9642-9031-C6C1026B9015.root
/eos/lyoeos.in2p3.fr/grid/cms/store/data/Run2016D/SingleElectron/NANOAOD/HIPM_UL2016_MiniAODv2_NanoAODv9-v2/2530000/691E8270-EB75-904D-AEB4-C1D4D7F287C5.root
/eos/lyoeos.in2p3.fr/grid/cms/store/data/Run2016D/SingleElectron/NANOAOD/HIPM_UL2016_MiniAODv2_NanoAODv9-v2/2530000/6B3F127D-B809-A947-BFB8-098DC415C1C6.root
/eos/lyoeos.in2p3.fr/grid/cms/store/data/Run2016D/SingleElectron/NANOAOD/HIPM_UL2016_MiniAODv2_NanoAODv9-v2/2530000/6C941881-DE56-2C43-BDA9-7B8AE23ED247.root
/eos/lyoeos.in2p3.fr/grid/cms/store/data/Run2016D/SingleElectron/NANOAOD/HIPM_UL2016_MiniAODv2_NanoAODv9-v2/2530000/72425119-CD70-A94C-A218-196B36390E74.root
/eos/lyoeos.in2p3.fr/grid/cms/store/data/Run2016D/SingleElectron/NANOAOD/HIPM_UL2016_MiniAODv2_NanoAODv9-v2/2530000/79F1F646-480F-CF42-A46B-8AD3840CE790.root
/eos/lyoeos.in2p3.fr/grid/cms/store/data/Run2016D/SingleElectron/NANOAOD/HIPM_UL2016_MiniAODv2_NanoAODv9-v2/2530000/7B37E897-BD50-2A43-9AF8-ED32FDABFC9F.root
/eos/lyoeos.in2p3.fr/grid/cms/store/data/Run2016D/SingleElectron/NANOAOD/HIPM_UL2016_MiniAODv2_NanoAODv9-v2/2530000/83644768-DAAC-EF4D-971C-C3FD31982E98.root
/eos/lyoeos.in2p3.fr/grid/cms/store/data/Run2016D/SingleElectron/NANOAOD/HIPM_UL2016_MiniAODv2_NanoAODv9-v2/2530000/8CC042B5-D632-5749-AAC1-70C4A2D06D88.root
/eos/lyoeos.in2p3.fr/grid/cms/store/data/Run2016D/SingleElectron/NANOAOD/HIPM_UL2016_MiniAODv2_NanoAODv9-v2/2530000/8D86F076-8D08-FD43-81C1-F21FAB85484A.root
/eos/lyoeos.in2p3.fr/grid/cms/store/data/Run2016D/SingleElectron/NANOAOD/HIPM_UL2016_MiniAODv2_NanoAODv9-v2/2530000/8EEBF6A7-A38D-1B4C-AA35-EF22FC210AA2.root
/eos/lyoeos.in2p3.fr/grid/cms/store/data/Run2016D/SingleElectron/NANOAOD/HIPM_UL2016_MiniAODv2_NanoAODv9-v2/2530000/95247269-5B5F-E341-A5FA-4D565D8E6EDF.root
/eos/lyoeos.in2p3.fr/grid/cms/store/data/Run2016D/SingleElectron/NANOAOD/HIPM_UL2016_MiniAODv2_NanoAODv9-v2/2530000/95D8750C-C601-B84D-BC65-2C9AE24ECBD0.root
/eos/lyoeos.in2p3.fr/grid/cms/store/data/Run2016D/SingleElectron/NANOAOD/HIPM_UL2016_MiniAODv2_NanoAODv9-v2/2530000/9BF90016-E904-E84C-9ABA-E6A1DAD17864.root
/eos/lyoeos.in2p3.fr/grid/cms/store/data/Run2016D/SingleElectron/NANOAOD/HIPM_UL2016_MiniAODv2_NanoAODv9-v2/2530000/A493C6A9-661D-C943-9A11-978462FAE85E.root
/eos/lyoeos.in2p3.fr/grid/cms/store/data/Run2016D/SingleElectron/NANOAOD/HIPM_UL2016_MiniAODv2_NanoAODv9-v2/2530000/C9240B29-7917-4F4D-A84A-68C1694AC188.root
/eos/lyoeos.in2p3.fr/grid/cms/store/data/Run2016D/SingleElectron/NANOAOD/HIPM_UL2016_MiniAODv2_NanoAODv9-v2/2530000/CAC636AB-15F1-9544-938A-82C155E9F777.root
/eos/lyoeos.in2p3.fr/grid/cms/store/data/Run2016D/SingleElectron/NANOAOD/HIPM_UL2016_MiniAODv2_NanoAODv9-v2/2530000/CC1949CA-B895-E54C-A88B-41A129A293FA.root
/eos/lyoeos.in2p3.fr/grid/cms/store/data/Run2016D/SingleElectron/NANOAOD/HIPM_UL2016_MiniAODv2_NanoAODv9-v2/2530000/CFE1297B-2AC9-7446-A2D1-F79654F1233D.root
/eos/lyoeos.in2p3.fr/grid/cms/store/data/Run2016D/SingleElectron/NANOAOD/HIPM_UL2016_MiniAODv2_NanoAODv9-v2/2530000/D032060E-4B1E-2342-A584-9EAD8A77D3AE.root
/eos/lyoeos.in2p3.fr/grid/cms/store/data/Run2016D/SingleElectron/NANOAOD/HIPM_UL2016_MiniAODv2_NanoAODv9-v2/2530000/D510EC3D-4CDC-9645-A0E0-93CF9DE0F405.root
/eos/lyoeos.in2p3.fr/grid/cms/store/data/Run2016D/SingleElectron/NANOAOD/HIPM_UL2016_MiniAODv2_NanoAODv9-v2/2530000/D5A99B5D-ADC5-8047-A6D6-BE2301E4A2E2.root
/eos/lyoeos.in2p3.fr/grid/cms/store/data/Run2016D/SingleElectron/NANOAOD/HIPM_UL2016_MiniAODv2_NanoAODv9-v2/2530000/D6154BC9-37B2-7149-99B5-51D71DD3C698.root
/eos/lyoeos.in2p3.fr/grid/cms/store/data/Run2016D/SingleElectron/NANOAOD/HIPM_UL2016_MiniAODv2_NanoAODv9-v2/2530000/D61E0BC0-FC8A-0242-BF5C-9CFE3D908D24.root
/eos/lyoeos.in2p3.fr/grid/cms/store/data/Run2016D/SingleElectron/NANOAOD/HIPM_UL2016_MiniAODv2_NanoAODv9-v2/2530000/D83EEF61-0BB5-9F43-88C7-61616563F7BD.root
/eos/lyoeos.in2p3.fr/grid/cms/store/data/Run2016D/SingleElectron/NANOAOD/HIPM_UL2016_MiniAODv2_NanoAODv9-v2/2530000/DEFEFA78-F69C-704E-BC6E-B304F3222FA6.root
/eos/lyoeos.in2p3.fr/grid/cms/store/data/Run2016D/SingleElectron/NANOAOD/HIPM_UL2016_MiniAODv2_NanoAODv9-v2/2530000/E28FCE55-689C-4B46-B5A2-C154BE463C34.root
/eos/lyoeos.in2p3.fr/grid/cms/store/data/Run2016D/SingleElectron/NANOAOD/HIPM_UL2016_MiniAODv2_NanoAODv9-v2/2530000/E3AE8A7B-B86A-0C46-A91D-F824CBFCDDD9.root
/eos/lyoeos.in2p3.fr/grid/cms/store/data/Run2016D/SingleElectron/NANOAOD/HIPM_UL2016_MiniAODv2_NanoAODv9-v2/2530000/ECDC26B7-20E1-F343-B914-59E3AD5183E1.root
/eos/lyoeos.in2p3.fr/grid/cms/store/data/Run2016D/SingleElectron/NANOAOD/HIPM_UL2016_MiniAODv2_NanoAODv9-v2/2530000/EF2BED25-5D0F-5744-B0B4-E9A6075121AE.root
/eos/lyoeos.in2p3.fr/grid/cms/store/data/Run2016D/SingleElectron/NANOAOD/HIPM_UL2016_MiniAODv2_NanoAODv9-v2/2530000/F17C3421-D86E-F142-830D-85F172019683.root
/eos/lyoeos.in2p3.fr/grid/cms/store/data/Run2016D/SingleElectron/NANOAOD/HIPM_UL2016_MiniAODv2_NanoAODv9-v2/2530000/F6D8EEFA-7E90-364B-B7C7-17387E2926AB.root
/eos/lyoeos.in2p3.fr/grid/cms/store/data/Run2016D/SingleElectron/NANOAOD/HIPM_UL2016_MiniAODv2_NanoAODv9-v2/2530000/F739B3D6-790E-304B-9FD4-04B90AA19888.root
/eos/lyoeos.in2p3.fr/grid/cms/store/data/Run2016D/SingleElectron/NANOAOD/HIPM_UL2016_MiniAODv2_NanoAODv9-v2/2530000/FA3F23AE-163A-8D4F-8501-1D7E9336CCA7.root
/eos/lyoeos.in2p3.fr/grid/cms/store/data/Run2016D/SingleElectron/NANOAOD/HIPM_UL2016_MiniAODv2_NanoAODv9-v2/2530000/FA556499-3C60-FC48-8DFE-BE8B741E2EAA.root
/eos/lyoeos.in2p3.fr/grid/cms/store/data/Run2016D/SingleElectron/NANOAOD/HIPM_UL2016_MiniAODv2_NanoAODv9-v2/2530000/FE06C536-9264-0245-B968-0281601EAC09.root
/eos/lyoeos.in2p3.fr/grid/cms/store/data/Run2016D/SingleElectron/NANOAOD/HIPM_UL2016_MiniAODv2_NanoAODv9-v2/2530000/FFD14E21-FF7C-5D4F-9B72-DC812D088891.root
