/eos/lyoeos.in2p3.fr/grid/cms/store/mc/RunIISummer20UL18NanoAODv9/QCD_Pt-80to120_EMEnriched_TuneCP5_13TeV-pythia8/NANOAODSIM/106X_upgrade2018_realistic_v16_L1v1-v2/100000/114EE3C0-6495-144C-BEB3-DC024EF99092.root
/eos/lyoeos.in2p3.fr/grid/cms/store/mc/RunIISummer20UL18NanoAODv9/QCD_Pt-80to120_EMEnriched_TuneCP5_13TeV-pythia8/NANOAODSIM/106X_upgrade2018_realistic_v16_L1v1-v2/100000/1D4B0DDF-2AB4-5A4B-B1A8-6F8E2C744493.root
/eos/lyoeos.in2p3.fr/grid/cms/store/mc/RunIISummer20UL18NanoAODv9/QCD_Pt-80to120_EMEnriched_TuneCP5_13TeV-pythia8/NANOAODSIM/106X_upgrade2018_realistic_v16_L1v1-v2/100000/229D6A12-0021-3648-8E16-5895614FF172.root
/eos/lyoeos.in2p3.fr/grid/cms/store/mc/RunIISummer20UL18NanoAODv9/QCD_Pt-80to120_EMEnriched_TuneCP5_13TeV-pythia8/NANOAODSIM/106X_upgrade2018_realistic_v16_L1v1-v2/100000/6C414324-8DEE-AF4A-81BC-5EA9A120DB58.root
/eos/lyoeos.in2p3.fr/grid/cms/store/mc/RunIISummer20UL18NanoAODv9/QCD_Pt-80to120_EMEnriched_TuneCP5_13TeV-pythia8/NANOAODSIM/106X_upgrade2018_realistic_v16_L1v1-v2/100000/7CA3B501-C04B-B44F-B554-29B379A16EAA.root
/eos/lyoeos.in2p3.fr/grid/cms/store/mc/RunIISummer20UL18NanoAODv9/QCD_Pt-80to120_EMEnriched_TuneCP5_13TeV-pythia8/NANOAODSIM/106X_upgrade2018_realistic_v16_L1v1-v2/2430000/3CD20F5B-ED95-F14F-9A9D-CB69309D2380.root
/eos/lyoeos.in2p3.fr/grid/cms/store/mc/RunIISummer20UL18NanoAODv9/QCD_Pt-80to120_EMEnriched_TuneCP5_13TeV-pythia8/NANOAODSIM/106X_upgrade2018_realistic_v16_L1v1-v2/2430000/3F002288-A0DD-DE41-A5F8-209719A573AB.root
/eos/lyoeos.in2p3.fr/grid/cms/store/mc/RunIISummer20UL18NanoAODv9/QCD_Pt-80to120_EMEnriched_TuneCP5_13TeV-pythia8/NANOAODSIM/106X_upgrade2018_realistic_v16_L1v1-v2/2430000/4363D7BF-E2BA-1646-B857-0A20A0404D58.root
/eos/lyoeos.in2p3.fr/grid/cms/store/mc/RunIISummer20UL18NanoAODv9/QCD_Pt-80to120_EMEnriched_TuneCP5_13TeV-pythia8/NANOAODSIM/106X_upgrade2018_realistic_v16_L1v1-v2/2430000/A04AC9D4-A25E-E640-A8B9-D8C6F4895201.root
/eos/lyoeos.in2p3.fr/grid/cms/store/mc/RunIISummer20UL18NanoAODv9/QCD_Pt-80to120_EMEnriched_TuneCP5_13TeV-pythia8/NANOAODSIM/106X_upgrade2018_realistic_v16_L1v1-v2/250000/7863ECBB-39F0-384C-A0EA-35FA10CA30A5.root
