/eos/lyoeos.in2p3.fr/grid/cms/store/mc/RunIISummer20UL18NanoAODv9/QCD_Pt-470To600_MuEnrichedPt5_TuneCP5_13TeV-pythia8/NANOAODSIM/106X_upgrade2018_realistic_v16_L1v1-v2/2520000/3D2CC490-A456-D244-B5D6-A57A4DFDBC33.root
/eos/lyoeos.in2p3.fr/grid/cms/store/mc/RunIISummer20UL18NanoAODv9/QCD_Pt-470To600_MuEnrichedPt5_TuneCP5_13TeV-pythia8/NANOAODSIM/106X_upgrade2018_realistic_v16_L1v1-v2/2520000/83266862-AFC5-3642-98C1-3CC76E14DAF5.root
/eos/lyoeos.in2p3.fr/grid/cms/store/mc/RunIISummer20UL18NanoAODv9/QCD_Pt-470To600_MuEnrichedPt5_TuneCP5_13TeV-pythia8/NANOAODSIM/106X_upgrade2018_realistic_v16_L1v1-v2/2520000/DAEBBC9F-28F8-F14F-BFA1-6279166B6A33.root
/eos/lyoeos.in2p3.fr/grid/cms/store/mc/RunIISummer20UL18NanoAODv9/QCD_Pt-470To600_MuEnrichedPt5_TuneCP5_13TeV-pythia8/NANOAODSIM/106X_upgrade2018_realistic_v16_L1v1-v2/2550000/4B1F1171-3E29-934F-8AD3-60AF52D8DFD8.root
/eos/lyoeos.in2p3.fr/grid/cms/store/mc/RunIISummer20UL18NanoAODv9/QCD_Pt-470To600_MuEnrichedPt5_TuneCP5_13TeV-pythia8/NANOAODSIM/106X_upgrade2018_realistic_v16_L1v1-v2/260000/0000CDA9-1901-C745-9054-5540F6C2F7E0.root
/eos/lyoeos.in2p3.fr/grid/cms/store/mc/RunIISummer20UL18NanoAODv9/QCD_Pt-470To600_MuEnrichedPt5_TuneCP5_13TeV-pythia8/NANOAODSIM/106X_upgrade2018_realistic_v16_L1v1-v2/260000/00536508-70A6-1B4A-8A8C-BF87EBDDCCC1.root
/eos/lyoeos.in2p3.fr/grid/cms/store/mc/RunIISummer20UL18NanoAODv9/QCD_Pt-470To600_MuEnrichedPt5_TuneCP5_13TeV-pythia8/NANOAODSIM/106X_upgrade2018_realistic_v16_L1v1-v2/260000/04E6A41C-481A-5549-81D8-922944FE794A.root
/eos/lyoeos.in2p3.fr/grid/cms/store/mc/RunIISummer20UL18NanoAODv9/QCD_Pt-470To600_MuEnrichedPt5_TuneCP5_13TeV-pythia8/NANOAODSIM/106X_upgrade2018_realistic_v16_L1v1-v2/260000/0C6A4DDD-DDB4-AA47-9659-54A886100651.root
/eos/lyoeos.in2p3.fr/grid/cms/store/mc/RunIISummer20UL18NanoAODv9/QCD_Pt-470To600_MuEnrichedPt5_TuneCP5_13TeV-pythia8/NANOAODSIM/106X_upgrade2018_realistic_v16_L1v1-v2/260000/0D429D34-FC09-B04D-A57D-9619BF05D82A.root
/eos/lyoeos.in2p3.fr/grid/cms/store/mc/RunIISummer20UL18NanoAODv9/QCD_Pt-470To600_MuEnrichedPt5_TuneCP5_13TeV-pythia8/NANOAODSIM/106X_upgrade2018_realistic_v16_L1v1-v2/260000/0F31ECE4-E76A-2D42-A331-552F35A099CC.root
/eos/lyoeos.in2p3.fr/grid/cms/store/mc/RunIISummer20UL18NanoAODv9/QCD_Pt-470To600_MuEnrichedPt5_TuneCP5_13TeV-pythia8/NANOAODSIM/106X_upgrade2018_realistic_v16_L1v1-v2/260000/198BDBB1-0B5B-554A-935E-5DD8FA2FD5FB.root
/eos/lyoeos.in2p3.fr/grid/cms/store/mc/RunIISummer20UL18NanoAODv9/QCD_Pt-470To600_MuEnrichedPt5_TuneCP5_13TeV-pythia8/NANOAODSIM/106X_upgrade2018_realistic_v16_L1v1-v2/260000/1F7B3632-D3F2-3842-967F-29FDF1D44523.root
/eos/lyoeos.in2p3.fr/grid/cms/store/mc/RunIISummer20UL18NanoAODv9/QCD_Pt-470To600_MuEnrichedPt5_TuneCP5_13TeV-pythia8/NANOAODSIM/106X_upgrade2018_realistic_v16_L1v1-v2/260000/280524E5-65CF-B248-BCB9-62C0748AD3AA.root
/eos/lyoeos.in2p3.fr/grid/cms/store/mc/RunIISummer20UL18NanoAODv9/QCD_Pt-470To600_MuEnrichedPt5_TuneCP5_13TeV-pythia8/NANOAODSIM/106X_upgrade2018_realistic_v16_L1v1-v2/260000/29649A99-7624-0147-8166-C378E01E52DD.root
/eos/lyoeos.in2p3.fr/grid/cms/store/mc/RunIISummer20UL18NanoAODv9/QCD_Pt-470To600_MuEnrichedPt5_TuneCP5_13TeV-pythia8/NANOAODSIM/106X_upgrade2018_realistic_v16_L1v1-v2/260000/2B45F98F-2D52-5C4F-A981-E4F376F644A3.root
/eos/lyoeos.in2p3.fr/grid/cms/store/mc/RunIISummer20UL18NanoAODv9/QCD_Pt-470To600_MuEnrichedPt5_TuneCP5_13TeV-pythia8/NANOAODSIM/106X_upgrade2018_realistic_v16_L1v1-v2/260000/2D6AD63A-CB18-C848-B9F3-E0646B1759F7.root
/eos/lyoeos.in2p3.fr/grid/cms/store/mc/RunIISummer20UL18NanoAODv9/QCD_Pt-470To600_MuEnrichedPt5_TuneCP5_13TeV-pythia8/NANOAODSIM/106X_upgrade2018_realistic_v16_L1v1-v2/260000/349936E0-DB78-844E-96BD-8DBE1F6C6828.root
/eos/lyoeos.in2p3.fr/grid/cms/store/mc/RunIISummer20UL18NanoAODv9/QCD_Pt-470To600_MuEnrichedPt5_TuneCP5_13TeV-pythia8/NANOAODSIM/106X_upgrade2018_realistic_v16_L1v1-v2/260000/375B1099-EFCC-3B4F-B053-DDA3EF70FAAD.root
/eos/lyoeos.in2p3.fr/grid/cms/store/mc/RunIISummer20UL18NanoAODv9/QCD_Pt-470To600_MuEnrichedPt5_TuneCP5_13TeV-pythia8/NANOAODSIM/106X_upgrade2018_realistic_v16_L1v1-v2/260000/3A71C07B-4D82-6443-8A13-DF9DDAC52ADC.root
/eos/lyoeos.in2p3.fr/grid/cms/store/mc/RunIISummer20UL18NanoAODv9/QCD_Pt-470To600_MuEnrichedPt5_TuneCP5_13TeV-pythia8/NANOAODSIM/106X_upgrade2018_realistic_v16_L1v1-v2/260000/3F8813B7-A09B-F041-A3FE-D3EED60D6AAB.root
/eos/lyoeos.in2p3.fr/grid/cms/store/mc/RunIISummer20UL18NanoAODv9/QCD_Pt-470To600_MuEnrichedPt5_TuneCP5_13TeV-pythia8/NANOAODSIM/106X_upgrade2018_realistic_v16_L1v1-v2/260000/406BB5D1-AE58-614A-A5C2-854791371449.root
/eos/lyoeos.in2p3.fr/grid/cms/store/mc/RunIISummer20UL18NanoAODv9/QCD_Pt-470To600_MuEnrichedPt5_TuneCP5_13TeV-pythia8/NANOAODSIM/106X_upgrade2018_realistic_v16_L1v1-v2/260000/4511754A-F995-4C4C-993B-E41EA275DF01.root
/eos/lyoeos.in2p3.fr/grid/cms/store/mc/RunIISummer20UL18NanoAODv9/QCD_Pt-470To600_MuEnrichedPt5_TuneCP5_13TeV-pythia8/NANOAODSIM/106X_upgrade2018_realistic_v16_L1v1-v2/260000/4DA2F527-73F1-8041-B8BE-574388EFADB1.root
/eos/lyoeos.in2p3.fr/grid/cms/store/mc/RunIISummer20UL18NanoAODv9/QCD_Pt-470To600_MuEnrichedPt5_TuneCP5_13TeV-pythia8/NANOAODSIM/106X_upgrade2018_realistic_v16_L1v1-v2/260000/4EFBFCA8-BBD1-DB4B-9A0E-CA5D356D59E4.root
/eos/lyoeos.in2p3.fr/grid/cms/store/mc/RunIISummer20UL18NanoAODv9/QCD_Pt-470To600_MuEnrichedPt5_TuneCP5_13TeV-pythia8/NANOAODSIM/106X_upgrade2018_realistic_v16_L1v1-v2/260000/51536A63-8DCD-824D-888B-1D02BB816117.root
/eos/lyoeos.in2p3.fr/grid/cms/store/mc/RunIISummer20UL18NanoAODv9/QCD_Pt-470To600_MuEnrichedPt5_TuneCP5_13TeV-pythia8/NANOAODSIM/106X_upgrade2018_realistic_v16_L1v1-v2/260000/53815C7D-34B4-E248-ADE7-62D07811FB8F.root
/eos/lyoeos.in2p3.fr/grid/cms/store/mc/RunIISummer20UL18NanoAODv9/QCD_Pt-470To600_MuEnrichedPt5_TuneCP5_13TeV-pythia8/NANOAODSIM/106X_upgrade2018_realistic_v16_L1v1-v2/260000/53DE7960-5B6E-C44A-B2CA-071D97857197.root
/eos/lyoeos.in2p3.fr/grid/cms/store/mc/RunIISummer20UL18NanoAODv9/QCD_Pt-470To600_MuEnrichedPt5_TuneCP5_13TeV-pythia8/NANOAODSIM/106X_upgrade2018_realistic_v16_L1v1-v2/260000/59BBD755-090D-7140-8E6F-AC1650F914E9.root
/eos/lyoeos.in2p3.fr/grid/cms/store/mc/RunIISummer20UL18NanoAODv9/QCD_Pt-470To600_MuEnrichedPt5_TuneCP5_13TeV-pythia8/NANOAODSIM/106X_upgrade2018_realistic_v16_L1v1-v2/260000/5D47C7FB-E24F-BF4E-B490-103D3C5CFBAE.root
/eos/lyoeos.in2p3.fr/grid/cms/store/mc/RunIISummer20UL18NanoAODv9/QCD_Pt-470To600_MuEnrichedPt5_TuneCP5_13TeV-pythia8/NANOAODSIM/106X_upgrade2018_realistic_v16_L1v1-v2/260000/5F822B71-A992-0F4F-B081-B90BB56F9013.root
/eos/lyoeos.in2p3.fr/grid/cms/store/mc/RunIISummer20UL18NanoAODv9/QCD_Pt-470To600_MuEnrichedPt5_TuneCP5_13TeV-pythia8/NANOAODSIM/106X_upgrade2018_realistic_v16_L1v1-v2/260000/69491652-C099-8342-8390-52AE2AD4C290.root
/eos/lyoeos.in2p3.fr/grid/cms/store/mc/RunIISummer20UL18NanoAODv9/QCD_Pt-470To600_MuEnrichedPt5_TuneCP5_13TeV-pythia8/NANOAODSIM/106X_upgrade2018_realistic_v16_L1v1-v2/260000/6A68C890-C7B6-9444-ABFC-EF64F6CC480C.root
/eos/lyoeos.in2p3.fr/grid/cms/store/mc/RunIISummer20UL18NanoAODv9/QCD_Pt-470To600_MuEnrichedPt5_TuneCP5_13TeV-pythia8/NANOAODSIM/106X_upgrade2018_realistic_v16_L1v1-v2/260000/6D597CC3-0206-EF4B-98DA-A796E6CBF588.root
/eos/lyoeos.in2p3.fr/grid/cms/store/mc/RunIISummer20UL18NanoAODv9/QCD_Pt-470To600_MuEnrichedPt5_TuneCP5_13TeV-pythia8/NANOAODSIM/106X_upgrade2018_realistic_v16_L1v1-v2/260000/6D9953A0-3546-544A-8FC2-F4CB20913701.root
/eos/lyoeos.in2p3.fr/grid/cms/store/mc/RunIISummer20UL18NanoAODv9/QCD_Pt-470To600_MuEnrichedPt5_TuneCP5_13TeV-pythia8/NANOAODSIM/106X_upgrade2018_realistic_v16_L1v1-v2/260000/742DB50B-1429-F249-A1C5-7059F71B0CF2.root
/eos/lyoeos.in2p3.fr/grid/cms/store/mc/RunIISummer20UL18NanoAODv9/QCD_Pt-470To600_MuEnrichedPt5_TuneCP5_13TeV-pythia8/NANOAODSIM/106X_upgrade2018_realistic_v16_L1v1-v2/260000/7BEC9C84-A3BC-A34C-BC41-CEF4587EEBA4.root
/eos/lyoeos.in2p3.fr/grid/cms/store/mc/RunIISummer20UL18NanoAODv9/QCD_Pt-470To600_MuEnrichedPt5_TuneCP5_13TeV-pythia8/NANOAODSIM/106X_upgrade2018_realistic_v16_L1v1-v2/260000/7CA4B899-EF65-D94C-9F7A-3B66419D20A6.root
/eos/lyoeos.in2p3.fr/grid/cms/store/mc/RunIISummer20UL18NanoAODv9/QCD_Pt-470To600_MuEnrichedPt5_TuneCP5_13TeV-pythia8/NANOAODSIM/106X_upgrade2018_realistic_v16_L1v1-v2/260000/7E6CCBDE-4F08-614A-A22F-50CABCED6237.root
/eos/lyoeos.in2p3.fr/grid/cms/store/mc/RunIISummer20UL18NanoAODv9/QCD_Pt-470To600_MuEnrichedPt5_TuneCP5_13TeV-pythia8/NANOAODSIM/106X_upgrade2018_realistic_v16_L1v1-v2/260000/8428D020-B869-C74D-84CD-BE1487F41A3F.root
/eos/lyoeos.in2p3.fr/grid/cms/store/mc/RunIISummer20UL18NanoAODv9/QCD_Pt-470To600_MuEnrichedPt5_TuneCP5_13TeV-pythia8/NANOAODSIM/106X_upgrade2018_realistic_v16_L1v1-v2/260000/854F97AD-D70C-7C40-967C-E96091F51B97.root
/eos/lyoeos.in2p3.fr/grid/cms/store/mc/RunIISummer20UL18NanoAODv9/QCD_Pt-470To600_MuEnrichedPt5_TuneCP5_13TeV-pythia8/NANOAODSIM/106X_upgrade2018_realistic_v16_L1v1-v2/260000/860BFB85-C4E3-F145-B247-454EBCF427BE.root
/eos/lyoeos.in2p3.fr/grid/cms/store/mc/RunIISummer20UL18NanoAODv9/QCD_Pt-470To600_MuEnrichedPt5_TuneCP5_13TeV-pythia8/NANOAODSIM/106X_upgrade2018_realistic_v16_L1v1-v2/260000/86C56FDF-7D77-1441-A941-21CDC4EE9A79.root
/eos/lyoeos.in2p3.fr/grid/cms/store/mc/RunIISummer20UL18NanoAODv9/QCD_Pt-470To600_MuEnrichedPt5_TuneCP5_13TeV-pythia8/NANOAODSIM/106X_upgrade2018_realistic_v16_L1v1-v2/260000/881291EB-7BB7-354C-840F-6A77338B68D9.root
/eos/lyoeos.in2p3.fr/grid/cms/store/mc/RunIISummer20UL18NanoAODv9/QCD_Pt-470To600_MuEnrichedPt5_TuneCP5_13TeV-pythia8/NANOAODSIM/106X_upgrade2018_realistic_v16_L1v1-v2/260000/8A44F8E7-C22B-2B44-AC3B-B0B5E33F129A.root
/eos/lyoeos.in2p3.fr/grid/cms/store/mc/RunIISummer20UL18NanoAODv9/QCD_Pt-470To600_MuEnrichedPt5_TuneCP5_13TeV-pythia8/NANOAODSIM/106X_upgrade2018_realistic_v16_L1v1-v2/260000/8C28A5C7-8678-864E-98CC-BC41FD29F0A3.root
/eos/lyoeos.in2p3.fr/grid/cms/store/mc/RunIISummer20UL18NanoAODv9/QCD_Pt-470To600_MuEnrichedPt5_TuneCP5_13TeV-pythia8/NANOAODSIM/106X_upgrade2018_realistic_v16_L1v1-v2/260000/9276DA53-8C26-744F-A59F-3756A46A79DC.root
/eos/lyoeos.in2p3.fr/grid/cms/store/mc/RunIISummer20UL18NanoAODv9/QCD_Pt-470To600_MuEnrichedPt5_TuneCP5_13TeV-pythia8/NANOAODSIM/106X_upgrade2018_realistic_v16_L1v1-v2/260000/92D39CDE-FE20-934A-92FB-9F055DEA50DF.root
/eos/lyoeos.in2p3.fr/grid/cms/store/mc/RunIISummer20UL18NanoAODv9/QCD_Pt-470To600_MuEnrichedPt5_TuneCP5_13TeV-pythia8/NANOAODSIM/106X_upgrade2018_realistic_v16_L1v1-v2/260000/93507137-A956-0D4B-B4AA-D0A2BD60E5EB.root
/eos/lyoeos.in2p3.fr/grid/cms/store/mc/RunIISummer20UL18NanoAODv9/QCD_Pt-470To600_MuEnrichedPt5_TuneCP5_13TeV-pythia8/NANOAODSIM/106X_upgrade2018_realistic_v16_L1v1-v2/260000/976CADB0-BCEB-594D-A536-1239A4495C9A.root
/eos/lyoeos.in2p3.fr/grid/cms/store/mc/RunIISummer20UL18NanoAODv9/QCD_Pt-470To600_MuEnrichedPt5_TuneCP5_13TeV-pythia8/NANOAODSIM/106X_upgrade2018_realistic_v16_L1v1-v2/260000/99A8B01F-7A46-2F4E-85AF-9CF65F7B46B5.root
/eos/lyoeos.in2p3.fr/grid/cms/store/mc/RunIISummer20UL18NanoAODv9/QCD_Pt-470To600_MuEnrichedPt5_TuneCP5_13TeV-pythia8/NANOAODSIM/106X_upgrade2018_realistic_v16_L1v1-v2/260000/99EC0221-6BA2-524C-B36E-9FC6BCCFDE10.root
/eos/lyoeos.in2p3.fr/grid/cms/store/mc/RunIISummer20UL18NanoAODv9/QCD_Pt-470To600_MuEnrichedPt5_TuneCP5_13TeV-pythia8/NANOAODSIM/106X_upgrade2018_realistic_v16_L1v1-v2/260000/9F9549CE-8A37-B743-93A1-9CFFBD8CF5A3.root
/eos/lyoeos.in2p3.fr/grid/cms/store/mc/RunIISummer20UL18NanoAODv9/QCD_Pt-470To600_MuEnrichedPt5_TuneCP5_13TeV-pythia8/NANOAODSIM/106X_upgrade2018_realistic_v16_L1v1-v2/260000/A05105F4-3295-BA4F-B8C3-0FB19C362872.root
/eos/lyoeos.in2p3.fr/grid/cms/store/mc/RunIISummer20UL18NanoAODv9/QCD_Pt-470To600_MuEnrichedPt5_TuneCP5_13TeV-pythia8/NANOAODSIM/106X_upgrade2018_realistic_v16_L1v1-v2/260000/A32E5793-4A4D-2149-95F8-EEFC4C2491DC.root
/eos/lyoeos.in2p3.fr/grid/cms/store/mc/RunIISummer20UL18NanoAODv9/QCD_Pt-470To600_MuEnrichedPt5_TuneCP5_13TeV-pythia8/NANOAODSIM/106X_upgrade2018_realistic_v16_L1v1-v2/260000/A37E8401-8992-8140-AEBA-F608006284D2.root
/eos/lyoeos.in2p3.fr/grid/cms/store/mc/RunIISummer20UL18NanoAODv9/QCD_Pt-470To600_MuEnrichedPt5_TuneCP5_13TeV-pythia8/NANOAODSIM/106X_upgrade2018_realistic_v16_L1v1-v2/260000/AD6413C1-C163-1948-B00C-CE4B7FF089D1.root
/eos/lyoeos.in2p3.fr/grid/cms/store/mc/RunIISummer20UL18NanoAODv9/QCD_Pt-470To600_MuEnrichedPt5_TuneCP5_13TeV-pythia8/NANOAODSIM/106X_upgrade2018_realistic_v16_L1v1-v2/260000/AEB7A6EA-1F44-DB4E-AF34-636330140D59.root
/eos/lyoeos.in2p3.fr/grid/cms/store/mc/RunIISummer20UL18NanoAODv9/QCD_Pt-470To600_MuEnrichedPt5_TuneCP5_13TeV-pythia8/NANOAODSIM/106X_upgrade2018_realistic_v16_L1v1-v2/260000/B60F3752-8537-2E42-91D0-94924C702277.root
/eos/lyoeos.in2p3.fr/grid/cms/store/mc/RunIISummer20UL18NanoAODv9/QCD_Pt-470To600_MuEnrichedPt5_TuneCP5_13TeV-pythia8/NANOAODSIM/106X_upgrade2018_realistic_v16_L1v1-v2/260000/BE0EC5B4-3B5F-0848-8CC8-F7F0114A6525.root
/eos/lyoeos.in2p3.fr/grid/cms/store/mc/RunIISummer20UL18NanoAODv9/QCD_Pt-470To600_MuEnrichedPt5_TuneCP5_13TeV-pythia8/NANOAODSIM/106X_upgrade2018_realistic_v16_L1v1-v2/260000/CCF97533-CCD6-9E43-9648-86500C26931E.root
/eos/lyoeos.in2p3.fr/grid/cms/store/mc/RunIISummer20UL18NanoAODv9/QCD_Pt-470To600_MuEnrichedPt5_TuneCP5_13TeV-pythia8/NANOAODSIM/106X_upgrade2018_realistic_v16_L1v1-v2/260000/D49B878D-E83C-8645-B153-F101F7BF914B.root
/eos/lyoeos.in2p3.fr/grid/cms/store/mc/RunIISummer20UL18NanoAODv9/QCD_Pt-470To600_MuEnrichedPt5_TuneCP5_13TeV-pythia8/NANOAODSIM/106X_upgrade2018_realistic_v16_L1v1-v2/260000/D4F46EC0-9072-9640-940A-011D847D4DB1.root
/eos/lyoeos.in2p3.fr/grid/cms/store/mc/RunIISummer20UL18NanoAODv9/QCD_Pt-470To600_MuEnrichedPt5_TuneCP5_13TeV-pythia8/NANOAODSIM/106X_upgrade2018_realistic_v16_L1v1-v2/260000/D8CEA472-A249-5A4B-83F2-C54043FF66CC.root
/eos/lyoeos.in2p3.fr/grid/cms/store/mc/RunIISummer20UL18NanoAODv9/QCD_Pt-470To600_MuEnrichedPt5_TuneCP5_13TeV-pythia8/NANOAODSIM/106X_upgrade2018_realistic_v16_L1v1-v2/260000/D9AF63E6-8008-8B45-8D6A-3395A0FA763E.root
/eos/lyoeos.in2p3.fr/grid/cms/store/mc/RunIISummer20UL18NanoAODv9/QCD_Pt-470To600_MuEnrichedPt5_TuneCP5_13TeV-pythia8/NANOAODSIM/106X_upgrade2018_realistic_v16_L1v1-v2/260000/D9EEBD0D-3634-0746-BAD0-08195AB61955.root
/eos/lyoeos.in2p3.fr/grid/cms/store/mc/RunIISummer20UL18NanoAODv9/QCD_Pt-470To600_MuEnrichedPt5_TuneCP5_13TeV-pythia8/NANOAODSIM/106X_upgrade2018_realistic_v16_L1v1-v2/260000/DC0067D9-32AC-DE4B-8EA7-51E82A45EADC.root
/eos/lyoeos.in2p3.fr/grid/cms/store/mc/RunIISummer20UL18NanoAODv9/QCD_Pt-470To600_MuEnrichedPt5_TuneCP5_13TeV-pythia8/NANOAODSIM/106X_upgrade2018_realistic_v16_L1v1-v2/260000/E1240903-FE5B-4042-AFC3-3E9B5CD2E13B.root
/eos/lyoeos.in2p3.fr/grid/cms/store/mc/RunIISummer20UL18NanoAODv9/QCD_Pt-470To600_MuEnrichedPt5_TuneCP5_13TeV-pythia8/NANOAODSIM/106X_upgrade2018_realistic_v16_L1v1-v2/260000/E45F6B1B-AB7A-114E-9F51-3B86624268F2.root
/eos/lyoeos.in2p3.fr/grid/cms/store/mc/RunIISummer20UL18NanoAODv9/QCD_Pt-470To600_MuEnrichedPt5_TuneCP5_13TeV-pythia8/NANOAODSIM/106X_upgrade2018_realistic_v16_L1v1-v2/260000/E689F7D9-61D4-744B-B34C-F57C26801378.root
/eos/lyoeos.in2p3.fr/grid/cms/store/mc/RunIISummer20UL18NanoAODv9/QCD_Pt-470To600_MuEnrichedPt5_TuneCP5_13TeV-pythia8/NANOAODSIM/106X_upgrade2018_realistic_v16_L1v1-v2/260000/E7EBDED3-AD6C-F64E-848F-8BB80F4F3EFC.root
/eos/lyoeos.in2p3.fr/grid/cms/store/mc/RunIISummer20UL18NanoAODv9/QCD_Pt-470To600_MuEnrichedPt5_TuneCP5_13TeV-pythia8/NANOAODSIM/106X_upgrade2018_realistic_v16_L1v1-v2/260000/EA7441CD-EC5D-FC49-8368-2FA2BC5ABB9C.root
/eos/lyoeos.in2p3.fr/grid/cms/store/mc/RunIISummer20UL18NanoAODv9/QCD_Pt-470To600_MuEnrichedPt5_TuneCP5_13TeV-pythia8/NANOAODSIM/106X_upgrade2018_realistic_v16_L1v1-v2/260000/EBD310CC-5B08-8640-99E1-735896A62925.root
/eos/lyoeos.in2p3.fr/grid/cms/store/mc/RunIISummer20UL18NanoAODv9/QCD_Pt-470To600_MuEnrichedPt5_TuneCP5_13TeV-pythia8/NANOAODSIM/106X_upgrade2018_realistic_v16_L1v1-v2/260000/F081CBF2-3B36-A74B-A958-9B7E88F02597.root
/eos/lyoeos.in2p3.fr/grid/cms/store/mc/RunIISummer20UL18NanoAODv9/QCD_Pt-470To600_MuEnrichedPt5_TuneCP5_13TeV-pythia8/NANOAODSIM/106X_upgrade2018_realistic_v16_L1v1-v2/260000/FD2405C9-E024-814F-9F6D-430CB05FA011.root
/eos/lyoeos.in2p3.fr/grid/cms/store/mc/RunIISummer20UL18NanoAODv9/QCD_Pt-470To600_MuEnrichedPt5_TuneCP5_13TeV-pythia8/NANOAODSIM/106X_upgrade2018_realistic_v16_L1v1-v2/270000/348E1A61-6B6A-3444-A039-89CDDD84F08B.root
/eos/lyoeos.in2p3.fr/grid/cms/store/mc/RunIISummer20UL18NanoAODv9/QCD_Pt-470To600_MuEnrichedPt5_TuneCP5_13TeV-pythia8/NANOAODSIM/106X_upgrade2018_realistic_v16_L1v1-v2/270000/61FD5466-7338-5647-AD21-AFE94834F48C.root
/eos/lyoeos.in2p3.fr/grid/cms/store/mc/RunIISummer20UL18NanoAODv9/QCD_Pt-470To600_MuEnrichedPt5_TuneCP5_13TeV-pythia8/NANOAODSIM/106X_upgrade2018_realistic_v16_L1v1-v2/270000/79A4D018-B57E-8D47-8EBD-E3058F6707CA.root
/eos/lyoeos.in2p3.fr/grid/cms/store/mc/RunIISummer20UL18NanoAODv9/QCD_Pt-470To600_MuEnrichedPt5_TuneCP5_13TeV-pythia8/NANOAODSIM/106X_upgrade2018_realistic_v16_L1v1-v2/270000/9246DE44-C1A5-4444-98BE-63C6219B6118.root
/eos/lyoeos.in2p3.fr/grid/cms/store/mc/RunIISummer20UL18NanoAODv9/QCD_Pt-470To600_MuEnrichedPt5_TuneCP5_13TeV-pythia8/NANOAODSIM/106X_upgrade2018_realistic_v16_L1v1-v2/270000/9CA812A2-ABD7-5A48-9685-15BCB65CB19E.root
/eos/lyoeos.in2p3.fr/grid/cms/store/mc/RunIISummer20UL18NanoAODv9/QCD_Pt-470To600_MuEnrichedPt5_TuneCP5_13TeV-pythia8/NANOAODSIM/106X_upgrade2018_realistic_v16_L1v1-v2/270000/A3915B06-49C6-9346-B04C-D3D07C9CCE90.root
/eos/lyoeos.in2p3.fr/grid/cms/store/mc/RunIISummer20UL18NanoAODv9/QCD_Pt-470To600_MuEnrichedPt5_TuneCP5_13TeV-pythia8/NANOAODSIM/106X_upgrade2018_realistic_v16_L1v1-v2/270000/DD4D1252-F3D0-4B48-A615-CE868D0F9292.root
/eos/lyoeos.in2p3.fr/grid/cms/store/mc/RunIISummer20UL18NanoAODv9/QCD_Pt-470To600_MuEnrichedPt5_TuneCP5_13TeV-pythia8/NANOAODSIM/106X_upgrade2018_realistic_v16_L1v1-v2/270000/E87F543A-F041-5C41-A57A-D16167A6ABC2.root
/eos/lyoeos.in2p3.fr/grid/cms/store/mc/RunIISummer20UL18NanoAODv9/QCD_Pt-470To600_MuEnrichedPt5_TuneCP5_13TeV-pythia8/NANOAODSIM/106X_upgrade2018_realistic_v16_L1v1-v2/270000/E8E2DD11-0630-5947-823E-F07D6D6E8A25.root
/eos/lyoeos.in2p3.fr/grid/cms/store/mc/RunIISummer20UL18NanoAODv9/QCD_Pt-470To600_MuEnrichedPt5_TuneCP5_13TeV-pythia8/NANOAODSIM/106X_upgrade2018_realistic_v16_L1v1-v2/270000/FFD1A4E0-3A7F-834C-8EB2-038712C7075F.root
