/eos/lyoeos.in2p3.fr/grid/cms/store/mc/RunIISummer20UL18NanoAODv9/QCD_Pt-120to170_EMEnriched_TuneCP5_13TeV-pythia8/NANOAODSIM/106X_upgrade2018_realistic_v16_L1v1-v2/100000/74A4F6D1-5E68-6F46-929B-27F607DBB0C9.root
/eos/lyoeos.in2p3.fr/grid/cms/store/mc/RunIISummer20UL18NanoAODv9/QCD_Pt-120to170_EMEnriched_TuneCP5_13TeV-pythia8/NANOAODSIM/106X_upgrade2018_realistic_v16_L1v1-v2/100000/7980EFE0-D8F9-2840-85C4-1DC5DE2E990A.root
/eos/lyoeos.in2p3.fr/grid/cms/store/mc/RunIISummer20UL18NanoAODv9/QCD_Pt-120to170_EMEnriched_TuneCP5_13TeV-pythia8/NANOAODSIM/106X_upgrade2018_realistic_v16_L1v1-v2/230000/A36A00F1-7091-5848-A045-AD78BDFA354E.root
/eos/lyoeos.in2p3.fr/grid/cms/store/mc/RunIISummer20UL18NanoAODv9/QCD_Pt-120to170_EMEnriched_TuneCP5_13TeV-pythia8/NANOAODSIM/106X_upgrade2018_realistic_v16_L1v1-v2/230000/E40A5302-D6CE-6945-9915-AF67A2A62BE5.root
/eos/lyoeos.in2p3.fr/grid/cms/store/mc/RunIISummer20UL18NanoAODv9/QCD_Pt-120to170_EMEnriched_TuneCP5_13TeV-pythia8/NANOAODSIM/106X_upgrade2018_realistic_v16_L1v1-v2/2430000/3C8B7CD7-91F8-8D4A-96B4-D0DF87A86138.root
/eos/lyoeos.in2p3.fr/grid/cms/store/mc/RunIISummer20UL18NanoAODv9/QCD_Pt-120to170_EMEnriched_TuneCP5_13TeV-pythia8/NANOAODSIM/106X_upgrade2018_realistic_v16_L1v1-v2/2430000/5AEDE1DC-1EB8-9B4E-B0A3-07928A7C60DD.root
/eos/lyoeos.in2p3.fr/grid/cms/store/mc/RunIISummer20UL18NanoAODv9/QCD_Pt-120to170_EMEnriched_TuneCP5_13TeV-pythia8/NANOAODSIM/106X_upgrade2018_realistic_v16_L1v1-v2/2430000/6B85FECC-757A-EE42-A355-18B9F12B950C.root
/eos/lyoeos.in2p3.fr/grid/cms/store/mc/RunIISummer20UL18NanoAODv9/QCD_Pt-120to170_EMEnriched_TuneCP5_13TeV-pythia8/NANOAODSIM/106X_upgrade2018_realistic_v16_L1v1-v2/250000/18A955E3-1818-DC47-B602-E2CFCBF5CC16.root
/eos/lyoeos.in2p3.fr/grid/cms/store/mc/RunIISummer20UL18NanoAODv9/QCD_Pt-120to170_EMEnriched_TuneCP5_13TeV-pythia8/NANOAODSIM/106X_upgrade2018_realistic_v16_L1v1-v2/250000/A23E2335-2486-004A-A323-E6F66B6452EA.root
/eos/lyoeos.in2p3.fr/grid/cms/store/mc/RunIISummer20UL18NanoAODv9/QCD_Pt-120to170_EMEnriched_TuneCP5_13TeV-pythia8/NANOAODSIM/106X_upgrade2018_realistic_v16_L1v1-v2/2500000/B93F2D9E-8294-9E4D-B48C-8667D565D6B2.root
/eos/lyoeos.in2p3.fr/grid/cms/store/mc/RunIISummer20UL18NanoAODv9/QCD_Pt-120to170_EMEnriched_TuneCP5_13TeV-pythia8/NANOAODSIM/106X_upgrade2018_realistic_v16_L1v1-v2/2510000/6B8D8678-241B-7F47-94A2-255A8F7C2E58.root
/eos/lyoeos.in2p3.fr/grid/cms/store/mc/RunIISummer20UL18NanoAODv9/QCD_Pt-120to170_EMEnriched_TuneCP5_13TeV-pythia8/NANOAODSIM/106X_upgrade2018_realistic_v16_L1v1-v2/2510000/94921CA6-8CFA-9D4D-8623-3C9D76819CC7.root
/eos/lyoeos.in2p3.fr/grid/cms/store/mc/RunIISummer20UL18NanoAODv9/QCD_Pt-120to170_EMEnriched_TuneCP5_13TeV-pythia8/NANOAODSIM/106X_upgrade2018_realistic_v16_L1v1-v2/40000/01B1F724-50B5-034E-B919-8E95617CDF27.root
/eos/lyoeos.in2p3.fr/grid/cms/store/mc/RunIISummer20UL18NanoAODv9/QCD_Pt-120to170_EMEnriched_TuneCP5_13TeV-pythia8/NANOAODSIM/106X_upgrade2018_realistic_v16_L1v1-v2/40000/2E73825A-FE48-A440-98D3-5177CD6DDF64.root
/eos/lyoeos.in2p3.fr/grid/cms/store/mc/RunIISummer20UL18NanoAODv9/QCD_Pt-120to170_EMEnriched_TuneCP5_13TeV-pythia8/NANOAODSIM/106X_upgrade2018_realistic_v16_L1v1-v2/40000/EED035C6-9760-8042-89F4-B8144BE71DE0.root
