/eos/lyoeos.in2p3.fr/grid/cms/store/data/Run2017C/SingleElectron/NANOAOD/UL2017_MiniAODv2_NanoAODv9-v1/120000/090D7428-C0D1-7043-982A-C5E8811BD58D.root
/eos/lyoeos.in2p3.fr/grid/cms/store/data/Run2017C/SingleElectron/NANOAOD/UL2017_MiniAODv2_NanoAODv9-v1/120000/0928E1A1-05E0-884F-826E-E5A18FA491BE.root
/eos/lyoeos.in2p3.fr/grid/cms/store/data/Run2017C/SingleElectron/NANOAOD/UL2017_MiniAODv2_NanoAODv9-v1/120000/0A485330-ED63-DE43-91EB-B7D65DD2CC5D.root
/eos/lyoeos.in2p3.fr/grid/cms/store/data/Run2017C/SingleElectron/NANOAOD/UL2017_MiniAODv2_NanoAODv9-v1/120000/0C01E15F-9039-6542-8CB1-3B960EBC4C68.root
/eos/lyoeos.in2p3.fr/grid/cms/store/data/Run2017C/SingleElectron/NANOAOD/UL2017_MiniAODv2_NanoAODv9-v1/120000/154FEF87-1D6F-124C-99A4-0116CAE52EFA.root
/eos/lyoeos.in2p3.fr/grid/cms/store/data/Run2017C/SingleElectron/NANOAOD/UL2017_MiniAODv2_NanoAODv9-v1/120000/1ACAF1F9-DB0F-BD42-848F-C245795052A0.root
/eos/lyoeos.in2p3.fr/grid/cms/store/data/Run2017C/SingleElectron/NANOAOD/UL2017_MiniAODv2_NanoAODv9-v1/120000/1AE08F13-B9B4-F148-88EB-6DFC7695D56F.root
/eos/lyoeos.in2p3.fr/grid/cms/store/data/Run2017C/SingleElectron/NANOAOD/UL2017_MiniAODv2_NanoAODv9-v1/120000/1F5AD6E0-B1B6-D140-929F-61144B3C8FE7.root
/eos/lyoeos.in2p3.fr/grid/cms/store/data/Run2017C/SingleElectron/NANOAOD/UL2017_MiniAODv2_NanoAODv9-v1/120000/22A3D164-FF29-A048-B475-F99D4C30D23C.root
/eos/lyoeos.in2p3.fr/grid/cms/store/data/Run2017C/SingleElectron/NANOAOD/UL2017_MiniAODv2_NanoAODv9-v1/120000/29BABAFB-D69B-1045-9818-905FC0EA0183.root
/eos/lyoeos.in2p3.fr/grid/cms/store/data/Run2017C/SingleElectron/NANOAOD/UL2017_MiniAODv2_NanoAODv9-v1/120000/3018A9A7-8F20-AC4C-AE81-206DCDA75971.root
/eos/lyoeos.in2p3.fr/grid/cms/store/data/Run2017C/SingleElectron/NANOAOD/UL2017_MiniAODv2_NanoAODv9-v1/120000/3196056C-0C42-2348-A94B-E792599F25BA.root
/eos/lyoeos.in2p3.fr/grid/cms/store/data/Run2017C/SingleElectron/NANOAOD/UL2017_MiniAODv2_NanoAODv9-v1/120000/40847BB4-F2A8-F34D-8DAB-472A25A17122.root
/eos/lyoeos.in2p3.fr/grid/cms/store/data/Run2017C/SingleElectron/NANOAOD/UL2017_MiniAODv2_NanoAODv9-v1/120000/42A2745C-EC12-4546-9302-FC5A4CC76483.root
/eos/lyoeos.in2p3.fr/grid/cms/store/data/Run2017C/SingleElectron/NANOAOD/UL2017_MiniAODv2_NanoAODv9-v1/120000/43B59B5C-D35D-1049-B076-0DE97AA290BA.root
/eos/lyoeos.in2p3.fr/grid/cms/store/data/Run2017C/SingleElectron/NANOAOD/UL2017_MiniAODv2_NanoAODv9-v1/120000/46097DF3-D114-D847-8935-1EDB8DE83C99.root
/eos/lyoeos.in2p3.fr/grid/cms/store/data/Run2017C/SingleElectron/NANOAOD/UL2017_MiniAODv2_NanoAODv9-v1/120000/5B8934E5-43BC-8949-ADBD-C92BCA7A420A.root
/eos/lyoeos.in2p3.fr/grid/cms/store/data/Run2017C/SingleElectron/NANOAOD/UL2017_MiniAODv2_NanoAODv9-v1/120000/64CF9734-1B89-9647-8ABC-7C1A0139B866.root
/eos/lyoeos.in2p3.fr/grid/cms/store/data/Run2017C/SingleElectron/NANOAOD/UL2017_MiniAODv2_NanoAODv9-v1/120000/72621D6A-3C6D-1F4E-9102-4F0B2DCA7A06.root
/eos/lyoeos.in2p3.fr/grid/cms/store/data/Run2017C/SingleElectron/NANOAOD/UL2017_MiniAODv2_NanoAODv9-v1/120000/780FEA1B-99C2-BB47-BDF8-C81B508652DD.root
/eos/lyoeos.in2p3.fr/grid/cms/store/data/Run2017C/SingleElectron/NANOAOD/UL2017_MiniAODv2_NanoAODv9-v1/120000/7BDCDA82-8CAC-654B-9613-50CAA5EE20A5.root
/eos/lyoeos.in2p3.fr/grid/cms/store/data/Run2017C/SingleElectron/NANOAOD/UL2017_MiniAODv2_NanoAODv9-v1/120000/88B100BD-BDA4-9549-916D-04DE6890D57A.root
/eos/lyoeos.in2p3.fr/grid/cms/store/data/Run2017C/SingleElectron/NANOAOD/UL2017_MiniAODv2_NanoAODv9-v1/120000/91F45B1B-6D1D-8B4D-9570-F2056BC71A3A.root
/eos/lyoeos.in2p3.fr/grid/cms/store/data/Run2017C/SingleElectron/NANOAOD/UL2017_MiniAODv2_NanoAODv9-v1/120000/96ED61DF-353C-9447-AABE-33C4FF58EC27.root
/eos/lyoeos.in2p3.fr/grid/cms/store/data/Run2017C/SingleElectron/NANOAOD/UL2017_MiniAODv2_NanoAODv9-v1/120000/980D4D11-7F12-3A4C-941C-DE5A6A3F7357.root
/eos/lyoeos.in2p3.fr/grid/cms/store/data/Run2017C/SingleElectron/NANOAOD/UL2017_MiniAODv2_NanoAODv9-v1/120000/A4EF9613-82A6-A44A-A8A1-2F5EF9E8A284.root
/eos/lyoeos.in2p3.fr/grid/cms/store/data/Run2017C/SingleElectron/NANOAOD/UL2017_MiniAODv2_NanoAODv9-v1/120000/A741A68C-71E9-E64E-BF46-622C399F89BF.root
/eos/lyoeos.in2p3.fr/grid/cms/store/data/Run2017C/SingleElectron/NANOAOD/UL2017_MiniAODv2_NanoAODv9-v1/120000/AB784BE2-AAEE-9341-9D19-D290154BD582.root
/eos/lyoeos.in2p3.fr/grid/cms/store/data/Run2017C/SingleElectron/NANOAOD/UL2017_MiniAODv2_NanoAODv9-v1/120000/AC645799-C83C-EC4E-881E-B5729DE0118F.root
/eos/lyoeos.in2p3.fr/grid/cms/store/data/Run2017C/SingleElectron/NANOAOD/UL2017_MiniAODv2_NanoAODv9-v1/120000/AE8E9AD8-6299-0147-ACBD-973BF78ECC74.root
/eos/lyoeos.in2p3.fr/grid/cms/store/data/Run2017C/SingleElectron/NANOAOD/UL2017_MiniAODv2_NanoAODv9-v1/120000/B0302613-F6C3-E244-A614-6EA22E5F1017.root
/eos/lyoeos.in2p3.fr/grid/cms/store/data/Run2017C/SingleElectron/NANOAOD/UL2017_MiniAODv2_NanoAODv9-v1/120000/B58A44DE-D9F6-1C42-98F1-5A5473D6D3CA.root
/eos/lyoeos.in2p3.fr/grid/cms/store/data/Run2017C/SingleElectron/NANOAOD/UL2017_MiniAODv2_NanoAODv9-v1/120000/B8433769-0F79-8E40-9257-C259C38EF3A8.root
/eos/lyoeos.in2p3.fr/grid/cms/store/data/Run2017C/SingleElectron/NANOAOD/UL2017_MiniAODv2_NanoAODv9-v1/120000/BF4FD818-A911-E142-8962-458CADA545BE.root
/eos/lyoeos.in2p3.fr/grid/cms/store/data/Run2017C/SingleElectron/NANOAOD/UL2017_MiniAODv2_NanoAODv9-v1/120000/C1EFE8FA-EFF4-F04D-B0BF-E7981EBE1BBA.root
/eos/lyoeos.in2p3.fr/grid/cms/store/data/Run2017C/SingleElectron/NANOAOD/UL2017_MiniAODv2_NanoAODv9-v1/120000/C68888AC-C93E-B446-80E5-A90A9195A67F.root
/eos/lyoeos.in2p3.fr/grid/cms/store/data/Run2017C/SingleElectron/NANOAOD/UL2017_MiniAODv2_NanoAODv9-v1/120000/C7997335-DA7A-5B45-8B51-7299E94A0E53.root
/eos/lyoeos.in2p3.fr/grid/cms/store/data/Run2017C/SingleElectron/NANOAOD/UL2017_MiniAODv2_NanoAODv9-v1/120000/CAAA21B2-1CF9-B841-9B04-A82AB446A7E7.root
/eos/lyoeos.in2p3.fr/grid/cms/store/data/Run2017C/SingleElectron/NANOAOD/UL2017_MiniAODv2_NanoAODv9-v1/120000/CF3C9DB7-5161-5B43-88A3-2EF5590ECD7C.root
/eos/lyoeos.in2p3.fr/grid/cms/store/data/Run2017C/SingleElectron/NANOAOD/UL2017_MiniAODv2_NanoAODv9-v1/120000/CFE79A19-E381-9646-B02E-43766CFF1382.root
/eos/lyoeos.in2p3.fr/grid/cms/store/data/Run2017C/SingleElectron/NANOAOD/UL2017_MiniAODv2_NanoAODv9-v1/120000/D31F28B9-D916-864B-89D3-B49546820959.root
/eos/lyoeos.in2p3.fr/grid/cms/store/data/Run2017C/SingleElectron/NANOAOD/UL2017_MiniAODv2_NanoAODv9-v1/120000/D46E3402-7DB9-4A47-AFC1-CE5765F00126.root
/eos/lyoeos.in2p3.fr/grid/cms/store/data/Run2017C/SingleElectron/NANOAOD/UL2017_MiniAODv2_NanoAODv9-v1/120000/D6853FFD-7622-E648-BAC5-C30B9775220A.root
/eos/lyoeos.in2p3.fr/grid/cms/store/data/Run2017C/SingleElectron/NANOAOD/UL2017_MiniAODv2_NanoAODv9-v1/120000/D8123F5E-C996-2045-91E1-BDF7DFBDCB7C.root
/eos/lyoeos.in2p3.fr/grid/cms/store/data/Run2017C/SingleElectron/NANOAOD/UL2017_MiniAODv2_NanoAODv9-v1/120000/E2E885C0-E96F-5445-9167-D5F36914A3E3.root
/eos/lyoeos.in2p3.fr/grid/cms/store/data/Run2017C/SingleElectron/NANOAOD/UL2017_MiniAODv2_NanoAODv9-v1/120000/E3ED042C-FC1C-4C4F-A0ED-2ED6A115F3C7.root
/eos/lyoeos.in2p3.fr/grid/cms/store/data/Run2017C/SingleElectron/NANOAOD/UL2017_MiniAODv2_NanoAODv9-v1/120000/E57210FD-5BCF-0E40-B8D6-1E9F02487381.root
/eos/lyoeos.in2p3.fr/grid/cms/store/data/Run2017C/SingleElectron/NANOAOD/UL2017_MiniAODv2_NanoAODv9-v1/120000/E5CAA5BD-A2FE-544F-8B7D-31EEBDCCE1FD.root
/eos/lyoeos.in2p3.fr/grid/cms/store/data/Run2017C/SingleElectron/NANOAOD/UL2017_MiniAODv2_NanoAODv9-v1/120000/E70C5140-7876-1B4D-9F40-62B667003DA5.root
/eos/lyoeos.in2p3.fr/grid/cms/store/data/Run2017C/SingleElectron/NANOAOD/UL2017_MiniAODv2_NanoAODv9-v1/120000/F514E9C8-4581-A245-8612-91BA8542964F.root
/eos/lyoeos.in2p3.fr/grid/cms/store/data/Run2017C/SingleElectron/NANOAOD/UL2017_MiniAODv2_NanoAODv9-v1/120000/F87341A4-C125-BF4E-8E68-C3763174C712.root
/eos/lyoeos.in2p3.fr/grid/cms/store/data/Run2017C/SingleElectron/NANOAOD/UL2017_MiniAODv2_NanoAODv9-v1/120000/FB94FCF9-5F9D-664A-B634-30DB05EFCF41.root
/eos/lyoeos.in2p3.fr/grid/cms/store/data/Run2017C/SingleElectron/NANOAOD/UL2017_MiniAODv2_NanoAODv9-v1/120000/FC21B544-A711-C14F-A2FA-EE36C7FBDF03.root
/eos/lyoeos.in2p3.fr/grid/cms/store/data/Run2017C/SingleElectron/NANOAOD/UL2017_MiniAODv2_NanoAODv9-v1/120000/FEC26BF7-8BDC-6A49-B83C-264320460CE5.root
/eos/lyoeos.in2p3.fr/grid/cms/store/data/Run2017C/SingleElectron/NANOAOD/UL2017_MiniAODv2_NanoAODv9-v1/70000/00803FA6-CC4F-564E-91ED-6CEBBBD4389A.root
/eos/lyoeos.in2p3.fr/grid/cms/store/data/Run2017C/SingleElectron/NANOAOD/UL2017_MiniAODv2_NanoAODv9-v1/70000/3E980A35-36ED-F442-B4BD-102D42519A31.root
/eos/lyoeos.in2p3.fr/grid/cms/store/data/Run2017C/SingleElectron/NANOAOD/UL2017_MiniAODv2_NanoAODv9-v1/70000/78AC3ED5-02B0-D14F-ADED-7CC1EDF273E7.root
/eos/lyoeos.in2p3.fr/grid/cms/store/data/Run2017C/SingleElectron/NANOAOD/UL2017_MiniAODv2_NanoAODv9-v1/70000/9789736F-CC23-8E45-8A7B-7BD4591288F4.root
/eos/lyoeos.in2p3.fr/grid/cms/store/data/Run2017C/SingleElectron/NANOAOD/UL2017_MiniAODv2_NanoAODv9-v1/70000/A54B350F-62F6-7942-B1A3-BB58276EDFCC.root