/eos/lyoeos.in2p3.fr/grid/cms/store/data/Run2017E/SingleMuon/NANOAOD/UL2017_MiniAODv2_NanoAODv9-v1/110000/7E561D76-A689-3146-B23D-C83F08F0383D.root
/eos/lyoeos.in2p3.fr/grid/cms/store/data/Run2017E/SingleMuon/NANOAOD/UL2017_MiniAODv2_NanoAODv9-v1/120000/05DB05C8-BD7F-554B-B510-54B2745545E4.root
/eos/lyoeos.in2p3.fr/grid/cms/store/data/Run2017E/SingleMuon/NANOAOD/UL2017_MiniAODv2_NanoAODv9-v1/120000/12E92566-2BFE-1947-BD37-F02EFB870200.root
/eos/lyoeos.in2p3.fr/grid/cms/store/data/Run2017E/SingleMuon/NANOAOD/UL2017_MiniAODv2_NanoAODv9-v1/120000/6400432E-8A25-CC48-858C-4EC8A8A33F9C.root
/eos/lyoeos.in2p3.fr/grid/cms/store/data/Run2017E/SingleMuon/NANOAOD/UL2017_MiniAODv2_NanoAODv9-v1/120000/6DB4A63B-FE20-BF4A-99C2-02E59868A4C7.root
/eos/lyoeos.in2p3.fr/grid/cms/store/data/Run2017E/SingleMuon/NANOAOD/UL2017_MiniAODv2_NanoAODv9-v1/120000/6E0D61AC-F663-AD46-BF0C-D888C92A1988.root
/eos/lyoeos.in2p3.fr/grid/cms/store/data/Run2017E/SingleMuon/NANOAOD/UL2017_MiniAODv2_NanoAODv9-v1/120000/6E41BDAC-676A-7045-9B1E-9F2543586622.root
/eos/lyoeos.in2p3.fr/grid/cms/store/data/Run2017E/SingleMuon/NANOAOD/UL2017_MiniAODv2_NanoAODv9-v1/120000/79EEFA4F-20C6-E64A-8685-99883CAC6359.root
/eos/lyoeos.in2p3.fr/grid/cms/store/data/Run2017E/SingleMuon/NANOAOD/UL2017_MiniAODv2_NanoAODv9-v1/120000/7B792F50-8478-9C4E-89AF-A35DCC5B233B.root
/eos/lyoeos.in2p3.fr/grid/cms/store/data/Run2017E/SingleMuon/NANOAOD/UL2017_MiniAODv2_NanoAODv9-v1/120000/8981766D-D0AA-C54C-BC10-7FDFBF55BED6.root
/eos/lyoeos.in2p3.fr/grid/cms/store/data/Run2017E/SingleMuon/NANOAOD/UL2017_MiniAODv2_NanoAODv9-v1/120000/8A15BFA9-4801-FB40-AEB7-E236F34BCC05.root
/eos/lyoeos.in2p3.fr/grid/cms/store/data/Run2017E/SingleMuon/NANOAOD/UL2017_MiniAODv2_NanoAODv9-v1/120000/8D15A523-6A6C-004F-8B14-A826BE5949FF.root
/eos/lyoeos.in2p3.fr/grid/cms/store/data/Run2017E/SingleMuon/NANOAOD/UL2017_MiniAODv2_NanoAODv9-v1/120000/965CA126-F33A-0946-956C-A41975B45550.root
/eos/lyoeos.in2p3.fr/grid/cms/store/data/Run2017E/SingleMuon/NANOAOD/UL2017_MiniAODv2_NanoAODv9-v1/120000/96AAAD86-CF69-A24D-B353-7D5CCBE03FD4.root
/eos/lyoeos.in2p3.fr/grid/cms/store/data/Run2017E/SingleMuon/NANOAOD/UL2017_MiniAODv2_NanoAODv9-v1/120000/A0B6C714-24CC-4341-988F-165BFC3C7C8A.root
/eos/lyoeos.in2p3.fr/grid/cms/store/data/Run2017E/SingleMuon/NANOAOD/UL2017_MiniAODv2_NanoAODv9-v1/120000/C2ABEAFF-06CC-AD48-9121-7FEC25F92E1E.root
/eos/lyoeos.in2p3.fr/grid/cms/store/data/Run2017E/SingleMuon/NANOAOD/UL2017_MiniAODv2_NanoAODv9-v1/120000/C7B1DD5F-12F8-0248-BBA5-C7C0956BBC18.root
/eos/lyoeos.in2p3.fr/grid/cms/store/data/Run2017E/SingleMuon/NANOAOD/UL2017_MiniAODv2_NanoAODv9-v1/120000/D47532A0-3E42-ED47-9D29-C43309DAEEE9.root
/eos/lyoeos.in2p3.fr/grid/cms/store/data/Run2017E/SingleMuon/NANOAOD/UL2017_MiniAODv2_NanoAODv9-v1/120000/DF3980D1-A321-2148-A440-4A9CEBEA83B0.root
/eos/lyoeos.in2p3.fr/grid/cms/store/data/Run2017E/SingleMuon/NANOAOD/UL2017_MiniAODv2_NanoAODv9-v1/120000/E1E88BD3-0F8B-9A4B-90B8-86037B211361.root
/eos/lyoeos.in2p3.fr/grid/cms/store/data/Run2017E/SingleMuon/NANOAOD/UL2017_MiniAODv2_NanoAODv9-v1/120000/ED1FD124-F859-E24E-9542-2AE2FDBE5AE8.root
/eos/lyoeos.in2p3.fr/grid/cms/store/data/Run2017E/SingleMuon/NANOAOD/UL2017_MiniAODv2_NanoAODv9-v1/120000/F3E08DE7-1702-7C40-896E-EC2AE2501623.root
/eos/lyoeos.in2p3.fr/grid/cms/store/data/Run2017E/SingleMuon/NANOAOD/UL2017_MiniAODv2_NanoAODv9-v1/120000/FE8E9CBE-8265-6941-9239-9283D2FB1523.root
/eos/lyoeos.in2p3.fr/grid/cms/store/data/Run2017E/SingleMuon/NANOAOD/UL2017_MiniAODv2_NanoAODv9-v1/280000/06BCD2B4-A325-F042-8E92-02E452EDC6D3.root
/eos/lyoeos.in2p3.fr/grid/cms/store/data/Run2017E/SingleMuon/NANOAOD/UL2017_MiniAODv2_NanoAODv9-v1/280000/10AD78F9-CC95-5943-8E1F-C521BD0C062A.root
/eos/lyoeos.in2p3.fr/grid/cms/store/data/Run2017E/SingleMuon/NANOAOD/UL2017_MiniAODv2_NanoAODv9-v1/280000/178C567D-41B4-BF44-9489-EE125B598A37.root
/eos/lyoeos.in2p3.fr/grid/cms/store/data/Run2017E/SingleMuon/NANOAOD/UL2017_MiniAODv2_NanoAODv9-v1/280000/17AF9EB4-40E3-834F-ABD9-A6263A9B7A89.root
/eos/lyoeos.in2p3.fr/grid/cms/store/data/Run2017E/SingleMuon/NANOAOD/UL2017_MiniAODv2_NanoAODv9-v1/280000/17EE2935-B8EF-F14A-B30B-C5DD99A5FA75.root
/eos/lyoeos.in2p3.fr/grid/cms/store/data/Run2017E/SingleMuon/NANOAOD/UL2017_MiniAODv2_NanoAODv9-v1/280000/19C600ED-F2A6-6D4A-9E11-E6DCD2657533.root
/eos/lyoeos.in2p3.fr/grid/cms/store/data/Run2017E/SingleMuon/NANOAOD/UL2017_MiniAODv2_NanoAODv9-v1/280000/27ACCEA2-145A-484A-B066-707DE5A6694F.root
/eos/lyoeos.in2p3.fr/grid/cms/store/data/Run2017E/SingleMuon/NANOAOD/UL2017_MiniAODv2_NanoAODv9-v1/280000/27DD5980-754E-AD47-BABF-AE47647D6FFD.root
/eos/lyoeos.in2p3.fr/grid/cms/store/data/Run2017E/SingleMuon/NANOAOD/UL2017_MiniAODv2_NanoAODv9-v1/280000/2E9EA767-1D89-B146-B0A8-9F32DCAF1A75.root
/eos/lyoeos.in2p3.fr/grid/cms/store/data/Run2017E/SingleMuon/NANOAOD/UL2017_MiniAODv2_NanoAODv9-v1/280000/2EA24798-5622-1546-9D1F-6807EFB7D6AD.root
/eos/lyoeos.in2p3.fr/grid/cms/store/data/Run2017E/SingleMuon/NANOAOD/UL2017_MiniAODv2_NanoAODv9-v1/280000/30126AEF-93B0-7D4D-8954-9ACDFE22929A.root
/eos/lyoeos.in2p3.fr/grid/cms/store/data/Run2017E/SingleMuon/NANOAOD/UL2017_MiniAODv2_NanoAODv9-v1/280000/37142333-33A2-6F44-8DF8-1F3C02655BA6.root
/eos/lyoeos.in2p3.fr/grid/cms/store/data/Run2017E/SingleMuon/NANOAOD/UL2017_MiniAODv2_NanoAODv9-v1/280000/3A412E02-9CD6-784A-8758-2A70C8364722.root
/eos/lyoeos.in2p3.fr/grid/cms/store/data/Run2017E/SingleMuon/NANOAOD/UL2017_MiniAODv2_NanoAODv9-v1/280000/3FFD3F1E-8C30-ED45-ACB7-DF5D9FAC0D96.root
/eos/lyoeos.in2p3.fr/grid/cms/store/data/Run2017E/SingleMuon/NANOAOD/UL2017_MiniAODv2_NanoAODv9-v1/280000/453CA34E-FF83-794B-95B0-F3BC5A0A635A.root
/eos/lyoeos.in2p3.fr/grid/cms/store/data/Run2017E/SingleMuon/NANOAOD/UL2017_MiniAODv2_NanoAODv9-v1/280000/4CBB23B0-BEBA-8343-803F-FE92D54BC7E5.root
/eos/lyoeos.in2p3.fr/grid/cms/store/data/Run2017E/SingleMuon/NANOAOD/UL2017_MiniAODv2_NanoAODv9-v1/280000/4FA7F8D0-C78A-EB46-95F4-E1F5AB1285C1.root
/eos/lyoeos.in2p3.fr/grid/cms/store/data/Run2017E/SingleMuon/NANOAOD/UL2017_MiniAODv2_NanoAODv9-v1/280000/685CAD42-FB68-ED42-B621-6C7C971A9A2F.root
/eos/lyoeos.in2p3.fr/grid/cms/store/data/Run2017E/SingleMuon/NANOAOD/UL2017_MiniAODv2_NanoAODv9-v1/280000/6D4D553C-B997-B945-99A9-E32B98B80C21.root
/eos/lyoeos.in2p3.fr/grid/cms/store/data/Run2017E/SingleMuon/NANOAOD/UL2017_MiniAODv2_NanoAODv9-v1/280000/6FC8EB85-A2AA-BA48-A819-D57006F3DCAE.root
/eos/lyoeos.in2p3.fr/grid/cms/store/data/Run2017E/SingleMuon/NANOAOD/UL2017_MiniAODv2_NanoAODv9-v1/280000/733EEFDB-3039-1741-A4C5-0F8947BDAF84.root
/eos/lyoeos.in2p3.fr/grid/cms/store/data/Run2017E/SingleMuon/NANOAOD/UL2017_MiniAODv2_NanoAODv9-v1/280000/76334BD1-1485-A04C-82B2-8DDBE54E1AD7.root
/eos/lyoeos.in2p3.fr/grid/cms/store/data/Run2017E/SingleMuon/NANOAOD/UL2017_MiniAODv2_NanoAODv9-v1/280000/76CD3467-0DB4-C041-B9B1-02A8A1D4F78A.root
/eos/lyoeos.in2p3.fr/grid/cms/store/data/Run2017E/SingleMuon/NANOAOD/UL2017_MiniAODv2_NanoAODv9-v1/280000/78431BF8-9297-0F49-983B-0963D51D3215.root
/eos/lyoeos.in2p3.fr/grid/cms/store/data/Run2017E/SingleMuon/NANOAOD/UL2017_MiniAODv2_NanoAODv9-v1/280000/80E162AE-C4F5-7D47-8B7A-B22FE9E99802.root
/eos/lyoeos.in2p3.fr/grid/cms/store/data/Run2017E/SingleMuon/NANOAOD/UL2017_MiniAODv2_NanoAODv9-v1/280000/862D6590-2CEA-C042-998B-0DC26A65D93C.root
/eos/lyoeos.in2p3.fr/grid/cms/store/data/Run2017E/SingleMuon/NANOAOD/UL2017_MiniAODv2_NanoAODv9-v1/280000/87C80C2F-9DD1-C349-9C0C-DD07058B2036.root
/eos/lyoeos.in2p3.fr/grid/cms/store/data/Run2017E/SingleMuon/NANOAOD/UL2017_MiniAODv2_NanoAODv9-v1/280000/91AD353C-0F7D-3549-8C23-7035B37F2F83.root
/eos/lyoeos.in2p3.fr/grid/cms/store/data/Run2017E/SingleMuon/NANOAOD/UL2017_MiniAODv2_NanoAODv9-v1/280000/94FC2915-0F25-334F-8376-F5538FF16F1B.root
/eos/lyoeos.in2p3.fr/grid/cms/store/data/Run2017E/SingleMuon/NANOAOD/UL2017_MiniAODv2_NanoAODv9-v1/280000/9B037621-491B-BD49-9ED6-A6DFAC45442B.root
/eos/lyoeos.in2p3.fr/grid/cms/store/data/Run2017E/SingleMuon/NANOAOD/UL2017_MiniAODv2_NanoAODv9-v1/280000/C1381534-3855-CD4B-A45C-D1F86167A841.root
/eos/lyoeos.in2p3.fr/grid/cms/store/data/Run2017E/SingleMuon/NANOAOD/UL2017_MiniAODv2_NanoAODv9-v1/280000/C214B187-4DB2-2D48-B468-B5D856AF8ECD.root
/eos/lyoeos.in2p3.fr/grid/cms/store/data/Run2017E/SingleMuon/NANOAOD/UL2017_MiniAODv2_NanoAODv9-v1/280000/C91112A9-DF00-574B-A153-3F0EEA8470DE.root
/eos/lyoeos.in2p3.fr/grid/cms/store/data/Run2017E/SingleMuon/NANOAOD/UL2017_MiniAODv2_NanoAODv9-v1/280000/CB6E1DE0-6407-1B41-B5AC-F39C4F65A10B.root
/eos/lyoeos.in2p3.fr/grid/cms/store/data/Run2017E/SingleMuon/NANOAOD/UL2017_MiniAODv2_NanoAODv9-v1/280000/D060BBD3-36D7-5F46-A3B3-5AACED574BCF.root
/eos/lyoeos.in2p3.fr/grid/cms/store/data/Run2017E/SingleMuon/NANOAOD/UL2017_MiniAODv2_NanoAODv9-v1/280000/D0A17DDE-81B3-634D-8AE4-C8D6568A9EE7.root
/eos/lyoeos.in2p3.fr/grid/cms/store/data/Run2017E/SingleMuon/NANOAOD/UL2017_MiniAODv2_NanoAODv9-v1/280000/D1B23411-B7AF-114C-A471-F807B9427D4E.root
/eos/lyoeos.in2p3.fr/grid/cms/store/data/Run2017E/SingleMuon/NANOAOD/UL2017_MiniAODv2_NanoAODv9-v1/280000/D290FE9D-DBAE-B548-8BFD-1D9C0EB8CC7C.root
/eos/lyoeos.in2p3.fr/grid/cms/store/data/Run2017E/SingleMuon/NANOAOD/UL2017_MiniAODv2_NanoAODv9-v1/280000/D8220E1F-C931-8D4F-8D44-D7E7CD56B08B.root
/eos/lyoeos.in2p3.fr/grid/cms/store/data/Run2017E/SingleMuon/NANOAOD/UL2017_MiniAODv2_NanoAODv9-v1/280000/D9755752-7751-D841-A0C8-A33D1EE7AA45.root
/eos/lyoeos.in2p3.fr/grid/cms/store/data/Run2017E/SingleMuon/NANOAOD/UL2017_MiniAODv2_NanoAODv9-v1/280000/DCAE8483-607B-DE49-B1E2-F18AB77A3C71.root
/eos/lyoeos.in2p3.fr/grid/cms/store/data/Run2017E/SingleMuon/NANOAOD/UL2017_MiniAODv2_NanoAODv9-v1/280000/E4109DFD-D9B1-F34C-AC58-1D3F00CD45AE.root
/eos/lyoeos.in2p3.fr/grid/cms/store/data/Run2017E/SingleMuon/NANOAOD/UL2017_MiniAODv2_NanoAODv9-v1/280000/E47F3958-8D0D-5E48-8703-D171F98E096F.root
/eos/lyoeos.in2p3.fr/grid/cms/store/data/Run2017E/SingleMuon/NANOAOD/UL2017_MiniAODv2_NanoAODv9-v1/280000/E7290DDB-7A82-AA44-BAC0-4BF50C615416.root
/eos/lyoeos.in2p3.fr/grid/cms/store/data/Run2017E/SingleMuon/NANOAOD/UL2017_MiniAODv2_NanoAODv9-v1/280000/E8C41F41-FD63-A548-9380-A5FA14FDC012.root
/eos/lyoeos.in2p3.fr/grid/cms/store/data/Run2017E/SingleMuon/NANOAOD/UL2017_MiniAODv2_NanoAODv9-v1/280000/E9C52476-CF8C-7045-9D32-D27223924C0F.root
/eos/lyoeos.in2p3.fr/grid/cms/store/data/Run2017E/SingleMuon/NANOAOD/UL2017_MiniAODv2_NanoAODv9-v1/280000/F060AB55-EED2-8A48-A897-059159B4018A.root
/eos/lyoeos.in2p3.fr/grid/cms/store/data/Run2017E/SingleMuon/NANOAOD/UL2017_MiniAODv2_NanoAODv9-v1/280000/F394A257-73AF-C040-AC64-8BD9E49BD5B5.root
/eos/lyoeos.in2p3.fr/grid/cms/store/data/Run2017E/SingleMuon/NANOAOD/UL2017_MiniAODv2_NanoAODv9-v1/280000/F5A0D74E-59E1-4D40-8061-25828D4FE199.root
/eos/lyoeos.in2p3.fr/grid/cms/store/data/Run2017E/SingleMuon/NANOAOD/UL2017_MiniAODv2_NanoAODv9-v1/280000/F64775C8-F854-1643-A6DC-9A3708C2736F.root
/eos/lyoeos.in2p3.fr/grid/cms/store/data/Run2017E/SingleMuon/NANOAOD/UL2017_MiniAODv2_NanoAODv9-v1/280000/F89B3E69-94EB-8849-91A6-5A49E2EFDBFD.root
/eos/lyoeos.in2p3.fr/grid/cms/store/data/Run2017E/SingleMuon/NANOAOD/UL2017_MiniAODv2_NanoAODv9-v1/280000/FE3A1119-1428-8B42-A69C-6E8E963121D3.root
/eos/lyoeos.in2p3.fr/grid/cms/store/data/Run2017E/SingleMuon/NANOAOD/UL2017_MiniAODv2_NanoAODv9-v1/40000/C9604E53-0612-204E-A300-A4B7567517EA.root
/eos/lyoeos.in2p3.fr/grid/cms/store/data/Run2017E/SingleMuon/NANOAOD/UL2017_MiniAODv2_NanoAODv9-v1/40000/F6FE1BF9-A6BB-A444-BD6E-07DAA6CF1C96.root
/eos/lyoeos.in2p3.fr/grid/cms/store/data/Run2017E/SingleMuon/NANOAOD/UL2017_MiniAODv2_NanoAODv9-v1/70000/78A596F8-FC21-FE48-B150-CFFF6895BA27.root