/eos/lyoeos.in2p3.fr/grid/cms/store/mc/RunIISummer20UL17NanoAODv9/WZ_TuneCP5_13TeV-pythia8/NANOAODSIM/106X_mc2017_realistic_v9-v1/120000/3032CE7C-FDDE-7243-8B89-13AD7549A797.root
/eos/lyoeos.in2p3.fr/grid/cms/store/mc/RunIISummer20UL17NanoAODv9/WZ_TuneCP5_13TeV-pythia8/NANOAODSIM/106X_mc2017_realistic_v9-v1/120000/936C5557-15D6-B74C-9260-582B71C8B1C3.root
/eos/lyoeos.in2p3.fr/grid/cms/store/mc/RunIISummer20UL17NanoAODv9/WZ_TuneCP5_13TeV-pythia8/NANOAODSIM/106X_mc2017_realistic_v9-v1/120000/E4F05A6C-CBDD-254C-ABBD-38B7A5E81EB3.root
/eos/lyoeos.in2p3.fr/grid/cms/store/mc/RunIISummer20UL17NanoAODv9/WZ_TuneCP5_13TeV-pythia8/NANOAODSIM/106X_mc2017_realistic_v9-v1/130000/4563AB48-B968-8E40-A2B6-CC2267F666FD.root
/eos/lyoeos.in2p3.fr/grid/cms/store/mc/RunIISummer20UL17NanoAODv9/WZ_TuneCP5_13TeV-pythia8/NANOAODSIM/106X_mc2017_realistic_v9-v1/270000/34A260AF-5CF4-5648-BF9F-B84B7A5F2859.root
/eos/lyoeos.in2p3.fr/grid/cms/store/mc/RunIISummer20UL17NanoAODv9/WZ_TuneCP5_13TeV-pythia8/NANOAODSIM/106X_mc2017_realistic_v9-v1/270000/57183F7B-DFD4-2F4A-8D0E-30146B8180B3.root
/eos/lyoeos.in2p3.fr/grid/cms/store/mc/RunIISummer20UL17NanoAODv9/WZ_TuneCP5_13TeV-pythia8/NANOAODSIM/106X_mc2017_realistic_v9-v1/280000/2324A46E-D508-F64E-A349-47B2C32F9DF9.root
/eos/lyoeos.in2p3.fr/grid/cms/store/mc/RunIISummer20UL17NanoAODv9/WZ_TuneCP5_13TeV-pythia8/NANOAODSIM/106X_mc2017_realistic_v9-v1/280000/57CF3855-EDA0-D74A-95AF-BE11A0C5CC47.root
/eos/lyoeos.in2p3.fr/grid/cms/store/mc/RunIISummer20UL17NanoAODv9/WZ_TuneCP5_13TeV-pythia8/NANOAODSIM/106X_mc2017_realistic_v9-v1/280000/6AE90AAD-6FF4-9045-A6D2-C49FC51EE04F.root
/eos/lyoeos.in2p3.fr/grid/cms/store/mc/RunIISummer20UL17NanoAODv9/WZ_TuneCP5_13TeV-pythia8/NANOAODSIM/106X_mc2017_realistic_v9-v1/280000/77F8F67B-C473-C24E-9457-CAA86B73C08F.root
/eos/lyoeos.in2p3.fr/grid/cms/store/mc/RunIISummer20UL17NanoAODv9/WZ_TuneCP5_13TeV-pythia8/NANOAODSIM/106X_mc2017_realistic_v9-v1/280000/8B3F8D35-772E-8A4A-A5DC-1C210FE634B9.root
/eos/lyoeos.in2p3.fr/grid/cms/store/mc/RunIISummer20UL17NanoAODv9/WZ_TuneCP5_13TeV-pythia8/NANOAODSIM/106X_mc2017_realistic_v9-v1/280000/A474C122-CA95-614C-9B59-9B59E4434863.root
/eos/lyoeos.in2p3.fr/grid/cms/store/mc/RunIISummer20UL17NanoAODv9/WZ_TuneCP5_13TeV-pythia8/NANOAODSIM/106X_mc2017_realistic_v9-v1/280000/BB9C5117-3695-A84C-AE4A-B50DF2A5A493.root
/eos/lyoeos.in2p3.fr/grid/cms/store/mc/RunIISummer20UL17NanoAODv9/WZ_TuneCP5_13TeV-pythia8/NANOAODSIM/106X_mc2017_realistic_v9-v1/280000/C7D7623B-2820-3B4E-AEA4-7062EC204912.root
/eos/lyoeos.in2p3.fr/grid/cms/store/mc/RunIISummer20UL17NanoAODv9/WZ_TuneCP5_13TeV-pythia8/NANOAODSIM/106X_mc2017_realistic_v9-v1/280000/D7187C96-49C4-FE47-A9D1-919C7155E553.root
/eos/lyoeos.in2p3.fr/grid/cms/store/mc/RunIISummer20UL17NanoAODv9/WZ_TuneCP5_13TeV-pythia8/NANOAODSIM/106X_mc2017_realistic_v9-v1/280000/EF9CBF4E-A9FC-ED44-B5FF-EA26470BD4A0.root
/eos/lyoeos.in2p3.fr/grid/cms/store/mc/RunIISummer20UL17NanoAODv9/WZ_TuneCP5_13TeV-pythia8/NANOAODSIM/106X_mc2017_realistic_v9-v1/70000/5CDC101C-4B0C-D248-B7DE-D3A4603F2D67.root
/eos/lyoeos.in2p3.fr/grid/cms/store/mc/RunIISummer20UL17NanoAODv9/WZ_TuneCP5_13TeV-pythia8/NANOAODSIM/106X_mc2017_realistic_v9-v1/70000/A454D9FC-0C9F-6143-9992-4A52ED757887.root
/eos/lyoeos.in2p3.fr/grid/cms/store/mc/RunIISummer20UL17NanoAODv9/WZ_TuneCP5_13TeV-pythia8/NANOAODSIM/106X_mc2017_realistic_v9-v1/70000/A8308F60-1073-D742-B102-713C001C89AB.root
/eos/lyoeos.in2p3.fr/grid/cms/store/mc/RunIISummer20UL17NanoAODv9/WZ_TuneCP5_13TeV-pythia8/NANOAODSIM/106X_mc2017_realistic_v9-v1/70000/AA222480-64FA-2140-B920-4606F5772B4C.root