/eos/lyoeos.in2p3.fr/grid/cms/store/mc/RunIISummer20UL17NanoAODv9/QCD_Pt-30to50_EMEnriched_TuneCP5_13TeV-pythia8/NANOAODSIM/106X_mc2017_realistic_v9-v2/2430000/1B4A0EF1-CA41-B145-9B09-A2891F92E647.root
/eos/lyoeos.in2p3.fr/grid/cms/store/mc/RunIISummer20UL17NanoAODv9/QCD_Pt-30to50_EMEnriched_TuneCP5_13TeV-pythia8/NANOAODSIM/106X_mc2017_realistic_v9-v2/2430000/1E3909AF-5F32-0E44-B7B5-AC0ABF5AC07D.root
/eos/lyoeos.in2p3.fr/grid/cms/store/mc/RunIISummer20UL17NanoAODv9/QCD_Pt-30to50_EMEnriched_TuneCP5_13TeV-pythia8/NANOAODSIM/106X_mc2017_realistic_v9-v2/2430000/3012E15D-3C51-C640-9337-E881D685C525.root
/eos/lyoeos.in2p3.fr/grid/cms/store/mc/RunIISummer20UL17NanoAODv9/QCD_Pt-30to50_EMEnriched_TuneCP5_13TeV-pythia8/NANOAODSIM/106X_mc2017_realistic_v9-v2/2430000/87A12775-562B-B648-BF4C-E6204EB45A8D.root
/eos/lyoeos.in2p3.fr/grid/cms/store/mc/RunIISummer20UL17NanoAODv9/QCD_Pt-30to50_EMEnriched_TuneCP5_13TeV-pythia8/NANOAODSIM/106X_mc2017_realistic_v9-v2/2430000/B753B4CC-48BA-0C45-AA2B-4002E09684E8.root
/eos/lyoeos.in2p3.fr/grid/cms/store/mc/RunIISummer20UL17NanoAODv9/QCD_Pt-30to50_EMEnriched_TuneCP5_13TeV-pythia8/NANOAODSIM/106X_mc2017_realistic_v9-v2/2430000/C426ED27-7318-064B-AD9E-023E92A790E2.root
/eos/lyoeos.in2p3.fr/grid/cms/store/mc/RunIISummer20UL17NanoAODv9/QCD_Pt-30to50_EMEnriched_TuneCP5_13TeV-pythia8/NANOAODSIM/106X_mc2017_realistic_v9-v2/2430000/E325463E-E2F1-CA4B-A508-4AA993BA4265.root