/eos/lyoeos.in2p3.fr/grid/cms/store/data/Run2018B/EGamma/NANOAOD/UL2018_MiniAODv2_NanoAODv9-v1/280000/01FE4A33-8591-B147-B9CE-FB53833D4609.root
/eos/lyoeos.in2p3.fr/grid/cms/store/data/Run2018B/EGamma/NANOAOD/UL2018_MiniAODv2_NanoAODv9-v1/280000/021C3956-CCCC-2A45-83DA-DFDAF5DC81B6.root
/eos/lyoeos.in2p3.fr/grid/cms/store/data/Run2018B/EGamma/NANOAOD/UL2018_MiniAODv2_NanoAODv9-v1/280000/0297FAA9-1A0F-CB43-9CA3-1B0952B48F3B.root
/eos/lyoeos.in2p3.fr/grid/cms/store/data/Run2018B/EGamma/NANOAOD/UL2018_MiniAODv2_NanoAODv9-v1/280000/05A338D1-C60F-1B48-A9BE-F0C5F937F313.root
/eos/lyoeos.in2p3.fr/grid/cms/store/data/Run2018B/EGamma/NANOAOD/UL2018_MiniAODv2_NanoAODv9-v1/280000/0802F3B1-E439-034E-BFE5-A19DE5F1A4F1.root
/eos/lyoeos.in2p3.fr/grid/cms/store/data/Run2018B/EGamma/NANOAOD/UL2018_MiniAODv2_NanoAODv9-v1/280000/0A021BC8-7D79-4044-9A4C-611BADEE7798.root
/eos/lyoeos.in2p3.fr/grid/cms/store/data/Run2018B/EGamma/NANOAOD/UL2018_MiniAODv2_NanoAODv9-v1/280000/0C84F06C-CF33-5249-A382-996E36D53B97.root
/eos/lyoeos.in2p3.fr/grid/cms/store/data/Run2018B/EGamma/NANOAOD/UL2018_MiniAODv2_NanoAODv9-v1/280000/0EC0D684-70E5-DD4C-8B7D-788A671E7AF0.root
/eos/lyoeos.in2p3.fr/grid/cms/store/data/Run2018B/EGamma/NANOAOD/UL2018_MiniAODv2_NanoAODv9-v1/280000/0F39CB65-39E3-624B-9315-6F087339BC57.root
/eos/lyoeos.in2p3.fr/grid/cms/store/data/Run2018B/EGamma/NANOAOD/UL2018_MiniAODv2_NanoAODv9-v1/280000/16FC837C-8B5E-524B-9A76-7F4018144C20.root
/eos/lyoeos.in2p3.fr/grid/cms/store/data/Run2018B/EGamma/NANOAOD/UL2018_MiniAODv2_NanoAODv9-v1/280000/1721AEC6-0906-BD45-A78C-67319CA38FA6.root
/eos/lyoeos.in2p3.fr/grid/cms/store/data/Run2018B/EGamma/NANOAOD/UL2018_MiniAODv2_NanoAODv9-v1/280000/17618F6D-A245-7541-932D-653CA8D30A67.root
/eos/lyoeos.in2p3.fr/grid/cms/store/data/Run2018B/EGamma/NANOAOD/UL2018_MiniAODv2_NanoAODv9-v1/280000/184A146D-100F-1D4F-AFF7-8D570599735A.root
/eos/lyoeos.in2p3.fr/grid/cms/store/data/Run2018B/EGamma/NANOAOD/UL2018_MiniAODv2_NanoAODv9-v1/280000/2099DDC9-9D78-824C-844E-9244ABA50F18.root
/eos/lyoeos.in2p3.fr/grid/cms/store/data/Run2018B/EGamma/NANOAOD/UL2018_MiniAODv2_NanoAODv9-v1/280000/2344C690-8A0E-0549-996B-EF330B236AD8.root
/eos/lyoeos.in2p3.fr/grid/cms/store/data/Run2018B/EGamma/NANOAOD/UL2018_MiniAODv2_NanoAODv9-v1/280000/27B55AD5-1C6F-1B47-9DD4-ACA48BD8B4A5.root
/eos/lyoeos.in2p3.fr/grid/cms/store/data/Run2018B/EGamma/NANOAOD/UL2018_MiniAODv2_NanoAODv9-v1/280000/28FDF35C-0EEF-6742-BA75-A84A0ACF646F.root
/eos/lyoeos.in2p3.fr/grid/cms/store/data/Run2018B/EGamma/NANOAOD/UL2018_MiniAODv2_NanoAODv9-v1/280000/2A44F176-513C-4140-8F5F-AD3E78FAC18B.root
/eos/lyoeos.in2p3.fr/grid/cms/store/data/Run2018B/EGamma/NANOAOD/UL2018_MiniAODv2_NanoAODv9-v1/280000/2C3EBCDC-C9CD-0C48-8C88-D150C2E389DC.root
/eos/lyoeos.in2p3.fr/grid/cms/store/data/Run2018B/EGamma/NANOAOD/UL2018_MiniAODv2_NanoAODv9-v1/280000/2E2572AB-7FC6-CD4B-A17E-29CFC82532BA.root
/eos/lyoeos.in2p3.fr/grid/cms/store/data/Run2018B/EGamma/NANOAOD/UL2018_MiniAODv2_NanoAODv9-v1/280000/2E8C7972-58C5-2843-A6A2-74039A149F1F.root
/eos/lyoeos.in2p3.fr/grid/cms/store/data/Run2018B/EGamma/NANOAOD/UL2018_MiniAODv2_NanoAODv9-v1/280000/31E8AC3E-2211-A34A-9852-C58BD303AD07.root
/eos/lyoeos.in2p3.fr/grid/cms/store/data/Run2018B/EGamma/NANOAOD/UL2018_MiniAODv2_NanoAODv9-v1/280000/33BEFC7D-91D6-9E4D-892E-6F10926CB9B0.root
/eos/lyoeos.in2p3.fr/grid/cms/store/data/Run2018B/EGamma/NANOAOD/UL2018_MiniAODv2_NanoAODv9-v1/280000/3431DB0F-B8B5-554A-A8A8-1129ACCE7648.root
/eos/lyoeos.in2p3.fr/grid/cms/store/data/Run2018B/EGamma/NANOAOD/UL2018_MiniAODv2_NanoAODv9-v1/280000/37E3BAF9-A00F-C145-A449-26C196B76285.root
/eos/lyoeos.in2p3.fr/grid/cms/store/data/Run2018B/EGamma/NANOAOD/UL2018_MiniAODv2_NanoAODv9-v1/280000/459461DA-6E42-6741-A6FD-93E24FD8E905.root
/eos/lyoeos.in2p3.fr/grid/cms/store/data/Run2018B/EGamma/NANOAOD/UL2018_MiniAODv2_NanoAODv9-v1/280000/460836E4-FEFD-0C49-A9D8-9473E99110C6.root
/eos/lyoeos.in2p3.fr/grid/cms/store/data/Run2018B/EGamma/NANOAOD/UL2018_MiniAODv2_NanoAODv9-v1/280000/466CB979-F92B-E047-9258-106E570F082A.root
/eos/lyoeos.in2p3.fr/grid/cms/store/data/Run2018B/EGamma/NANOAOD/UL2018_MiniAODv2_NanoAODv9-v1/280000/48537023-EE4B-4C43-BE07-65D4606D21DB.root
/eos/lyoeos.in2p3.fr/grid/cms/store/data/Run2018B/EGamma/NANOAOD/UL2018_MiniAODv2_NanoAODv9-v1/280000/4B5D121D-3A6A-834C-AC77-90E6129CE743.root
/eos/lyoeos.in2p3.fr/grid/cms/store/data/Run2018B/EGamma/NANOAOD/UL2018_MiniAODv2_NanoAODv9-v1/280000/4FA2516A-6687-3244-B5CA-1CADB6235D40.root
/eos/lyoeos.in2p3.fr/grid/cms/store/data/Run2018B/EGamma/NANOAOD/UL2018_MiniAODv2_NanoAODv9-v1/280000/515A0EFC-8488-C74A-AF7B-4C89772B00AC.root
/eos/lyoeos.in2p3.fr/grid/cms/store/data/Run2018B/EGamma/NANOAOD/UL2018_MiniAODv2_NanoAODv9-v1/280000/51727236-60CD-7D46-84C3-CAF43B57E62C.root
/eos/lyoeos.in2p3.fr/grid/cms/store/data/Run2018B/EGamma/NANOAOD/UL2018_MiniAODv2_NanoAODv9-v1/280000/5186FC6C-5B17-0848-B446-21801BA65545.root
/eos/lyoeos.in2p3.fr/grid/cms/store/data/Run2018B/EGamma/NANOAOD/UL2018_MiniAODv2_NanoAODv9-v1/280000/54ECE406-EAF6-BE49-9C78-F007DDF55D25.root
/eos/lyoeos.in2p3.fr/grid/cms/store/data/Run2018B/EGamma/NANOAOD/UL2018_MiniAODv2_NanoAODv9-v1/280000/558AC951-0D2E-6D40-91FC-E0351D11A637.root
/eos/lyoeos.in2p3.fr/grid/cms/store/data/Run2018B/EGamma/NANOAOD/UL2018_MiniAODv2_NanoAODv9-v1/280000/563C141E-7F90-C54F-AFBC-BC7EC86BBFF1.root
/eos/lyoeos.in2p3.fr/grid/cms/store/data/Run2018B/EGamma/NANOAOD/UL2018_MiniAODv2_NanoAODv9-v1/280000/58F60A7E-1A05-3347-96B8-C4A3F3024DC0.root
/eos/lyoeos.in2p3.fr/grid/cms/store/data/Run2018B/EGamma/NANOAOD/UL2018_MiniAODv2_NanoAODv9-v1/280000/59DB4DB4-2CE6-B441-92A9-060BB51D56F6.root
/eos/lyoeos.in2p3.fr/grid/cms/store/data/Run2018B/EGamma/NANOAOD/UL2018_MiniAODv2_NanoAODv9-v1/280000/5B283F5F-79CC-5648-B32F-8ED1B0AA60AC.root
/eos/lyoeos.in2p3.fr/grid/cms/store/data/Run2018B/EGamma/NANOAOD/UL2018_MiniAODv2_NanoAODv9-v1/280000/6362D3DA-92F2-D249-9702-D8C9D48F1716.root
/eos/lyoeos.in2p3.fr/grid/cms/store/data/Run2018B/EGamma/NANOAOD/UL2018_MiniAODv2_NanoAODv9-v1/280000/6475D057-75E6-2C47-928C-CE823C1B03A5.root
/eos/lyoeos.in2p3.fr/grid/cms/store/data/Run2018B/EGamma/NANOAOD/UL2018_MiniAODv2_NanoAODv9-v1/280000/708489B2-CAED-9C46-876E-D40F9A9E7775.root
/eos/lyoeos.in2p3.fr/grid/cms/store/data/Run2018B/EGamma/NANOAOD/UL2018_MiniAODv2_NanoAODv9-v1/280000/74361C2D-6193-6B49-9FA1-75F2A15D8E69.root
/eos/lyoeos.in2p3.fr/grid/cms/store/data/Run2018B/EGamma/NANOAOD/UL2018_MiniAODv2_NanoAODv9-v1/280000/7AFE756E-2B36-5F40-8DCA-10633E330060.root
/eos/lyoeos.in2p3.fr/grid/cms/store/data/Run2018B/EGamma/NANOAOD/UL2018_MiniAODv2_NanoAODv9-v1/280000/84C844AE-BD10-F445-8AB6-2835E9673DE2.root
/eos/lyoeos.in2p3.fr/grid/cms/store/data/Run2018B/EGamma/NANOAOD/UL2018_MiniAODv2_NanoAODv9-v1/280000/8602DC65-18C3-6F4D-93A7-F9819BA2CF3B.root
/eos/lyoeos.in2p3.fr/grid/cms/store/data/Run2018B/EGamma/NANOAOD/UL2018_MiniAODv2_NanoAODv9-v1/280000/883833F2-EF4B-2844-8AA9-886F6871217C.root
/eos/lyoeos.in2p3.fr/grid/cms/store/data/Run2018B/EGamma/NANOAOD/UL2018_MiniAODv2_NanoAODv9-v1/280000/91C63837-7D99-C640-BC59-AD30A3A9B62B.root
/eos/lyoeos.in2p3.fr/grid/cms/store/data/Run2018B/EGamma/NANOAOD/UL2018_MiniAODv2_NanoAODv9-v1/280000/9283FD05-CCA6-AD44-86DA-002CF83B2967.root
/eos/lyoeos.in2p3.fr/grid/cms/store/data/Run2018B/EGamma/NANOAOD/UL2018_MiniAODv2_NanoAODv9-v1/280000/95028C9A-4303-8441-9602-E6C0596F6A32.root
/eos/lyoeos.in2p3.fr/grid/cms/store/data/Run2018B/EGamma/NANOAOD/UL2018_MiniAODv2_NanoAODv9-v1/280000/98C0E27C-A080-DA46-A6AB-DA0DF1ABC23A.root
/eos/lyoeos.in2p3.fr/grid/cms/store/data/Run2018B/EGamma/NANOAOD/UL2018_MiniAODv2_NanoAODv9-v1/280000/9B69EFCC-8CA2-344F-A241-2447D1B2BA32.root
/eos/lyoeos.in2p3.fr/grid/cms/store/data/Run2018B/EGamma/NANOAOD/UL2018_MiniAODv2_NanoAODv9-v1/280000/A0671090-6B3D-DE4D-93F6-AE2B8DFFFA1A.root
/eos/lyoeos.in2p3.fr/grid/cms/store/data/Run2018B/EGamma/NANOAOD/UL2018_MiniAODv2_NanoAODv9-v1/280000/A2C4A0E8-2F15-3149-9289-AFB168006449.root
/eos/lyoeos.in2p3.fr/grid/cms/store/data/Run2018B/EGamma/NANOAOD/UL2018_MiniAODv2_NanoAODv9-v1/280000/A2ED41D8-6D3F-4343-90BD-D0193B81EE95.root
/eos/lyoeos.in2p3.fr/grid/cms/store/data/Run2018B/EGamma/NANOAOD/UL2018_MiniAODv2_NanoAODv9-v1/280000/A4BF261C-D6C8-7D45-AD1C-E939CC581EC7.root
/eos/lyoeos.in2p3.fr/grid/cms/store/data/Run2018B/EGamma/NANOAOD/UL2018_MiniAODv2_NanoAODv9-v1/280000/AA1C87FD-B26D-454A-B1BB-838BFA210249.root
/eos/lyoeos.in2p3.fr/grid/cms/store/data/Run2018B/EGamma/NANOAOD/UL2018_MiniAODv2_NanoAODv9-v1/280000/AA5BDEB8-3BBF-F647-A7B6-6A95103DDDAA.root
/eos/lyoeos.in2p3.fr/grid/cms/store/data/Run2018B/EGamma/NANOAOD/UL2018_MiniAODv2_NanoAODv9-v1/280000/AC7828A3-D6C4-CC42-B128-5D1DD4C2B4C8.root
/eos/lyoeos.in2p3.fr/grid/cms/store/data/Run2018B/EGamma/NANOAOD/UL2018_MiniAODv2_NanoAODv9-v1/280000/B5AB4FEB-CA96-F04A-8B09-859386CB3B97.root
/eos/lyoeos.in2p3.fr/grid/cms/store/data/Run2018B/EGamma/NANOAOD/UL2018_MiniAODv2_NanoAODv9-v1/280000/BC873B97-05EE-D747-9364-70E577B1120A.root
/eos/lyoeos.in2p3.fr/grid/cms/store/data/Run2018B/EGamma/NANOAOD/UL2018_MiniAODv2_NanoAODv9-v1/280000/C3CB3369-5FDF-8440-9AFB-B2367758FADF.root
/eos/lyoeos.in2p3.fr/grid/cms/store/data/Run2018B/EGamma/NANOAOD/UL2018_MiniAODv2_NanoAODv9-v1/280000/C45E43E2-D23E-784D-8781-D7FA62D586BA.root
/eos/lyoeos.in2p3.fr/grid/cms/store/data/Run2018B/EGamma/NANOAOD/UL2018_MiniAODv2_NanoAODv9-v1/280000/C507C706-EEB1-EF45-BA01-72869C84F0AC.root
/eos/lyoeos.in2p3.fr/grid/cms/store/data/Run2018B/EGamma/NANOAOD/UL2018_MiniAODv2_NanoAODv9-v1/280000/C6FBA519-DC2E-0F46-AB5D-3B7750F77A5F.root
/eos/lyoeos.in2p3.fr/grid/cms/store/data/Run2018B/EGamma/NANOAOD/UL2018_MiniAODv2_NanoAODv9-v1/280000/D73CCFB2-760A-054C-9EC8-8008588DAD8A.root
/eos/lyoeos.in2p3.fr/grid/cms/store/data/Run2018B/EGamma/NANOAOD/UL2018_MiniAODv2_NanoAODv9-v1/280000/DC55E5D5-9687-5045-A59B-3E627C381E2E.root
/eos/lyoeos.in2p3.fr/grid/cms/store/data/Run2018B/EGamma/NANOAOD/UL2018_MiniAODv2_NanoAODv9-v1/280000/E4D66FAA-EE18-5148-94DB-EC324C185E99.root
/eos/lyoeos.in2p3.fr/grid/cms/store/data/Run2018B/EGamma/NANOAOD/UL2018_MiniAODv2_NanoAODv9-v1/280000/E515E8D5-D23B-424D-9F65-2322B27176C8.root
/eos/lyoeos.in2p3.fr/grid/cms/store/data/Run2018B/EGamma/NANOAOD/UL2018_MiniAODv2_NanoAODv9-v1/280000/E8C556AF-1FCA-4542-BAAF-1308B061E02A.root
/eos/lyoeos.in2p3.fr/grid/cms/store/data/Run2018B/EGamma/NANOAOD/UL2018_MiniAODv2_NanoAODv9-v1/280000/EC9E6AF3-781A-A14D-A7B4-62E612CAB483.root
/eos/lyoeos.in2p3.fr/grid/cms/store/data/Run2018B/EGamma/NANOAOD/UL2018_MiniAODv2_NanoAODv9-v1/280000/F47C8D36-8970-1A44-B7B7-A6205CDF99FE.root
/eos/lyoeos.in2p3.fr/grid/cms/store/data/Run2018B/EGamma/NANOAOD/UL2018_MiniAODv2_NanoAODv9-v1/280000/F8D9B751-AB28-5048-B62C-75767A5797D2.root
