/eos/lyoeos.in2p3.fr/grid/cms/store/data/Run2018A/SingleMuon/NANOAOD/UL2018_MiniAODv2_NanoAODv9-v2/2550000/00EBBD1F-032C-9B49-A998-7645C9966432.root
/eos/lyoeos.in2p3.fr/grid/cms/store/data/Run2018A/SingleMuon/NANOAOD/UL2018_MiniAODv2_NanoAODv9-v2/2550000/02D6A1FE-C8EB-1A48-8B31-149FDFB64893.root
/eos/lyoeos.in2p3.fr/grid/cms/store/data/Run2018A/SingleMuon/NANOAOD/UL2018_MiniAODv2_NanoAODv9-v2/2550000/049D7B08-979F-E743-B9BE-4B37EEFD1B47.root
/eos/lyoeos.in2p3.fr/grid/cms/store/data/Run2018A/SingleMuon/NANOAOD/UL2018_MiniAODv2_NanoAODv9-v2/2550000/092EE9D3-83AD-FA4D-8443-B97E38F64E6A.root
/eos/lyoeos.in2p3.fr/grid/cms/store/data/Run2018A/SingleMuon/NANOAOD/UL2018_MiniAODv2_NanoAODv9-v2/2550000/0A16AAB8-B190-694F-9B25-9789D75E438D.root
/eos/lyoeos.in2p3.fr/grid/cms/store/data/Run2018A/SingleMuon/NANOAOD/UL2018_MiniAODv2_NanoAODv9-v2/2550000/0EC110C4-967D-AE49-A2F5-DD7C0369FCBA.root
/eos/lyoeos.in2p3.fr/grid/cms/store/data/Run2018A/SingleMuon/NANOAOD/UL2018_MiniAODv2_NanoAODv9-v2/2550000/171C5530-5150-7C44-9029-40794C1FDBF5.root
/eos/lyoeos.in2p3.fr/grid/cms/store/data/Run2018A/SingleMuon/NANOAOD/UL2018_MiniAODv2_NanoAODv9-v2/2550000/18CA020F-42A7-FC49-93D2-A828E075A6F4.root
/eos/lyoeos.in2p3.fr/grid/cms/store/data/Run2018A/SingleMuon/NANOAOD/UL2018_MiniAODv2_NanoAODv9-v2/2550000/19F638F9-D583-A64C-A524-F99EB99D265B.root
/eos/lyoeos.in2p3.fr/grid/cms/store/data/Run2018A/SingleMuon/NANOAOD/UL2018_MiniAODv2_NanoAODv9-v2/2550000/1A637715-C2DE-4649-8654-EE35342FEFC4.root
/eos/lyoeos.in2p3.fr/grid/cms/store/data/Run2018A/SingleMuon/NANOAOD/UL2018_MiniAODv2_NanoAODv9-v2/2550000/1F6BA314-D63C-FD45-9DFF-A5E4C475F4A3.root
/eos/lyoeos.in2p3.fr/grid/cms/store/data/Run2018A/SingleMuon/NANOAOD/UL2018_MiniAODv2_NanoAODv9-v2/2550000/20B0A8D5-8FB0-4B47-9CA9-7C50157410DF.root
/eos/lyoeos.in2p3.fr/grid/cms/store/data/Run2018A/SingleMuon/NANOAOD/UL2018_MiniAODv2_NanoAODv9-v2/2550000/22893D09-9B7B-694B-968E-DC8566E2272B.root
/eos/lyoeos.in2p3.fr/grid/cms/store/data/Run2018A/SingleMuon/NANOAOD/UL2018_MiniAODv2_NanoAODv9-v2/2550000/27E7147C-9E5C-AE42-BD44-15437EAC7C8E.root
/eos/lyoeos.in2p3.fr/grid/cms/store/data/Run2018A/SingleMuon/NANOAOD/UL2018_MiniAODv2_NanoAODv9-v2/2550000/28FF17A8-95EB-FD41-A55B-2EFAF2D6AF91.root
/eos/lyoeos.in2p3.fr/grid/cms/store/data/Run2018A/SingleMuon/NANOAOD/UL2018_MiniAODv2_NanoAODv9-v2/2550000/291E6E11-19DD-1B4A-8E7A-A3E8D8AA2521.root
/eos/lyoeos.in2p3.fr/grid/cms/store/data/Run2018A/SingleMuon/NANOAOD/UL2018_MiniAODv2_NanoAODv9-v2/2550000/2A775BA3-38C0-874E-A888-04F4DF3F5DF1.root
/eos/lyoeos.in2p3.fr/grid/cms/store/data/Run2018A/SingleMuon/NANOAOD/UL2018_MiniAODv2_NanoAODv9-v2/2550000/362FDFC0-B737-D24B-AFBB-5720505DC245.root
/eos/lyoeos.in2p3.fr/grid/cms/store/data/Run2018A/SingleMuon/NANOAOD/UL2018_MiniAODv2_NanoAODv9-v2/2550000/36ED9511-D46A-0C4F-A485-C2DF1C874906.root
/eos/lyoeos.in2p3.fr/grid/cms/store/data/Run2018A/SingleMuon/NANOAOD/UL2018_MiniAODv2_NanoAODv9-v2/2550000/38CE3E0F-BDFC-5F49-90C7-32EB6FA951E3.root
/eos/lyoeos.in2p3.fr/grid/cms/store/data/Run2018A/SingleMuon/NANOAOD/UL2018_MiniAODv2_NanoAODv9-v2/2550000/409530CA-61CC-564D-A9DA-596D71D50599.root
/eos/lyoeos.in2p3.fr/grid/cms/store/data/Run2018A/SingleMuon/NANOAOD/UL2018_MiniAODv2_NanoAODv9-v2/2550000/433F8C7C-498B-2949-8906-0FCF063B15D1.root
/eos/lyoeos.in2p3.fr/grid/cms/store/data/Run2018A/SingleMuon/NANOAOD/UL2018_MiniAODv2_NanoAODv9-v2/2550000/43D7AB22-508D-DD48-8961-BE19ED9F6469.root
/eos/lyoeos.in2p3.fr/grid/cms/store/data/Run2018A/SingleMuon/NANOAOD/UL2018_MiniAODv2_NanoAODv9-v2/2550000/4B9DB7DB-DF11-514B-AD7F-0871CE7CCBE3.root
/eos/lyoeos.in2p3.fr/grid/cms/store/data/Run2018A/SingleMuon/NANOAOD/UL2018_MiniAODv2_NanoAODv9-v2/2550000/4C0E201F-B233-BE4A-AA99-934775A9CCF5.root
/eos/lyoeos.in2p3.fr/grid/cms/store/data/Run2018A/SingleMuon/NANOAOD/UL2018_MiniAODv2_NanoAODv9-v2/2550000/4C2086CE-3443-0841-9181-D10E788033D3.root
/eos/lyoeos.in2p3.fr/grid/cms/store/data/Run2018A/SingleMuon/NANOAOD/UL2018_MiniAODv2_NanoAODv9-v2/2550000/4D750CB7-C342-1640-8144-7D6C3242CA81.root
/eos/lyoeos.in2p3.fr/grid/cms/store/data/Run2018A/SingleMuon/NANOAOD/UL2018_MiniAODv2_NanoAODv9-v2/2550000/51CCE697-12E3-3740-AEE8-E7A77296E100.root
/eos/lyoeos.in2p3.fr/grid/cms/store/data/Run2018A/SingleMuon/NANOAOD/UL2018_MiniAODv2_NanoAODv9-v2/2550000/547A9EA0-EF2E-3548-807F-4A06665AF500.root
/eos/lyoeos.in2p3.fr/grid/cms/store/data/Run2018A/SingleMuon/NANOAOD/UL2018_MiniAODv2_NanoAODv9-v2/2550000/57987F63-30F8-264E-B387-39BBF5FE4834.root
/eos/lyoeos.in2p3.fr/grid/cms/store/data/Run2018A/SingleMuon/NANOAOD/UL2018_MiniAODv2_NanoAODv9-v2/2550000/5E2E654F-500D-CD44-80D7-48335CBCC908.root
/eos/lyoeos.in2p3.fr/grid/cms/store/data/Run2018A/SingleMuon/NANOAOD/UL2018_MiniAODv2_NanoAODv9-v2/2550000/5EA2928F-A4C3-D045-98D0-527713011A45.root
/eos/lyoeos.in2p3.fr/grid/cms/store/data/Run2018A/SingleMuon/NANOAOD/UL2018_MiniAODv2_NanoAODv9-v2/2550000/6227DE0F-E0AD-2F4B-AB3F-ACB1C2FF77A7.root
/eos/lyoeos.in2p3.fr/grid/cms/store/data/Run2018A/SingleMuon/NANOAOD/UL2018_MiniAODv2_NanoAODv9-v2/2550000/664DF735-1448-A14D-B9FA-FD73A6CC8F81.root
/eos/lyoeos.in2p3.fr/grid/cms/store/data/Run2018A/SingleMuon/NANOAOD/UL2018_MiniAODv2_NanoAODv9-v2/2550000/664E948F-F35F-914A-BD9C-E581CF1EB826.root
/eos/lyoeos.in2p3.fr/grid/cms/store/data/Run2018A/SingleMuon/NANOAOD/UL2018_MiniAODv2_NanoAODv9-v2/2550000/6685246C-35D6-3C43-882B-4D2A486BE09E.root
/eos/lyoeos.in2p3.fr/grid/cms/store/data/Run2018A/SingleMuon/NANOAOD/UL2018_MiniAODv2_NanoAODv9-v2/2550000/6BAD2D15-F23C-9F40-A6D6-E1EBCAE61817.root
/eos/lyoeos.in2p3.fr/grid/cms/store/data/Run2018A/SingleMuon/NANOAOD/UL2018_MiniAODv2_NanoAODv9-v2/2550000/6BBB3946-C273-4847-A45E-47245CF18561.root
/eos/lyoeos.in2p3.fr/grid/cms/store/data/Run2018A/SingleMuon/NANOAOD/UL2018_MiniAODv2_NanoAODv9-v2/2550000/6F8D4F7B-86FE-5241-84C4-D9BB19B19A08.root
/eos/lyoeos.in2p3.fr/grid/cms/store/data/Run2018A/SingleMuon/NANOAOD/UL2018_MiniAODv2_NanoAODv9-v2/2550000/72155FE8-5C8A-E846-ACCA-AF90C24DDE84.root
/eos/lyoeos.in2p3.fr/grid/cms/store/data/Run2018A/SingleMuon/NANOAOD/UL2018_MiniAODv2_NanoAODv9-v2/2550000/726CD5D0-5B6F-174C-BF8B-C9CACE6BA708.root
/eos/lyoeos.in2p3.fr/grid/cms/store/data/Run2018A/SingleMuon/NANOAOD/UL2018_MiniAODv2_NanoAODv9-v2/2550000/7429D8DB-3E19-7F49-9547-C102EF0856F9.root
/eos/lyoeos.in2p3.fr/grid/cms/store/data/Run2018A/SingleMuon/NANOAOD/UL2018_MiniAODv2_NanoAODv9-v2/2550000/793928FA-C252-2143-8B1D-CFC7C15737A0.root
/eos/lyoeos.in2p3.fr/grid/cms/store/data/Run2018A/SingleMuon/NANOAOD/UL2018_MiniAODv2_NanoAODv9-v2/2550000/7A277DE5-B0B9-0148-959E-AA441CEAFF70.root
/eos/lyoeos.in2p3.fr/grid/cms/store/data/Run2018A/SingleMuon/NANOAOD/UL2018_MiniAODv2_NanoAODv9-v2/2550000/803CBBAD-2AB4-4B42-9983-EE541EECEF9A.root
/eos/lyoeos.in2p3.fr/grid/cms/store/data/Run2018A/SingleMuon/NANOAOD/UL2018_MiniAODv2_NanoAODv9-v2/2550000/866D8637-F031-A845-877E-DCB2C1891CA0.root
/eos/lyoeos.in2p3.fr/grid/cms/store/data/Run2018A/SingleMuon/NANOAOD/UL2018_MiniAODv2_NanoAODv9-v2/2550000/88A1D260-1556-394A-9502-E35E59DC8AB1.root
/eos/lyoeos.in2p3.fr/grid/cms/store/data/Run2018A/SingleMuon/NANOAOD/UL2018_MiniAODv2_NanoAODv9-v2/2550000/8EC8F577-9E06-D24B-94C4-B5ACE9CC5F96.root
/eos/lyoeos.in2p3.fr/grid/cms/store/data/Run2018A/SingleMuon/NANOAOD/UL2018_MiniAODv2_NanoAODv9-v2/2550000/909DE7F9-5E1C-F543-A202-0636C933E541.root
/eos/lyoeos.in2p3.fr/grid/cms/store/data/Run2018A/SingleMuon/NANOAOD/UL2018_MiniAODv2_NanoAODv9-v2/2550000/91EEFA9F-4327-F244-AFB1-4374366D14D3.root
/eos/lyoeos.in2p3.fr/grid/cms/store/data/Run2018A/SingleMuon/NANOAOD/UL2018_MiniAODv2_NanoAODv9-v2/2550000/921ED337-24A3-5C43-856D-6FCC18276D08.root
/eos/lyoeos.in2p3.fr/grid/cms/store/data/Run2018A/SingleMuon/NANOAOD/UL2018_MiniAODv2_NanoAODv9-v2/2550000/934385CD-C55A-194F-B298-F12AF2B00065.root
/eos/lyoeos.in2p3.fr/grid/cms/store/data/Run2018A/SingleMuon/NANOAOD/UL2018_MiniAODv2_NanoAODv9-v2/2550000/93674371-3625-9243-B0D8-2E6883F2BEB3.root
/eos/lyoeos.in2p3.fr/grid/cms/store/data/Run2018A/SingleMuon/NANOAOD/UL2018_MiniAODv2_NanoAODv9-v2/2550000/94888D6C-D93A-9F45-9C3F-5B7FC06B5E69.root
/eos/lyoeos.in2p3.fr/grid/cms/store/data/Run2018A/SingleMuon/NANOAOD/UL2018_MiniAODv2_NanoAODv9-v2/2550000/960A6D55-6AE8-5245-B6E3-5CDEE4B986F2.root
/eos/lyoeos.in2p3.fr/grid/cms/store/data/Run2018A/SingleMuon/NANOAOD/UL2018_MiniAODv2_NanoAODv9-v2/2550000/9DDF008C-B740-CA4D-B7EE-8E7E660FBD9A.root
/eos/lyoeos.in2p3.fr/grid/cms/store/data/Run2018A/SingleMuon/NANOAOD/UL2018_MiniAODv2_NanoAODv9-v2/2550000/9E20CE4D-0BC1-6B4C-A993-D87D65839927.root
/eos/lyoeos.in2p3.fr/grid/cms/store/data/Run2018A/SingleMuon/NANOAOD/UL2018_MiniAODv2_NanoAODv9-v2/2550000/9E2C3095-696D-3544-9980-2916F4F41DDF.root
/eos/lyoeos.in2p3.fr/grid/cms/store/data/Run2018A/SingleMuon/NANOAOD/UL2018_MiniAODv2_NanoAODv9-v2/2550000/A00D81DD-9808-6B48-BF7B-73B585A6C079.root
/eos/lyoeos.in2p3.fr/grid/cms/store/data/Run2018A/SingleMuon/NANOAOD/UL2018_MiniAODv2_NanoAODv9-v2/2550000/A1C580C0-94B3-7642-863E-51DCAA3DCD30.root
/eos/lyoeos.in2p3.fr/grid/cms/store/data/Run2018A/SingleMuon/NANOAOD/UL2018_MiniAODv2_NanoAODv9-v2/2550000/AA26E054-373D-5241-A1B8-66F0D9D76632.root
/eos/lyoeos.in2p3.fr/grid/cms/store/data/Run2018A/SingleMuon/NANOAOD/UL2018_MiniAODv2_NanoAODv9-v2/2550000/AAA335FC-E4F4-1C4A-AC48-6866B1BA1DCA.root
/eos/lyoeos.in2p3.fr/grid/cms/store/data/Run2018A/SingleMuon/NANOAOD/UL2018_MiniAODv2_NanoAODv9-v2/2550000/AB192D75-CF81-6740-9462-713AEDAA026F.root
/eos/lyoeos.in2p3.fr/grid/cms/store/data/Run2018A/SingleMuon/NANOAOD/UL2018_MiniAODv2_NanoAODv9-v2/2550000/ADF645CD-5FC6-AF4D-923D-7E64BCE501CB.root
/eos/lyoeos.in2p3.fr/grid/cms/store/data/Run2018A/SingleMuon/NANOAOD/UL2018_MiniAODv2_NanoAODv9-v2/2550000/AF1E517B-3EB8-974D-8587-B68E9B8CE36D.root
/eos/lyoeos.in2p3.fr/grid/cms/store/data/Run2018A/SingleMuon/NANOAOD/UL2018_MiniAODv2_NanoAODv9-v2/2550000/AF7CE345-01B2-6447-8BA4-96254E0E67F3.root
/eos/lyoeos.in2p3.fr/grid/cms/store/data/Run2018A/SingleMuon/NANOAOD/UL2018_MiniAODv2_NanoAODv9-v2/2550000/B35D7EE3-5D68-0E4F-A1B4-E0759204CEA7.root
/eos/lyoeos.in2p3.fr/grid/cms/store/data/Run2018A/SingleMuon/NANOAOD/UL2018_MiniAODv2_NanoAODv9-v2/2550000/B4072103-6BE0-EF43-834B-6BEF6D724DF2.root
/eos/lyoeos.in2p3.fr/grid/cms/store/data/Run2018A/SingleMuon/NANOAOD/UL2018_MiniAODv2_NanoAODv9-v2/2550000/B532BB97-C4AC-0042-BF53-4DE3B2916BA5.root
/eos/lyoeos.in2p3.fr/grid/cms/store/data/Run2018A/SingleMuon/NANOAOD/UL2018_MiniAODv2_NanoAODv9-v2/2550000/B7C367B0-C60C-1945-8A1F-0E594E066271.root
/eos/lyoeos.in2p3.fr/grid/cms/store/data/Run2018A/SingleMuon/NANOAOD/UL2018_MiniAODv2_NanoAODv9-v2/2550000/B83B0A93-60B2-6D4D-BDFE-D85C3A412FF4.root
/eos/lyoeos.in2p3.fr/grid/cms/store/data/Run2018A/SingleMuon/NANOAOD/UL2018_MiniAODv2_NanoAODv9-v2/2550000/BA30B608-8499-D74F-B4F8-0E1EE98720FA.root
/eos/lyoeos.in2p3.fr/grid/cms/store/data/Run2018A/SingleMuon/NANOAOD/UL2018_MiniAODv2_NanoAODv9-v2/2550000/BB0157B7-CD29-AB40-9C22-C35D072E1BA4.root
/eos/lyoeos.in2p3.fr/grid/cms/store/data/Run2018A/SingleMuon/NANOAOD/UL2018_MiniAODv2_NanoAODv9-v2/2550000/BEB1598B-2728-7D49-ABC1-8DC6368CD9BF.root
/eos/lyoeos.in2p3.fr/grid/cms/store/data/Run2018A/SingleMuon/NANOAOD/UL2018_MiniAODv2_NanoAODv9-v2/2550000/C0401434-FAE8-ED48-949E-0B418EBD7A70.root
/eos/lyoeos.in2p3.fr/grid/cms/store/data/Run2018A/SingleMuon/NANOAOD/UL2018_MiniAODv2_NanoAODv9-v2/2550000/C1FD87EB-3052-524A-8DAD-1C95A6EABBF0.root
/eos/lyoeos.in2p3.fr/grid/cms/store/data/Run2018A/SingleMuon/NANOAOD/UL2018_MiniAODv2_NanoAODv9-v2/2550000/C6ED8A53-B047-8C40-8858-3DD96E8143EF.root
/eos/lyoeos.in2p3.fr/grid/cms/store/data/Run2018A/SingleMuon/NANOAOD/UL2018_MiniAODv2_NanoAODv9-v2/2550000/CAE9C0FD-29F2-A340-9458-0C18D377E123.root
/eos/lyoeos.in2p3.fr/grid/cms/store/data/Run2018A/SingleMuon/NANOAOD/UL2018_MiniAODv2_NanoAODv9-v2/2550000/DD73DF26-22B3-1643-8171-6B6842E76368.root
/eos/lyoeos.in2p3.fr/grid/cms/store/data/Run2018A/SingleMuon/NANOAOD/UL2018_MiniAODv2_NanoAODv9-v2/2550000/E51FE3DF-DEF9-7849-AB14-4E90E54F9EF3.root
/eos/lyoeos.in2p3.fr/grid/cms/store/data/Run2018A/SingleMuon/NANOAOD/UL2018_MiniAODv2_NanoAODv9-v2/2550000/E70767DF-27E2-4C4B-BAF1-66900253BD79.root
/eos/lyoeos.in2p3.fr/grid/cms/store/data/Run2018A/SingleMuon/NANOAOD/UL2018_MiniAODv2_NanoAODv9-v2/2550000/E71BCA5C-46FE-F14F-9A97-1EC30532E574.root
/eos/lyoeos.in2p3.fr/grid/cms/store/data/Run2018A/SingleMuon/NANOAOD/UL2018_MiniAODv2_NanoAODv9-v2/2550000/EB4D80FE-31A9-F240-B5A4-44CAB00B1DB0.root
/eos/lyoeos.in2p3.fr/grid/cms/store/data/Run2018A/SingleMuon/NANOAOD/UL2018_MiniAODv2_NanoAODv9-v2/2550000/EB90E799-F8F8-9041-B4EA-CD6FBBF02214.root
/eos/lyoeos.in2p3.fr/grid/cms/store/data/Run2018A/SingleMuon/NANOAOD/UL2018_MiniAODv2_NanoAODv9-v2/2550000/F0531A61-90B3-9045-A1DD-D9F7967B237A.root
/eos/lyoeos.in2p3.fr/grid/cms/store/data/Run2018A/SingleMuon/NANOAOD/UL2018_MiniAODv2_NanoAODv9-v2/2550000/F17BE801-9DCE-194F-BA21-331A412B2933.root
/eos/lyoeos.in2p3.fr/grid/cms/store/data/Run2018A/SingleMuon/NANOAOD/UL2018_MiniAODv2_NanoAODv9-v2/2550000/F4874949-ADF4-A842-B7B8-EE3CEF4DD13E.root
/eos/lyoeos.in2p3.fr/grid/cms/store/data/Run2018A/SingleMuon/NANOAOD/UL2018_MiniAODv2_NanoAODv9-v2/2550000/F49149CA-D1D2-F74C-8645-037E2C3530C8.root
/eos/lyoeos.in2p3.fr/grid/cms/store/data/Run2018A/SingleMuon/NANOAOD/UL2018_MiniAODv2_NanoAODv9-v2/2550000/F53633D9-0C39-E943-97E0-695196805048.root
/eos/lyoeos.in2p3.fr/grid/cms/store/data/Run2018A/SingleMuon/NANOAOD/UL2018_MiniAODv2_NanoAODv9-v2/2550000/F7F7B19A-806B-014D-AC1F-925A0AE5A0A1.root
/eos/lyoeos.in2p3.fr/grid/cms/store/data/Run2018A/SingleMuon/NANOAOD/UL2018_MiniAODv2_NanoAODv9-v2/2550000/F962088A-97A7-B14C-B7C1-B8FC8024CED6.root
/eos/lyoeos.in2p3.fr/grid/cms/store/data/Run2018A/SingleMuon/NANOAOD/UL2018_MiniAODv2_NanoAODv9-v2/30000/208681D0-0FB6-8A4A-A05A-ED10EDBDFD25.root
