/eos/lyoeos.in2p3.fr/grid/cms/store/data/Run2018D/EGamma/NANOAOD/UL2018_MiniAODv2_NanoAODv9-v3/100000/34E3FEC9-26C2-664E-B463-0B430D417F1D.root
/eos/lyoeos.in2p3.fr/grid/cms/store/data/Run2018D/EGamma/NANOAOD/UL2018_MiniAODv2_NanoAODv9-v3/100000/3DCE5767-40E5-1B40-B300-A8504CB8B454.root
/eos/lyoeos.in2p3.fr/grid/cms/store/data/Run2018D/EGamma/NANOAOD/UL2018_MiniAODv2_NanoAODv9-v3/100000/553C134B-91AF-D947-9F23-AA5F5C06A3A7.root
/eos/lyoeos.in2p3.fr/grid/cms/store/data/Run2018D/EGamma/NANOAOD/UL2018_MiniAODv2_NanoAODv9-v3/100000/64930A4F-E134-554E-920E-B06468B07959.root
/eos/lyoeos.in2p3.fr/grid/cms/store/data/Run2018D/EGamma/NANOAOD/UL2018_MiniAODv2_NanoAODv9-v3/100000/77DC67BE-5186-1840-8D9E-75A4C6CB300F.root
/eos/lyoeos.in2p3.fr/grid/cms/store/data/Run2018D/EGamma/NANOAOD/UL2018_MiniAODv2_NanoAODv9-v3/100000/8A4DE3AA-1596-E544-9962-8A75088CAD51.root
/eos/lyoeos.in2p3.fr/grid/cms/store/data/Run2018D/EGamma/NANOAOD/UL2018_MiniAODv2_NanoAODv9-v3/100000/A1F38BFC-7CF0-3A45-B66E-AFC04424DA0B.root
/eos/lyoeos.in2p3.fr/grid/cms/store/data/Run2018D/EGamma/NANOAOD/UL2018_MiniAODv2_NanoAODv9-v3/100000/B7B90EA6-2645-584D-8840-7518DD893992.root
/eos/lyoeos.in2p3.fr/grid/cms/store/data/Run2018D/EGamma/NANOAOD/UL2018_MiniAODv2_NanoAODv9-v3/100000/C7512E13-AF34-644B-8A97-B04ADA571579.root
/eos/lyoeos.in2p3.fr/grid/cms/store/data/Run2018D/EGamma/NANOAOD/UL2018_MiniAODv2_NanoAODv9-v3/100000/E8BEA5EA-F626-2349-A1ED-7BF4A85D5D03.root
/eos/lyoeos.in2p3.fr/grid/cms/store/data/Run2018D/EGamma/NANOAOD/UL2018_MiniAODv2_NanoAODv9-v3/230000/00D736B9-1F44-E244-AD50-FBCD58B72EF9.root
/eos/lyoeos.in2p3.fr/grid/cms/store/data/Run2018D/EGamma/NANOAOD/UL2018_MiniAODv2_NanoAODv9-v3/230000/018877D0-B0C3-574A-9A94-5106EB9C215F.root
/eos/lyoeos.in2p3.fr/grid/cms/store/data/Run2018D/EGamma/NANOAOD/UL2018_MiniAODv2_NanoAODv9-v3/230000/02C2D9F5-BC4F-4949-B173-B4820840EF37.root
/eos/lyoeos.in2p3.fr/grid/cms/store/data/Run2018D/EGamma/NANOAOD/UL2018_MiniAODv2_NanoAODv9-v3/230000/07C84FF0-5281-6A44-8018-00B51DECFDDC.root
/eos/lyoeos.in2p3.fr/grid/cms/store/data/Run2018D/EGamma/NANOAOD/UL2018_MiniAODv2_NanoAODv9-v3/230000/0A25A9EE-30A7-7645-AAD0-840FE575B98E.root
/eos/lyoeos.in2p3.fr/grid/cms/store/data/Run2018D/EGamma/NANOAOD/UL2018_MiniAODv2_NanoAODv9-v3/230000/105BE2E6-2DEB-3C41-BA35-8256C6BC6A71.root
/eos/lyoeos.in2p3.fr/grid/cms/store/data/Run2018D/EGamma/NANOAOD/UL2018_MiniAODv2_NanoAODv9-v3/230000/14EC50BE-C20D-0846-90DE-4BF3B8091628.root
/eos/lyoeos.in2p3.fr/grid/cms/store/data/Run2018D/EGamma/NANOAOD/UL2018_MiniAODv2_NanoAODv9-v3/230000/1B12D9B9-95B3-F242-92CB-8402C48747DF.root
/eos/lyoeos.in2p3.fr/grid/cms/store/data/Run2018D/EGamma/NANOAOD/UL2018_MiniAODv2_NanoAODv9-v3/230000/1F997706-E02F-CA45-8C8D-FC63674EAB34.root
/eos/lyoeos.in2p3.fr/grid/cms/store/data/Run2018D/EGamma/NANOAOD/UL2018_MiniAODv2_NanoAODv9-v3/230000/1FFBF25F-42DF-A84B-BF36-A0329DF83B58.root
/eos/lyoeos.in2p3.fr/grid/cms/store/data/Run2018D/EGamma/NANOAOD/UL2018_MiniAODv2_NanoAODv9-v3/230000/26D08918-46E9-D44B-9ABF-1D3F254E4F55.root
/eos/lyoeos.in2p3.fr/grid/cms/store/data/Run2018D/EGamma/NANOAOD/UL2018_MiniAODv2_NanoAODv9-v3/230000/295AFDDB-0FAF-8C40-A509-3CA2EFE532A9.root
/eos/lyoeos.in2p3.fr/grid/cms/store/data/Run2018D/EGamma/NANOAOD/UL2018_MiniAODv2_NanoAODv9-v3/230000/2BEFE92B-35DE-8B44-9F87-07B74D7FF757.root
/eos/lyoeos.in2p3.fr/grid/cms/store/data/Run2018D/EGamma/NANOAOD/UL2018_MiniAODv2_NanoAODv9-v3/230000/33F2EEF6-1EDD-2341-B08E-C1A6294570D3.root
/eos/lyoeos.in2p3.fr/grid/cms/store/data/Run2018D/EGamma/NANOAOD/UL2018_MiniAODv2_NanoAODv9-v3/230000/34A12633-7E64-3C4B-A2C7-738B407D3BC2.root
/eos/lyoeos.in2p3.fr/grid/cms/store/data/Run2018D/EGamma/NANOAOD/UL2018_MiniAODv2_NanoAODv9-v3/230000/35B760F3-B465-8045-AFC9-D3D6AA63ED9B.root
/eos/lyoeos.in2p3.fr/grid/cms/store/data/Run2018D/EGamma/NANOAOD/UL2018_MiniAODv2_NanoAODv9-v3/230000/380935D3-EFFB-B047-8BCA-659EC75CFAC9.root
/eos/lyoeos.in2p3.fr/grid/cms/store/data/Run2018D/EGamma/NANOAOD/UL2018_MiniAODv2_NanoAODv9-v3/230000/3D4B9646-AB74-BD4C-9C8A-C8615D7251C1.root
/eos/lyoeos.in2p3.fr/grid/cms/store/data/Run2018D/EGamma/NANOAOD/UL2018_MiniAODv2_NanoAODv9-v3/230000/3EB0C1BB-7DA5-FA48-89ED-4CA37EBE83E7.root
/eos/lyoeos.in2p3.fr/grid/cms/store/data/Run2018D/EGamma/NANOAOD/UL2018_MiniAODv2_NanoAODv9-v3/230000/49501A11-09C8-F24E-B6A3-205000F21DEA.root
/eos/lyoeos.in2p3.fr/grid/cms/store/data/Run2018D/EGamma/NANOAOD/UL2018_MiniAODv2_NanoAODv9-v3/230000/4C54869C-7118-6D43-89E4-659AB3511DEE.root
/eos/lyoeos.in2p3.fr/grid/cms/store/data/Run2018D/EGamma/NANOAOD/UL2018_MiniAODv2_NanoAODv9-v3/230000/4E47B3D3-B1F7-BD47-9E6A-B8A4312D57E7.root
/eos/lyoeos.in2p3.fr/grid/cms/store/data/Run2018D/EGamma/NANOAOD/UL2018_MiniAODv2_NanoAODv9-v3/230000/5965C39C-BCD2-EF4B-837A-5A7B6C5B6C00.root
/eos/lyoeos.in2p3.fr/grid/cms/store/data/Run2018D/EGamma/NANOAOD/UL2018_MiniAODv2_NanoAODv9-v3/230000/5AEAD1A8-2DF8-5241-B210-91317FE10F3E.root
/eos/lyoeos.in2p3.fr/grid/cms/store/data/Run2018D/EGamma/NANOAOD/UL2018_MiniAODv2_NanoAODv9-v3/230000/5E463AEA-BED2-4944-A3A2-2C636AAFADB5.root
/eos/lyoeos.in2p3.fr/grid/cms/store/data/Run2018D/EGamma/NANOAOD/UL2018_MiniAODv2_NanoAODv9-v3/230000/633B0B5B-09C1-9E4E-9E31-BDE64115938B.root
/eos/lyoeos.in2p3.fr/grid/cms/store/data/Run2018D/EGamma/NANOAOD/UL2018_MiniAODv2_NanoAODv9-v3/230000/65EEF438-509F-3F4E-8315-8EB63A6783C6.root
/eos/lyoeos.in2p3.fr/grid/cms/store/data/Run2018D/EGamma/NANOAOD/UL2018_MiniAODv2_NanoAODv9-v3/230000/67755987-F772-9C47-AFB3-C827D2455271.root
/eos/lyoeos.in2p3.fr/grid/cms/store/data/Run2018D/EGamma/NANOAOD/UL2018_MiniAODv2_NanoAODv9-v3/230000/70F4CE81-1CDA-CA40-80F6-B3E283CCBEB4.root
/eos/lyoeos.in2p3.fr/grid/cms/store/data/Run2018D/EGamma/NANOAOD/UL2018_MiniAODv2_NanoAODv9-v3/230000/75712C9D-FB5D-5F44-B0C6-7352989157B5.root
/eos/lyoeos.in2p3.fr/grid/cms/store/data/Run2018D/EGamma/NANOAOD/UL2018_MiniAODv2_NanoAODv9-v3/230000/75DF17CB-1688-8246-89E7-4CC205C0F6E7.root
/eos/lyoeos.in2p3.fr/grid/cms/store/data/Run2018D/EGamma/NANOAOD/UL2018_MiniAODv2_NanoAODv9-v3/230000/7E70B886-D407-6048-991A-C85D884A4932.root
/eos/lyoeos.in2p3.fr/grid/cms/store/data/Run2018D/EGamma/NANOAOD/UL2018_MiniAODv2_NanoAODv9-v3/230000/7EBB22EA-EC17-A04A-B15F-523C7F3D3DE7.root
/eos/lyoeos.in2p3.fr/grid/cms/store/data/Run2018D/EGamma/NANOAOD/UL2018_MiniAODv2_NanoAODv9-v3/230000/822B8B51-396E-D84A-ACFC-9BE55EB8FC79.root
/eos/lyoeos.in2p3.fr/grid/cms/store/data/Run2018D/EGamma/NANOAOD/UL2018_MiniAODv2_NanoAODv9-v3/230000/82EA0D97-9AFF-2E4B-9411-C11FFDED68FF.root
/eos/lyoeos.in2p3.fr/grid/cms/store/data/Run2018D/EGamma/NANOAOD/UL2018_MiniAODv2_NanoAODv9-v3/230000/8499E41F-B7A0-EF4B-B6E3-ADF84F6B1851.root
/eos/lyoeos.in2p3.fr/grid/cms/store/data/Run2018D/EGamma/NANOAOD/UL2018_MiniAODv2_NanoAODv9-v3/230000/885552CF-71FF-A041-A4E5-EDF142DEA4E3.root
/eos/lyoeos.in2p3.fr/grid/cms/store/data/Run2018D/EGamma/NANOAOD/UL2018_MiniAODv2_NanoAODv9-v3/230000/8DFC0E0F-A7D1-D84F-B027-45DA7EE662FE.root
/eos/lyoeos.in2p3.fr/grid/cms/store/data/Run2018D/EGamma/NANOAOD/UL2018_MiniAODv2_NanoAODv9-v3/230000/8E896B8B-31B9-004B-84BE-71BFE046B718.root
/eos/lyoeos.in2p3.fr/grid/cms/store/data/Run2018D/EGamma/NANOAOD/UL2018_MiniAODv2_NanoAODv9-v3/230000/9FBDB97E-AB8C-9444-B83D-5F6DFD0FCCE8.root
/eos/lyoeos.in2p3.fr/grid/cms/store/data/Run2018D/EGamma/NANOAOD/UL2018_MiniAODv2_NanoAODv9-v3/230000/9FF120C0-C86C-254B-B627-78F89D1CC94A.root
/eos/lyoeos.in2p3.fr/grid/cms/store/data/Run2018D/EGamma/NANOAOD/UL2018_MiniAODv2_NanoAODv9-v3/230000/A4934ED5-1FF9-AF49-B0DC-335D37BB0EA0.root
/eos/lyoeos.in2p3.fr/grid/cms/store/data/Run2018D/EGamma/NANOAOD/UL2018_MiniAODv2_NanoAODv9-v3/230000/A5569BDB-320B-B548-9D8D-107682832638.root
/eos/lyoeos.in2p3.fr/grid/cms/store/data/Run2018D/EGamma/NANOAOD/UL2018_MiniAODv2_NanoAODv9-v3/230000/A8A0F86C-FE9D-414E-A5BC-B97A7855F489.root
/eos/lyoeos.in2p3.fr/grid/cms/store/data/Run2018D/EGamma/NANOAOD/UL2018_MiniAODv2_NanoAODv9-v3/230000/A8C273EE-1C4E-0F42-865A-A8B80BCEC035.root
/eos/lyoeos.in2p3.fr/grid/cms/store/data/Run2018D/EGamma/NANOAOD/UL2018_MiniAODv2_NanoAODv9-v3/230000/A9DF5E9B-8C09-964B-8D3B-A5C81CB8D53A.root
/eos/lyoeos.in2p3.fr/grid/cms/store/data/Run2018D/EGamma/NANOAOD/UL2018_MiniAODv2_NanoAODv9-v3/230000/B03A7ABD-0BD3-5E4E-91CA-931232B90507.root
/eos/lyoeos.in2p3.fr/grid/cms/store/data/Run2018D/EGamma/NANOAOD/UL2018_MiniAODv2_NanoAODv9-v3/230000/BB22C408-0502-0E4F-A107-5FD2A4F5D7E4.root
/eos/lyoeos.in2p3.fr/grid/cms/store/data/Run2018D/EGamma/NANOAOD/UL2018_MiniAODv2_NanoAODv9-v3/230000/C32FA1C4-7EE7-1141-AF0F-5589EE8F1934.root
/eos/lyoeos.in2p3.fr/grid/cms/store/data/Run2018D/EGamma/NANOAOD/UL2018_MiniAODv2_NanoAODv9-v3/230000/C475983A-4E95-0C4E-B796-3D10FDDB0C5F.root
/eos/lyoeos.in2p3.fr/grid/cms/store/data/Run2018D/EGamma/NANOAOD/UL2018_MiniAODv2_NanoAODv9-v3/230000/D20D7863-1763-7F43-9268-E8849CDA169A.root
/eos/lyoeos.in2p3.fr/grid/cms/store/data/Run2018D/EGamma/NANOAOD/UL2018_MiniAODv2_NanoAODv9-v3/230000/D79CB71E-87AF-904C-98BC-0E9F19E27F2A.root
/eos/lyoeos.in2p3.fr/grid/cms/store/data/Run2018D/EGamma/NANOAOD/UL2018_MiniAODv2_NanoAODv9-v3/230000/E0DEFE64-A63B-FF43-B816-F57268B10716.root
/eos/lyoeos.in2p3.fr/grid/cms/store/data/Run2018D/EGamma/NANOAOD/UL2018_MiniAODv2_NanoAODv9-v3/230000/E3E1B5A8-FD9D-E840-A72C-DDD2D7CFAF0E.root
/eos/lyoeos.in2p3.fr/grid/cms/store/data/Run2018D/EGamma/NANOAOD/UL2018_MiniAODv2_NanoAODv9-v3/230000/E7EFB690-C7FF-EA4C-8952-D9D319FDBB83.root
/eos/lyoeos.in2p3.fr/grid/cms/store/data/Run2018D/EGamma/NANOAOD/UL2018_MiniAODv2_NanoAODv9-v3/230000/E90FDFE8-7C8D-7B4A-9B39-09041062BCE9.root
/eos/lyoeos.in2p3.fr/grid/cms/store/data/Run2018D/EGamma/NANOAOD/UL2018_MiniAODv2_NanoAODv9-v3/230000/EB9147E3-43D8-3241-B7F6-157B81B8E7E5.root
/eos/lyoeos.in2p3.fr/grid/cms/store/data/Run2018D/EGamma/NANOAOD/UL2018_MiniAODv2_NanoAODv9-v3/230000/EF391F34-8E49-E540-B98A-8EC84F2A3810.root
/eos/lyoeos.in2p3.fr/grid/cms/store/data/Run2018D/EGamma/NANOAOD/UL2018_MiniAODv2_NanoAODv9-v3/230000/FD5BB1D9-5EFA-E549-81A1-6E25154782DC.root
/eos/lyoeos.in2p3.fr/grid/cms/store/data/Run2018D/EGamma/NANOAOD/UL2018_MiniAODv2_NanoAODv9-v3/250000/0097B9EE-3145-934F-A25A-548B138CA576.root
/eos/lyoeos.in2p3.fr/grid/cms/store/data/Run2018D/EGamma/NANOAOD/UL2018_MiniAODv2_NanoAODv9-v3/250000/02627EC4-361C-114F-8C83-0C3142D50573.root
/eos/lyoeos.in2p3.fr/grid/cms/store/data/Run2018D/EGamma/NANOAOD/UL2018_MiniAODv2_NanoAODv9-v3/250000/026EFC40-3E72-0C4F-B013-B6AFB0F42D9C.root
/eos/lyoeos.in2p3.fr/grid/cms/store/data/Run2018D/EGamma/NANOAOD/UL2018_MiniAODv2_NanoAODv9-v3/250000/03F3EF0A-0163-844C-B763-9A7D8E088741.root
/eos/lyoeos.in2p3.fr/grid/cms/store/data/Run2018D/EGamma/NANOAOD/UL2018_MiniAODv2_NanoAODv9-v3/250000/04E54CE1-6930-8444-B1D4-8609CB1AF4FE.root
/eos/lyoeos.in2p3.fr/grid/cms/store/data/Run2018D/EGamma/NANOAOD/UL2018_MiniAODv2_NanoAODv9-v3/250000/04EA4F63-C22F-C646-AF1F-512E5E337DD5.root
/eos/lyoeos.in2p3.fr/grid/cms/store/data/Run2018D/EGamma/NANOAOD/UL2018_MiniAODv2_NanoAODv9-v3/250000/097FCA84-D0FB-9F43-83E7-5817276AA5C4.root
/eos/lyoeos.in2p3.fr/grid/cms/store/data/Run2018D/EGamma/NANOAOD/UL2018_MiniAODv2_NanoAODv9-v3/250000/0A704639-95C2-D040-AE43-9C18198C7BC3.root
/eos/lyoeos.in2p3.fr/grid/cms/store/data/Run2018D/EGamma/NANOAOD/UL2018_MiniAODv2_NanoAODv9-v3/250000/0B2E47B7-A46C-9E47-AFB5-4C89A7E349B0.root
/eos/lyoeos.in2p3.fr/grid/cms/store/data/Run2018D/EGamma/NANOAOD/UL2018_MiniAODv2_NanoAODv9-v3/250000/0F992A36-23F1-CF49-9055-4721BA1F61D9.root
/eos/lyoeos.in2p3.fr/grid/cms/store/data/Run2018D/EGamma/NANOAOD/UL2018_MiniAODv2_NanoAODv9-v3/250000/11793BE4-D549-8146-A8A3-15F3D70AC6CC.root
/eos/lyoeos.in2p3.fr/grid/cms/store/data/Run2018D/EGamma/NANOAOD/UL2018_MiniAODv2_NanoAODv9-v3/250000/1180EFCE-C3F3-1145-95B8-CEB8662E2781.root
/eos/lyoeos.in2p3.fr/grid/cms/store/data/Run2018D/EGamma/NANOAOD/UL2018_MiniAODv2_NanoAODv9-v3/250000/11C1B4E3-7EF3-344A-922B-3594F074163B.root
/eos/lyoeos.in2p3.fr/grid/cms/store/data/Run2018D/EGamma/NANOAOD/UL2018_MiniAODv2_NanoAODv9-v3/250000/1340805E-D09F-CA48-A099-78EC3F5FAE6E.root
/eos/lyoeos.in2p3.fr/grid/cms/store/data/Run2018D/EGamma/NANOAOD/UL2018_MiniAODv2_NanoAODv9-v3/250000/134622FC-49E5-954A-96A0-CAF3DF089ABA.root
/eos/lyoeos.in2p3.fr/grid/cms/store/data/Run2018D/EGamma/NANOAOD/UL2018_MiniAODv2_NanoAODv9-v3/250000/137ABF72-00B3-3C42-BD71-6B6C03B5C5F4.root
/eos/lyoeos.in2p3.fr/grid/cms/store/data/Run2018D/EGamma/NANOAOD/UL2018_MiniAODv2_NanoAODv9-v3/250000/164C0E06-B3A9-934E-8D1E-7B74836C049E.root
/eos/lyoeos.in2p3.fr/grid/cms/store/data/Run2018D/EGamma/NANOAOD/UL2018_MiniAODv2_NanoAODv9-v3/250000/173E9EEB-0CCC-DC44-8FFF-FB14A6FA29A0.root
/eos/lyoeos.in2p3.fr/grid/cms/store/data/Run2018D/EGamma/NANOAOD/UL2018_MiniAODv2_NanoAODv9-v3/250000/1762889C-F45A-E041-8CCE-C50D364C7AF1.root
/eos/lyoeos.in2p3.fr/grid/cms/store/data/Run2018D/EGamma/NANOAOD/UL2018_MiniAODv2_NanoAODv9-v3/250000/177A3F79-C98B-8F4E-9000-6855F70CEDA5.root
/eos/lyoeos.in2p3.fr/grid/cms/store/data/Run2018D/EGamma/NANOAOD/UL2018_MiniAODv2_NanoAODv9-v3/250000/180124A3-0C72-8C40-9550-A5A8A52F83F7.root
/eos/lyoeos.in2p3.fr/grid/cms/store/data/Run2018D/EGamma/NANOAOD/UL2018_MiniAODv2_NanoAODv9-v3/250000/194BECED-0AF2-244D-AD11-E9A206C55F55.root
/eos/lyoeos.in2p3.fr/grid/cms/store/data/Run2018D/EGamma/NANOAOD/UL2018_MiniAODv2_NanoAODv9-v3/250000/1962869B-894F-FE4E-87B8-0357698602DA.root
/eos/lyoeos.in2p3.fr/grid/cms/store/data/Run2018D/EGamma/NANOAOD/UL2018_MiniAODv2_NanoAODv9-v3/250000/1987C321-4227-3841-87F4-75877C9D2BD2.root
/eos/lyoeos.in2p3.fr/grid/cms/store/data/Run2018D/EGamma/NANOAOD/UL2018_MiniAODv2_NanoAODv9-v3/250000/199AD085-0112-024C-8E8A-83E590963C46.root
/eos/lyoeos.in2p3.fr/grid/cms/store/data/Run2018D/EGamma/NANOAOD/UL2018_MiniAODv2_NanoAODv9-v3/250000/19B9832F-254A-3A4B-B50A-A119761BBB12.root
/eos/lyoeos.in2p3.fr/grid/cms/store/data/Run2018D/EGamma/NANOAOD/UL2018_MiniAODv2_NanoAODv9-v3/250000/1A929F0C-D6D5-8549-BDEF-EADEC86CB1EA.root
/eos/lyoeos.in2p3.fr/grid/cms/store/data/Run2018D/EGamma/NANOAOD/UL2018_MiniAODv2_NanoAODv9-v3/250000/1AD844E6-7A48-5742-BF57-9FB4823DB563.root
/eos/lyoeos.in2p3.fr/grid/cms/store/data/Run2018D/EGamma/NANOAOD/UL2018_MiniAODv2_NanoAODv9-v3/250000/1B367B6D-AE47-B14E-82CC-7665BAB1F875.root
/eos/lyoeos.in2p3.fr/grid/cms/store/data/Run2018D/EGamma/NANOAOD/UL2018_MiniAODv2_NanoAODv9-v3/250000/1C5039FD-1A15-E342-AF70-769FB562BFD4.root
/eos/lyoeos.in2p3.fr/grid/cms/store/data/Run2018D/EGamma/NANOAOD/UL2018_MiniAODv2_NanoAODv9-v3/250000/1DE41BE5-8FDD-E045-A8AA-A095895426D6.root
/eos/lyoeos.in2p3.fr/grid/cms/store/data/Run2018D/EGamma/NANOAOD/UL2018_MiniAODv2_NanoAODv9-v3/250000/1E5108A7-E47E-DA45-9B56-AB3122DDBFB1.root
/eos/lyoeos.in2p3.fr/grid/cms/store/data/Run2018D/EGamma/NANOAOD/UL2018_MiniAODv2_NanoAODv9-v3/250000/1F63C3E2-9D89-AE49-96B3-25BE99867F39.root
/eos/lyoeos.in2p3.fr/grid/cms/store/data/Run2018D/EGamma/NANOAOD/UL2018_MiniAODv2_NanoAODv9-v3/250000/1FC6B7E7-1051-5947-8044-B6EAE3CB0721.root
/eos/lyoeos.in2p3.fr/grid/cms/store/data/Run2018D/EGamma/NANOAOD/UL2018_MiniAODv2_NanoAODv9-v3/250000/203C4F6A-481F-794F-A18E-0B2E89BC93DE.root
/eos/lyoeos.in2p3.fr/grid/cms/store/data/Run2018D/EGamma/NANOAOD/UL2018_MiniAODv2_NanoAODv9-v3/250000/21226B89-DA6A-004D-B94B-136ED13DCE8A.root
/eos/lyoeos.in2p3.fr/grid/cms/store/data/Run2018D/EGamma/NANOAOD/UL2018_MiniAODv2_NanoAODv9-v3/250000/2248DACE-1000-6640-B6F1-9E350C3A569C.root
/eos/lyoeos.in2p3.fr/grid/cms/store/data/Run2018D/EGamma/NANOAOD/UL2018_MiniAODv2_NanoAODv9-v3/250000/22880F49-A071-4645-A3E4-79977DE79284.root
/eos/lyoeos.in2p3.fr/grid/cms/store/data/Run2018D/EGamma/NANOAOD/UL2018_MiniAODv2_NanoAODv9-v3/250000/22FC1859-21ED-B944-BC3F-565A73767F69.root
/eos/lyoeos.in2p3.fr/grid/cms/store/data/Run2018D/EGamma/NANOAOD/UL2018_MiniAODv2_NanoAODv9-v3/250000/23661A7B-51EC-7D4E-A968-D0556D61A7DC.root
/eos/lyoeos.in2p3.fr/grid/cms/store/data/Run2018D/EGamma/NANOAOD/UL2018_MiniAODv2_NanoAODv9-v3/250000/23D9CA4D-8F27-A645-BFC0-7C9F7845F034.root
/eos/lyoeos.in2p3.fr/grid/cms/store/data/Run2018D/EGamma/NANOAOD/UL2018_MiniAODv2_NanoAODv9-v3/250000/24173132-F9D4-E746-B626-B7B36698AEB2.root
/eos/lyoeos.in2p3.fr/grid/cms/store/data/Run2018D/EGamma/NANOAOD/UL2018_MiniAODv2_NanoAODv9-v3/250000/258CB248-645B-E34B-9746-2A9D39942840.root
/eos/lyoeos.in2p3.fr/grid/cms/store/data/Run2018D/EGamma/NANOAOD/UL2018_MiniAODv2_NanoAODv9-v3/250000/25DCC9B3-6B8A-004A-AC51-19929B17362A.root
/eos/lyoeos.in2p3.fr/grid/cms/store/data/Run2018D/EGamma/NANOAOD/UL2018_MiniAODv2_NanoAODv9-v3/250000/2628F333-6F71-164E-A737-87F744AB94F2.root
/eos/lyoeos.in2p3.fr/grid/cms/store/data/Run2018D/EGamma/NANOAOD/UL2018_MiniAODv2_NanoAODv9-v3/250000/27E689E9-B111-954A-99DD-DEC31899CE3F.root
/eos/lyoeos.in2p3.fr/grid/cms/store/data/Run2018D/EGamma/NANOAOD/UL2018_MiniAODv2_NanoAODv9-v3/250000/289454C7-9848-A444-BD16-61506BD5441B.root
/eos/lyoeos.in2p3.fr/grid/cms/store/data/Run2018D/EGamma/NANOAOD/UL2018_MiniAODv2_NanoAODv9-v3/250000/28BF5390-1367-B04F-905C-846D5C8AE295.root
/eos/lyoeos.in2p3.fr/grid/cms/store/data/Run2018D/EGamma/NANOAOD/UL2018_MiniAODv2_NanoAODv9-v3/250000/2A0A7251-1348-0B4D-ABED-B4179B6A4006.root
/eos/lyoeos.in2p3.fr/grid/cms/store/data/Run2018D/EGamma/NANOAOD/UL2018_MiniAODv2_NanoAODv9-v3/250000/2A276C60-968C-344F-B26A-45517A3C0929.root
/eos/lyoeos.in2p3.fr/grid/cms/store/data/Run2018D/EGamma/NANOAOD/UL2018_MiniAODv2_NanoAODv9-v3/250000/2B1EB85B-CA07-DC43-852A-ACF10A528E33.root
/eos/lyoeos.in2p3.fr/grid/cms/store/data/Run2018D/EGamma/NANOAOD/UL2018_MiniAODv2_NanoAODv9-v3/250000/2D504C46-559D-684F-9C18-8CA267E7F2FD.root
/eos/lyoeos.in2p3.fr/grid/cms/store/data/Run2018D/EGamma/NANOAOD/UL2018_MiniAODv2_NanoAODv9-v3/250000/2F103CF9-F3C7-6540-BF2B-C9F39E1CCABE.root
/eos/lyoeos.in2p3.fr/grid/cms/store/data/Run2018D/EGamma/NANOAOD/UL2018_MiniAODv2_NanoAODv9-v3/250000/300DB9B6-5214-884A-9762-EF8F8BB72CA9.root
/eos/lyoeos.in2p3.fr/grid/cms/store/data/Run2018D/EGamma/NANOAOD/UL2018_MiniAODv2_NanoAODv9-v3/250000/30E33200-492F-624F-9603-6903492125EB.root
/eos/lyoeos.in2p3.fr/grid/cms/store/data/Run2018D/EGamma/NANOAOD/UL2018_MiniAODv2_NanoAODv9-v3/250000/3223901E-093D-CE45-A426-720B161B4A22.root
/eos/lyoeos.in2p3.fr/grid/cms/store/data/Run2018D/EGamma/NANOAOD/UL2018_MiniAODv2_NanoAODv9-v3/250000/32625555-CF7D-194A-82B1-18F1FF08FCC3.root
/eos/lyoeos.in2p3.fr/grid/cms/store/data/Run2018D/EGamma/NANOAOD/UL2018_MiniAODv2_NanoAODv9-v3/250000/335289A0-B7C8-454E-A24B-37D9F48C0A05.root
/eos/lyoeos.in2p3.fr/grid/cms/store/data/Run2018D/EGamma/NANOAOD/UL2018_MiniAODv2_NanoAODv9-v3/250000/33CFC3D2-467E-4D47-92F3-2EE9922F9236.root
/eos/lyoeos.in2p3.fr/grid/cms/store/data/Run2018D/EGamma/NANOAOD/UL2018_MiniAODv2_NanoAODv9-v3/250000/340F890F-9827-864C-88E3-59B13723D363.root
/eos/lyoeos.in2p3.fr/grid/cms/store/data/Run2018D/EGamma/NANOAOD/UL2018_MiniAODv2_NanoAODv9-v3/250000/3480FE85-B464-B449-BFF5-70D3463F3C99.root
/eos/lyoeos.in2p3.fr/grid/cms/store/data/Run2018D/EGamma/NANOAOD/UL2018_MiniAODv2_NanoAODv9-v3/250000/349E7A2A-1F55-D54C-B975-73307405BC30.root
/eos/lyoeos.in2p3.fr/grid/cms/store/data/Run2018D/EGamma/NANOAOD/UL2018_MiniAODv2_NanoAODv9-v3/250000/366F2506-0150-F645-9903-D75B2C052994.root
/eos/lyoeos.in2p3.fr/grid/cms/store/data/Run2018D/EGamma/NANOAOD/UL2018_MiniAODv2_NanoAODv9-v3/250000/367DB842-B30C-9C4D-A03E-478FFAF6E540.root
/eos/lyoeos.in2p3.fr/grid/cms/store/data/Run2018D/EGamma/NANOAOD/UL2018_MiniAODv2_NanoAODv9-v3/250000/395B6FAB-572D-AD44-B61D-5FB73B27E4DD.root
/eos/lyoeos.in2p3.fr/grid/cms/store/data/Run2018D/EGamma/NANOAOD/UL2018_MiniAODv2_NanoAODv9-v3/250000/39806920-F831-8E42-97A6-EF7E0645BE18.root
/eos/lyoeos.in2p3.fr/grid/cms/store/data/Run2018D/EGamma/NANOAOD/UL2018_MiniAODv2_NanoAODv9-v3/250000/39C0DBF4-C263-6444-832B-9D3E32F94A05.root
/eos/lyoeos.in2p3.fr/grid/cms/store/data/Run2018D/EGamma/NANOAOD/UL2018_MiniAODv2_NanoAODv9-v3/250000/3AE7E37E-13A1-1C44-85E3-6A6BBF368357.root
/eos/lyoeos.in2p3.fr/grid/cms/store/data/Run2018D/EGamma/NANOAOD/UL2018_MiniAODv2_NanoAODv9-v3/250000/3B248EE5-4F21-EC4F-9727-22BD94D27DA9.root
/eos/lyoeos.in2p3.fr/grid/cms/store/data/Run2018D/EGamma/NANOAOD/UL2018_MiniAODv2_NanoAODv9-v3/250000/3EAC2819-EF75-9541-81E8-14535B6E4EF2.root
/eos/lyoeos.in2p3.fr/grid/cms/store/data/Run2018D/EGamma/NANOAOD/UL2018_MiniAODv2_NanoAODv9-v3/250000/40485C3E-82B1-DE4E-A8CE-7BC96575EBA6.root
/eos/lyoeos.in2p3.fr/grid/cms/store/data/Run2018D/EGamma/NANOAOD/UL2018_MiniAODv2_NanoAODv9-v3/250000/41F86993-08ED-0E48-A1B6-6194D9233DD8.root
/eos/lyoeos.in2p3.fr/grid/cms/store/data/Run2018D/EGamma/NANOAOD/UL2018_MiniAODv2_NanoAODv9-v3/250000/421D9302-71FB-4646-B8E6-2A07D5053B53.root
/eos/lyoeos.in2p3.fr/grid/cms/store/data/Run2018D/EGamma/NANOAOD/UL2018_MiniAODv2_NanoAODv9-v3/250000/4230ECE1-6125-E244-970A-206FBB5F8CFC.root
/eos/lyoeos.in2p3.fr/grid/cms/store/data/Run2018D/EGamma/NANOAOD/UL2018_MiniAODv2_NanoAODv9-v3/250000/42FE5A44-98C5-D34C-935E-6FFE3C6B4F34.root
/eos/lyoeos.in2p3.fr/grid/cms/store/data/Run2018D/EGamma/NANOAOD/UL2018_MiniAODv2_NanoAODv9-v3/250000/4396E384-6EFA-7C4F-BE5E-9E3450256CFE.root
/eos/lyoeos.in2p3.fr/grid/cms/store/data/Run2018D/EGamma/NANOAOD/UL2018_MiniAODv2_NanoAODv9-v3/250000/441708A4-2D59-F047-842B-DA11B6B34A5A.root
/eos/lyoeos.in2p3.fr/grid/cms/store/data/Run2018D/EGamma/NANOAOD/UL2018_MiniAODv2_NanoAODv9-v3/250000/44BF7DF6-327B-6B43-BD4E-5BF622891CFB.root
/eos/lyoeos.in2p3.fr/grid/cms/store/data/Run2018D/EGamma/NANOAOD/UL2018_MiniAODv2_NanoAODv9-v3/250000/45EA571C-EE81-804C-9909-1D72BC3DD0CF.root
/eos/lyoeos.in2p3.fr/grid/cms/store/data/Run2018D/EGamma/NANOAOD/UL2018_MiniAODv2_NanoAODv9-v3/250000/4680C25B-1822-324F-B1C5-EE421B9DBBD4.root
/eos/lyoeos.in2p3.fr/grid/cms/store/data/Run2018D/EGamma/NANOAOD/UL2018_MiniAODv2_NanoAODv9-v3/250000/468BBE33-1039-B940-8F2F-9E9BF35FCF78.root
/eos/lyoeos.in2p3.fr/grid/cms/store/data/Run2018D/EGamma/NANOAOD/UL2018_MiniAODv2_NanoAODv9-v3/250000/46D3F218-BCAF-A141-B1AE-DCED5903BEC1.root
/eos/lyoeos.in2p3.fr/grid/cms/store/data/Run2018D/EGamma/NANOAOD/UL2018_MiniAODv2_NanoAODv9-v3/250000/475F0E66-9EFC-514C-8186-B2F0F71D35A8.root
/eos/lyoeos.in2p3.fr/grid/cms/store/data/Run2018D/EGamma/NANOAOD/UL2018_MiniAODv2_NanoAODv9-v3/250000/47A07C77-F644-A648-8F86-C5F4DA5A3DC8.root
/eos/lyoeos.in2p3.fr/grid/cms/store/data/Run2018D/EGamma/NANOAOD/UL2018_MiniAODv2_NanoAODv9-v3/250000/47F8CB2B-3E90-9A47-A440-9514805F6E1F.root
/eos/lyoeos.in2p3.fr/grid/cms/store/data/Run2018D/EGamma/NANOAOD/UL2018_MiniAODv2_NanoAODv9-v3/250000/4974C81C-C2BA-334B-BCEB-99D8F7AE9AD5.root
/eos/lyoeos.in2p3.fr/grid/cms/store/data/Run2018D/EGamma/NANOAOD/UL2018_MiniAODv2_NanoAODv9-v3/250000/4A05F04B-E623-A54F-A47E-31285E62C561.root
/eos/lyoeos.in2p3.fr/grid/cms/store/data/Run2018D/EGamma/NANOAOD/UL2018_MiniAODv2_NanoAODv9-v3/250000/4A8AF731-281B-DD4D-8958-05876F3191B6.root
/eos/lyoeos.in2p3.fr/grid/cms/store/data/Run2018D/EGamma/NANOAOD/UL2018_MiniAODv2_NanoAODv9-v3/250000/4AE14806-E35A-A44A-BBEF-97FB398F31AB.root
/eos/lyoeos.in2p3.fr/grid/cms/store/data/Run2018D/EGamma/NANOAOD/UL2018_MiniAODv2_NanoAODv9-v3/250000/4AE7B17A-8AC6-CB4E-9D27-E5AC76BD6176.root
/eos/lyoeos.in2p3.fr/grid/cms/store/data/Run2018D/EGamma/NANOAOD/UL2018_MiniAODv2_NanoAODv9-v3/250000/4D5BC2F1-5EF3-7845-9718-B78B1BDDE128.root
/eos/lyoeos.in2p3.fr/grid/cms/store/data/Run2018D/EGamma/NANOAOD/UL2018_MiniAODv2_NanoAODv9-v3/250000/4E5BFE6E-F282-2344-A23A-92542E00CF76.root
/eos/lyoeos.in2p3.fr/grid/cms/store/data/Run2018D/EGamma/NANOAOD/UL2018_MiniAODv2_NanoAODv9-v3/250000/4F099A3B-5ACD-A343-8204-57FEA81E0F8F.root
/eos/lyoeos.in2p3.fr/grid/cms/store/data/Run2018D/EGamma/NANOAOD/UL2018_MiniAODv2_NanoAODv9-v3/250000/4F16708D-7936-8F4D-806D-36F97A4BD2F7.root
/eos/lyoeos.in2p3.fr/grid/cms/store/data/Run2018D/EGamma/NANOAOD/UL2018_MiniAODv2_NanoAODv9-v3/250000/4F215150-C418-CD4E-AD42-4CFB7A4B74D1.root
/eos/lyoeos.in2p3.fr/grid/cms/store/data/Run2018D/EGamma/NANOAOD/UL2018_MiniAODv2_NanoAODv9-v3/250000/50249733-997E-674E-99D2-D9DCBC40E345.root
/eos/lyoeos.in2p3.fr/grid/cms/store/data/Run2018D/EGamma/NANOAOD/UL2018_MiniAODv2_NanoAODv9-v3/250000/5044A369-4620-B44A-90B5-1BC278C411F4.root
/eos/lyoeos.in2p3.fr/grid/cms/store/data/Run2018D/EGamma/NANOAOD/UL2018_MiniAODv2_NanoAODv9-v3/250000/50874333-97E9-6540-A2B6-F944637EAC4D.root
/eos/lyoeos.in2p3.fr/grid/cms/store/data/Run2018D/EGamma/NANOAOD/UL2018_MiniAODv2_NanoAODv9-v3/250000/5296AC01-5A82-4B4D-8A59-37B16C002C30.root
/eos/lyoeos.in2p3.fr/grid/cms/store/data/Run2018D/EGamma/NANOAOD/UL2018_MiniAODv2_NanoAODv9-v3/250000/52A8BB9F-EC04-9F43-B884-B4E830AAF430.root
/eos/lyoeos.in2p3.fr/grid/cms/store/data/Run2018D/EGamma/NANOAOD/UL2018_MiniAODv2_NanoAODv9-v3/250000/548A93A6-7220-074B-9FE0-4C04A7D6E4A5.root
/eos/lyoeos.in2p3.fr/grid/cms/store/data/Run2018D/EGamma/NANOAOD/UL2018_MiniAODv2_NanoAODv9-v3/250000/54A103C6-23E0-D246-AF76-9FF5733A006B.root
/eos/lyoeos.in2p3.fr/grid/cms/store/data/Run2018D/EGamma/NANOAOD/UL2018_MiniAODv2_NanoAODv9-v3/250000/55C3A683-A070-9A47-9F28-24F53D0306E8.root
/eos/lyoeos.in2p3.fr/grid/cms/store/data/Run2018D/EGamma/NANOAOD/UL2018_MiniAODv2_NanoAODv9-v3/250000/5644C96B-1203-8E44-A61D-774CBAA83F38.root
/eos/lyoeos.in2p3.fr/grid/cms/store/data/Run2018D/EGamma/NANOAOD/UL2018_MiniAODv2_NanoAODv9-v3/250000/566E12C7-CD3E-3F4D-A657-A71FF4CB2637.root
/eos/lyoeos.in2p3.fr/grid/cms/store/data/Run2018D/EGamma/NANOAOD/UL2018_MiniAODv2_NanoAODv9-v3/250000/56DAA345-ED26-CE43-8266-053AFD250C80.root
/eos/lyoeos.in2p3.fr/grid/cms/store/data/Run2018D/EGamma/NANOAOD/UL2018_MiniAODv2_NanoAODv9-v3/250000/5721D25B-2E4D-214E-AD04-0862071264BC.root
/eos/lyoeos.in2p3.fr/grid/cms/store/data/Run2018D/EGamma/NANOAOD/UL2018_MiniAODv2_NanoAODv9-v3/250000/575C6BE7-CEA0-A947-958A-A8126C0D95B2.root
/eos/lyoeos.in2p3.fr/grid/cms/store/data/Run2018D/EGamma/NANOAOD/UL2018_MiniAODv2_NanoAODv9-v3/250000/591691B0-1A94-4340-8FD0-4F33FCEF9048.root
/eos/lyoeos.in2p3.fr/grid/cms/store/data/Run2018D/EGamma/NANOAOD/UL2018_MiniAODv2_NanoAODv9-v3/250000/5B496427-668E-594D-9BBB-8C24D22EB5DD.root
/eos/lyoeos.in2p3.fr/grid/cms/store/data/Run2018D/EGamma/NANOAOD/UL2018_MiniAODv2_NanoAODv9-v3/250000/5BCDF1C5-2598-6549-9DCE-E10BFDE05DBE.root
/eos/lyoeos.in2p3.fr/grid/cms/store/data/Run2018D/EGamma/NANOAOD/UL2018_MiniAODv2_NanoAODv9-v3/250000/5E457DF5-8827-C94B-A54F-B75B09D82C68.root
/eos/lyoeos.in2p3.fr/grid/cms/store/data/Run2018D/EGamma/NANOAOD/UL2018_MiniAODv2_NanoAODv9-v3/250000/5EE7DD4D-232C-3845-9344-7B6074DDB36B.root
/eos/lyoeos.in2p3.fr/grid/cms/store/data/Run2018D/EGamma/NANOAOD/UL2018_MiniAODv2_NanoAODv9-v3/250000/5F6EF088-9ED8-F340-A535-1673AAF513E1.root
/eos/lyoeos.in2p3.fr/grid/cms/store/data/Run2018D/EGamma/NANOAOD/UL2018_MiniAODv2_NanoAODv9-v3/250000/602C0413-105D-7A4E-B66B-CC55952ABA30.root
/eos/lyoeos.in2p3.fr/grid/cms/store/data/Run2018D/EGamma/NANOAOD/UL2018_MiniAODv2_NanoAODv9-v3/250000/60BD9C98-80BE-EF45-9279-41251528656F.root
/eos/lyoeos.in2p3.fr/grid/cms/store/data/Run2018D/EGamma/NANOAOD/UL2018_MiniAODv2_NanoAODv9-v3/250000/61110B55-01E5-F24A-A709-0229D7C98153.root
/eos/lyoeos.in2p3.fr/grid/cms/store/data/Run2018D/EGamma/NANOAOD/UL2018_MiniAODv2_NanoAODv9-v3/250000/612CBAE1-7A75-594C-AB2F-3D3B6B15FDA5.root
/eos/lyoeos.in2p3.fr/grid/cms/store/data/Run2018D/EGamma/NANOAOD/UL2018_MiniAODv2_NanoAODv9-v3/250000/61509E7B-A786-7346-B63B-5A40712A69B7.root
/eos/lyoeos.in2p3.fr/grid/cms/store/data/Run2018D/EGamma/NANOAOD/UL2018_MiniAODv2_NanoAODv9-v3/250000/61705F0B-8004-184D-9A92-5E171E9CDB8A.root
/eos/lyoeos.in2p3.fr/grid/cms/store/data/Run2018D/EGamma/NANOAOD/UL2018_MiniAODv2_NanoAODv9-v3/250000/632335E3-E546-6C47-AAFA-CC5A0BD0B8E8.root
/eos/lyoeos.in2p3.fr/grid/cms/store/data/Run2018D/EGamma/NANOAOD/UL2018_MiniAODv2_NanoAODv9-v3/250000/643D09FD-110E-EE4B-B37A-DACB2F53CEFB.root
/eos/lyoeos.in2p3.fr/grid/cms/store/data/Run2018D/EGamma/NANOAOD/UL2018_MiniAODv2_NanoAODv9-v3/250000/644159C2-8C8D-5F4C-93CC-FF86CA86A8D7.root
/eos/lyoeos.in2p3.fr/grid/cms/store/data/Run2018D/EGamma/NANOAOD/UL2018_MiniAODv2_NanoAODv9-v3/250000/646256E5-2A24-4144-9104-677E8A12CDB3.root
/eos/lyoeos.in2p3.fr/grid/cms/store/data/Run2018D/EGamma/NANOAOD/UL2018_MiniAODv2_NanoAODv9-v3/250000/64B20EAF-4382-0E4F-80C3-A05C85EB045E.root
/eos/lyoeos.in2p3.fr/grid/cms/store/data/Run2018D/EGamma/NANOAOD/UL2018_MiniAODv2_NanoAODv9-v3/250000/6551F3D0-1652-7746-B77B-9A86305270EC.root
/eos/lyoeos.in2p3.fr/grid/cms/store/data/Run2018D/EGamma/NANOAOD/UL2018_MiniAODv2_NanoAODv9-v3/250000/669E67F4-405D-3B42-97BB-98E51D987D64.root
/eos/lyoeos.in2p3.fr/grid/cms/store/data/Run2018D/EGamma/NANOAOD/UL2018_MiniAODv2_NanoAODv9-v3/250000/671A51A4-6995-B94B-B4C0-1D031ED646C7.root
/eos/lyoeos.in2p3.fr/grid/cms/store/data/Run2018D/EGamma/NANOAOD/UL2018_MiniAODv2_NanoAODv9-v3/250000/67221F6B-E7CC-FA41-A4A2-41DF9CF2FEC0.root
/eos/lyoeos.in2p3.fr/grid/cms/store/data/Run2018D/EGamma/NANOAOD/UL2018_MiniAODv2_NanoAODv9-v3/250000/6A2A0FD3-6ED4-F44D-B62E-9F80B24666DD.root
/eos/lyoeos.in2p3.fr/grid/cms/store/data/Run2018D/EGamma/NANOAOD/UL2018_MiniAODv2_NanoAODv9-v3/250000/6B61682F-5D9A-FA46-B5C9-7C49022A4E88.root
/eos/lyoeos.in2p3.fr/grid/cms/store/data/Run2018D/EGamma/NANOAOD/UL2018_MiniAODv2_NanoAODv9-v3/250000/6CADEE52-B847-EC42-94B9-00158C5BA746.root
/eos/lyoeos.in2p3.fr/grid/cms/store/data/Run2018D/EGamma/NANOAOD/UL2018_MiniAODv2_NanoAODv9-v3/250000/6E616D78-CA6C-BA4C-91E3-C6153226D2AA.root
/eos/lyoeos.in2p3.fr/grid/cms/store/data/Run2018D/EGamma/NANOAOD/UL2018_MiniAODv2_NanoAODv9-v3/250000/6EC79A8C-5FBC-3F44-89B0-DF4D30B1DBFE.root
/eos/lyoeos.in2p3.fr/grid/cms/store/data/Run2018D/EGamma/NANOAOD/UL2018_MiniAODv2_NanoAODv9-v3/250000/70167095-F271-E043-9A31-1975E6684AA6.root
/eos/lyoeos.in2p3.fr/grid/cms/store/data/Run2018D/EGamma/NANOAOD/UL2018_MiniAODv2_NanoAODv9-v3/250000/71D0B0E2-3ECA-5247-BF26-7614EE9DB894.root
/eos/lyoeos.in2p3.fr/grid/cms/store/data/Run2018D/EGamma/NANOAOD/UL2018_MiniAODv2_NanoAODv9-v3/250000/721C848D-7FFE-514D-9106-6A8D6CDE84E0.root
/eos/lyoeos.in2p3.fr/grid/cms/store/data/Run2018D/EGamma/NANOAOD/UL2018_MiniAODv2_NanoAODv9-v3/250000/73FFEA4C-D49C-C844-AAA0-7112B9B2EDEC.root
/eos/lyoeos.in2p3.fr/grid/cms/store/data/Run2018D/EGamma/NANOAOD/UL2018_MiniAODv2_NanoAODv9-v3/250000/76BB1FA2-ACB6-8940-B913-8291DE1D7392.root
/eos/lyoeos.in2p3.fr/grid/cms/store/data/Run2018D/EGamma/NANOAOD/UL2018_MiniAODv2_NanoAODv9-v3/250000/78052B83-0DC9-9B48-BC01-3973F9BCFC71.root
/eos/lyoeos.in2p3.fr/grid/cms/store/data/Run2018D/EGamma/NANOAOD/UL2018_MiniAODv2_NanoAODv9-v3/250000/78381CF8-8115-E24B-ADE5-623B6F148867.root
/eos/lyoeos.in2p3.fr/grid/cms/store/data/Run2018D/EGamma/NANOAOD/UL2018_MiniAODv2_NanoAODv9-v3/250000/78BE08F4-5AB7-DC47-AA37-77457F0C35DC.root
/eos/lyoeos.in2p3.fr/grid/cms/store/data/Run2018D/EGamma/NANOAOD/UL2018_MiniAODv2_NanoAODv9-v3/250000/797CBC16-7133-BC43-BB66-29C8488B6CF1.root
/eos/lyoeos.in2p3.fr/grid/cms/store/data/Run2018D/EGamma/NANOAOD/UL2018_MiniAODv2_NanoAODv9-v3/250000/79A736F1-FEB6-CB4C-A807-B91A32A3D5FE.root
/eos/lyoeos.in2p3.fr/grid/cms/store/data/Run2018D/EGamma/NANOAOD/UL2018_MiniAODv2_NanoAODv9-v3/250000/79F3DE5F-53EE-6043-9895-C108CB624B1F.root
/eos/lyoeos.in2p3.fr/grid/cms/store/data/Run2018D/EGamma/NANOAOD/UL2018_MiniAODv2_NanoAODv9-v3/250000/79F54B97-534F-1E4A-A079-EBA9A6854819.root
/eos/lyoeos.in2p3.fr/grid/cms/store/data/Run2018D/EGamma/NANOAOD/UL2018_MiniAODv2_NanoAODv9-v3/250000/7A2C7833-F750-9D42-99AD-96584F69E451.root
/eos/lyoeos.in2p3.fr/grid/cms/store/data/Run2018D/EGamma/NANOAOD/UL2018_MiniAODv2_NanoAODv9-v3/250000/7C3774AB-8654-FE4D-B9F7-A18C41DAB573.root
/eos/lyoeos.in2p3.fr/grid/cms/store/data/Run2018D/EGamma/NANOAOD/UL2018_MiniAODv2_NanoAODv9-v3/250000/7DF3AE16-8F91-F547-A857-9C5E89CC9911.root
/eos/lyoeos.in2p3.fr/grid/cms/store/data/Run2018D/EGamma/NANOAOD/UL2018_MiniAODv2_NanoAODv9-v3/250000/7E2592B3-AC71-C64E-8F59-6958EA81B929.root
/eos/lyoeos.in2p3.fr/grid/cms/store/data/Run2018D/EGamma/NANOAOD/UL2018_MiniAODv2_NanoAODv9-v3/250000/7EC42D29-07AA-5143-BF51-FB713E1A4989.root
/eos/lyoeos.in2p3.fr/grid/cms/store/data/Run2018D/EGamma/NANOAOD/UL2018_MiniAODv2_NanoAODv9-v3/250000/802CAF87-16D3-AD4C-BF9A-CDA52669CE65.root
/eos/lyoeos.in2p3.fr/grid/cms/store/data/Run2018D/EGamma/NANOAOD/UL2018_MiniAODv2_NanoAODv9-v3/250000/80393F8E-8643-E046-8B8F-6C8822409511.root
/eos/lyoeos.in2p3.fr/grid/cms/store/data/Run2018D/EGamma/NANOAOD/UL2018_MiniAODv2_NanoAODv9-v3/250000/80F2DB66-3D53-C749-B6E1-4BA4AE601EC6.root
/eos/lyoeos.in2p3.fr/grid/cms/store/data/Run2018D/EGamma/NANOAOD/UL2018_MiniAODv2_NanoAODv9-v3/250000/82324DC9-BD3E-3341-8F25-34C68D0CC55C.root
/eos/lyoeos.in2p3.fr/grid/cms/store/data/Run2018D/EGamma/NANOAOD/UL2018_MiniAODv2_NanoAODv9-v3/250000/82B71014-6FC5-2A44-BC92-7F69E1DE0C55.root
/eos/lyoeos.in2p3.fr/grid/cms/store/data/Run2018D/EGamma/NANOAOD/UL2018_MiniAODv2_NanoAODv9-v3/250000/857CE82A-237E-DF42-B8C6-5A4DAD95CD41.root
/eos/lyoeos.in2p3.fr/grid/cms/store/data/Run2018D/EGamma/NANOAOD/UL2018_MiniAODv2_NanoAODv9-v3/250000/87E72C6C-EDCA-3843-A027-A02D14E66893.root
/eos/lyoeos.in2p3.fr/grid/cms/store/data/Run2018D/EGamma/NANOAOD/UL2018_MiniAODv2_NanoAODv9-v3/250000/88DCCF78-6A45-C245-9FE1-DDC7BBA2D558.root
/eos/lyoeos.in2p3.fr/grid/cms/store/data/Run2018D/EGamma/NANOAOD/UL2018_MiniAODv2_NanoAODv9-v3/250000/893FAF26-EEFF-D24E-AE75-69B9EECEEB59.root
/eos/lyoeos.in2p3.fr/grid/cms/store/data/Run2018D/EGamma/NANOAOD/UL2018_MiniAODv2_NanoAODv9-v3/250000/899E069E-E116-7D4C-AA17-A53EB4A955CD.root
/eos/lyoeos.in2p3.fr/grid/cms/store/data/Run2018D/EGamma/NANOAOD/UL2018_MiniAODv2_NanoAODv9-v3/250000/8A897039-DDAB-8D41-93DE-2948383E3B3C.root
/eos/lyoeos.in2p3.fr/grid/cms/store/data/Run2018D/EGamma/NANOAOD/UL2018_MiniAODv2_NanoAODv9-v3/250000/8AB5E169-AB36-6C47-AA95-AA0537778620.root
/eos/lyoeos.in2p3.fr/grid/cms/store/data/Run2018D/EGamma/NANOAOD/UL2018_MiniAODv2_NanoAODv9-v3/250000/8C967FDA-79DA-D84B-B1FD-56D53A2E54DC.root
/eos/lyoeos.in2p3.fr/grid/cms/store/data/Run2018D/EGamma/NANOAOD/UL2018_MiniAODv2_NanoAODv9-v3/250000/8DDC5E27-E974-FE43-B7F8-36654B6B74CE.root
/eos/lyoeos.in2p3.fr/grid/cms/store/data/Run2018D/EGamma/NANOAOD/UL2018_MiniAODv2_NanoAODv9-v3/250000/9036CCB2-F9E7-8A49-BA27-5EFB1F15922B.root
/eos/lyoeos.in2p3.fr/grid/cms/store/data/Run2018D/EGamma/NANOAOD/UL2018_MiniAODv2_NanoAODv9-v3/250000/908BEA07-D333-7146-83E1-11D5E925B346.root
/eos/lyoeos.in2p3.fr/grid/cms/store/data/Run2018D/EGamma/NANOAOD/UL2018_MiniAODv2_NanoAODv9-v3/250000/91B6B160-EF83-304C-AA04-5BA1095E2AA8.root
/eos/lyoeos.in2p3.fr/grid/cms/store/data/Run2018D/EGamma/NANOAOD/UL2018_MiniAODv2_NanoAODv9-v3/250000/95C560E5-D999-FC43-B8CC-198E1DBB4801.root
/eos/lyoeos.in2p3.fr/grid/cms/store/data/Run2018D/EGamma/NANOAOD/UL2018_MiniAODv2_NanoAODv9-v3/250000/966A5661-671A-3C47-B9C4-9BB19879D6A6.root
/eos/lyoeos.in2p3.fr/grid/cms/store/data/Run2018D/EGamma/NANOAOD/UL2018_MiniAODv2_NanoAODv9-v3/250000/973B1E8F-106B-1F44-92C8-3A2926E6761C.root
/eos/lyoeos.in2p3.fr/grid/cms/store/data/Run2018D/EGamma/NANOAOD/UL2018_MiniAODv2_NanoAODv9-v3/250000/97D14140-FEAF-F444-9DBA-08069FCF53F8.root
/eos/lyoeos.in2p3.fr/grid/cms/store/data/Run2018D/EGamma/NANOAOD/UL2018_MiniAODv2_NanoAODv9-v3/250000/97FDE62C-B504-B74B-BA63-AED8CEAB90B9.root
/eos/lyoeos.in2p3.fr/grid/cms/store/data/Run2018D/EGamma/NANOAOD/UL2018_MiniAODv2_NanoAODv9-v3/250000/9891E1BA-D93A-E346-BA7D-53C039B0D6EE.root
/eos/lyoeos.in2p3.fr/grid/cms/store/data/Run2018D/EGamma/NANOAOD/UL2018_MiniAODv2_NanoAODv9-v3/250000/9A0B4C1D-C7E1-1146-9FC0-C4DEA7E9CE51.root
/eos/lyoeos.in2p3.fr/grid/cms/store/data/Run2018D/EGamma/NANOAOD/UL2018_MiniAODv2_NanoAODv9-v3/250000/9A224673-507F-FB44-8820-270CCCD14847.root
/eos/lyoeos.in2p3.fr/grid/cms/store/data/Run2018D/EGamma/NANOAOD/UL2018_MiniAODv2_NanoAODv9-v3/250000/9B17F0A2-3119-0948-B89C-38B00D5F84AD.root
/eos/lyoeos.in2p3.fr/grid/cms/store/data/Run2018D/EGamma/NANOAOD/UL2018_MiniAODv2_NanoAODv9-v3/250000/9BA52060-1974-9D4F-8D4A-B4999B0B7541.root
/eos/lyoeos.in2p3.fr/grid/cms/store/data/Run2018D/EGamma/NANOAOD/UL2018_MiniAODv2_NanoAODv9-v3/250000/9BD3A557-CCE4-6A46-878D-F3FDE01E28C5.root
/eos/lyoeos.in2p3.fr/grid/cms/store/data/Run2018D/EGamma/NANOAOD/UL2018_MiniAODv2_NanoAODv9-v3/250000/9DB15AF7-1CEA-B44F-B932-876DDDB5C537.root
/eos/lyoeos.in2p3.fr/grid/cms/store/data/Run2018D/EGamma/NANOAOD/UL2018_MiniAODv2_NanoAODv9-v3/250000/9F72F105-7342-7F43-B81A-4699E9AFBF47.root
/eos/lyoeos.in2p3.fr/grid/cms/store/data/Run2018D/EGamma/NANOAOD/UL2018_MiniAODv2_NanoAODv9-v3/250000/9F9C19EC-7A81-8C4E-805B-076E3A07F4FB.root
/eos/lyoeos.in2p3.fr/grid/cms/store/data/Run2018D/EGamma/NANOAOD/UL2018_MiniAODv2_NanoAODv9-v3/250000/A0AE3B1D-94C6-BB44-BB65-34D5F1578F8C.root
/eos/lyoeos.in2p3.fr/grid/cms/store/data/Run2018D/EGamma/NANOAOD/UL2018_MiniAODv2_NanoAODv9-v3/250000/A1F8C563-19AD-7B40-BF00-70572793538E.root
/eos/lyoeos.in2p3.fr/grid/cms/store/data/Run2018D/EGamma/NANOAOD/UL2018_MiniAODv2_NanoAODv9-v3/250000/A3806321-4FB6-4C4D-BB4A-8605132CF31B.root
/eos/lyoeos.in2p3.fr/grid/cms/store/data/Run2018D/EGamma/NANOAOD/UL2018_MiniAODv2_NanoAODv9-v3/250000/A44605F8-7ABD-BA41-A417-28D9B52D9661.root
/eos/lyoeos.in2p3.fr/grid/cms/store/data/Run2018D/EGamma/NANOAOD/UL2018_MiniAODv2_NanoAODv9-v3/250000/A4B1FBBA-B6CE-0F48-B48D-A10688F87619.root
/eos/lyoeos.in2p3.fr/grid/cms/store/data/Run2018D/EGamma/NANOAOD/UL2018_MiniAODv2_NanoAODv9-v3/250000/A970C4FA-E0B8-1646-B8BC-539A38B02194.root
/eos/lyoeos.in2p3.fr/grid/cms/store/data/Run2018D/EGamma/NANOAOD/UL2018_MiniAODv2_NanoAODv9-v3/250000/AA126E04-54A1-1E42-80CD-7CA889A209A9.root
/eos/lyoeos.in2p3.fr/grid/cms/store/data/Run2018D/EGamma/NANOAOD/UL2018_MiniAODv2_NanoAODv9-v3/250000/AA12F810-CCEF-5442-A90A-515BE2FAAAD1.root
/eos/lyoeos.in2p3.fr/grid/cms/store/data/Run2018D/EGamma/NANOAOD/UL2018_MiniAODv2_NanoAODv9-v3/250000/AA5956DE-2720-9349-8FFF-0A5785A236C8.root
/eos/lyoeos.in2p3.fr/grid/cms/store/data/Run2018D/EGamma/NANOAOD/UL2018_MiniAODv2_NanoAODv9-v3/250000/AA9A9F29-8866-6940-BC9D-C4798AD95EF0.root
/eos/lyoeos.in2p3.fr/grid/cms/store/data/Run2018D/EGamma/NANOAOD/UL2018_MiniAODv2_NanoAODv9-v3/250000/ACF2CCA0-31B8-AC41-8AFE-38B3E804F4FA.root
/eos/lyoeos.in2p3.fr/grid/cms/store/data/Run2018D/EGamma/NANOAOD/UL2018_MiniAODv2_NanoAODv9-v3/250000/AD0B1869-34F5-A147-8D10-16E27E1036F1.root
/eos/lyoeos.in2p3.fr/grid/cms/store/data/Run2018D/EGamma/NANOAOD/UL2018_MiniAODv2_NanoAODv9-v3/250000/AD963ED4-9B05-AA47-A09C-558355612B9A.root
/eos/lyoeos.in2p3.fr/grid/cms/store/data/Run2018D/EGamma/NANOAOD/UL2018_MiniAODv2_NanoAODv9-v3/250000/AE9B0F98-0AB8-2E41-82FF-2A52CB81F466.root
/eos/lyoeos.in2p3.fr/grid/cms/store/data/Run2018D/EGamma/NANOAOD/UL2018_MiniAODv2_NanoAODv9-v3/250000/AFB623ED-0A42-5640-A0B7-7B919035630E.root
/eos/lyoeos.in2p3.fr/grid/cms/store/data/Run2018D/EGamma/NANOAOD/UL2018_MiniAODv2_NanoAODv9-v3/250000/B028948D-0801-154E-B1AD-7B66A954D28E.root
/eos/lyoeos.in2p3.fr/grid/cms/store/data/Run2018D/EGamma/NANOAOD/UL2018_MiniAODv2_NanoAODv9-v3/250000/B253B260-C774-B94F-A88C-34C3C2CFC0FF.root
/eos/lyoeos.in2p3.fr/grid/cms/store/data/Run2018D/EGamma/NANOAOD/UL2018_MiniAODv2_NanoAODv9-v3/250000/B30E8F0B-A6EE-714F-B37D-7C1BC9E0235F.root
/eos/lyoeos.in2p3.fr/grid/cms/store/data/Run2018D/EGamma/NANOAOD/UL2018_MiniAODv2_NanoAODv9-v3/250000/B3137030-E3B2-9E4A-A365-87447A16A207.root
/eos/lyoeos.in2p3.fr/grid/cms/store/data/Run2018D/EGamma/NANOAOD/UL2018_MiniAODv2_NanoAODv9-v3/250000/B3179AAC-30EE-824C-B2FE-C9499FF9B84C.root
/eos/lyoeos.in2p3.fr/grid/cms/store/data/Run2018D/EGamma/NANOAOD/UL2018_MiniAODv2_NanoAODv9-v3/250000/B3DCDD04-BC8E-614D-9ADF-556AAC57D698.root
/eos/lyoeos.in2p3.fr/grid/cms/store/data/Run2018D/EGamma/NANOAOD/UL2018_MiniAODv2_NanoAODv9-v3/250000/B49E052A-8709-4A4B-B9A1-7E28315F1186.root
/eos/lyoeos.in2p3.fr/grid/cms/store/data/Run2018D/EGamma/NANOAOD/UL2018_MiniAODv2_NanoAODv9-v3/250000/B4E58BAC-2ACB-0145-8581-52943557D730.root
/eos/lyoeos.in2p3.fr/grid/cms/store/data/Run2018D/EGamma/NANOAOD/UL2018_MiniAODv2_NanoAODv9-v3/250000/B6E55D78-6F0F-6443-8D15-9D5ACE08C394.root
/eos/lyoeos.in2p3.fr/grid/cms/store/data/Run2018D/EGamma/NANOAOD/UL2018_MiniAODv2_NanoAODv9-v3/250000/B7A14265-DD00-A147-B6C0-4F65B3F9E2AA.root
/eos/lyoeos.in2p3.fr/grid/cms/store/data/Run2018D/EGamma/NANOAOD/UL2018_MiniAODv2_NanoAODv9-v3/250000/B7BC20ED-CACC-2848-A06F-053784411F5F.root
/eos/lyoeos.in2p3.fr/grid/cms/store/data/Run2018D/EGamma/NANOAOD/UL2018_MiniAODv2_NanoAODv9-v3/250000/B86B97D5-13BD-C348-8662-B53BDACE3D31.root
/eos/lyoeos.in2p3.fr/grid/cms/store/data/Run2018D/EGamma/NANOAOD/UL2018_MiniAODv2_NanoAODv9-v3/250000/B8DC06A3-FF3B-234E-A064-41CA53B4CA19.root
/eos/lyoeos.in2p3.fr/grid/cms/store/data/Run2018D/EGamma/NANOAOD/UL2018_MiniAODv2_NanoAODv9-v3/250000/B8FF7E58-90A0-4E44-854B-8C5D2BB0E6BD.root
/eos/lyoeos.in2p3.fr/grid/cms/store/data/Run2018D/EGamma/NANOAOD/UL2018_MiniAODv2_NanoAODv9-v3/250000/BA4F5DE6-55B8-7E4E-B94C-26154D40E5B9.root
/eos/lyoeos.in2p3.fr/grid/cms/store/data/Run2018D/EGamma/NANOAOD/UL2018_MiniAODv2_NanoAODv9-v3/250000/BC07E514-8621-7D49-8831-BA2D0D36B021.root
/eos/lyoeos.in2p3.fr/grid/cms/store/data/Run2018D/EGamma/NANOAOD/UL2018_MiniAODv2_NanoAODv9-v3/250000/BC30D693-12C0-E647-9F24-3FF71ACFBAB5.root
/eos/lyoeos.in2p3.fr/grid/cms/store/data/Run2018D/EGamma/NANOAOD/UL2018_MiniAODv2_NanoAODv9-v3/250000/BDC1FF1D-7D0B-8A44-A9DC-67252906AF35.root
/eos/lyoeos.in2p3.fr/grid/cms/store/data/Run2018D/EGamma/NANOAOD/UL2018_MiniAODv2_NanoAODv9-v3/250000/BE9BFCE6-FFB4-014C-BC46-72F535A4C382.root
/eos/lyoeos.in2p3.fr/grid/cms/store/data/Run2018D/EGamma/NANOAOD/UL2018_MiniAODv2_NanoAODv9-v3/250000/BF2C9FC9-229B-8C47-B8E2-DDA51AA033C5.root
/eos/lyoeos.in2p3.fr/grid/cms/store/data/Run2018D/EGamma/NANOAOD/UL2018_MiniAODv2_NanoAODv9-v3/250000/BF920B4C-2987-194B-B553-5F813039B0EB.root
/eos/lyoeos.in2p3.fr/grid/cms/store/data/Run2018D/EGamma/NANOAOD/UL2018_MiniAODv2_NanoAODv9-v3/250000/BFC724EA-A189-004C-BB52-44AE73CE8429.root
/eos/lyoeos.in2p3.fr/grid/cms/store/data/Run2018D/EGamma/NANOAOD/UL2018_MiniAODv2_NanoAODv9-v3/250000/C0EF5657-726E-E043-9480-3B04F3F572CE.root
/eos/lyoeos.in2p3.fr/grid/cms/store/data/Run2018D/EGamma/NANOAOD/UL2018_MiniAODv2_NanoAODv9-v3/250000/C2B808BA-0257-F74E-89D4-7E9BC75E39CD.root
/eos/lyoeos.in2p3.fr/grid/cms/store/data/Run2018D/EGamma/NANOAOD/UL2018_MiniAODv2_NanoAODv9-v3/250000/C3568D17-BB15-5F4C-BED7-651430FC5550.root
/eos/lyoeos.in2p3.fr/grid/cms/store/data/Run2018D/EGamma/NANOAOD/UL2018_MiniAODv2_NanoAODv9-v3/250000/C5627D4A-AC9B-EC46-B370-710CF6F470EC.root
/eos/lyoeos.in2p3.fr/grid/cms/store/data/Run2018D/EGamma/NANOAOD/UL2018_MiniAODv2_NanoAODv9-v3/250000/C5753A33-75FA-C84C-9882-1DD2C7309B67.root
/eos/lyoeos.in2p3.fr/grid/cms/store/data/Run2018D/EGamma/NANOAOD/UL2018_MiniAODv2_NanoAODv9-v3/250000/C6E4121D-6CEE-4448-B19E-37F1B0BBAA23.root
/eos/lyoeos.in2p3.fr/grid/cms/store/data/Run2018D/EGamma/NANOAOD/UL2018_MiniAODv2_NanoAODv9-v3/250000/C88D00C0-B2B4-AE42-8AC1-791B87B386F1.root
/eos/lyoeos.in2p3.fr/grid/cms/store/data/Run2018D/EGamma/NANOAOD/UL2018_MiniAODv2_NanoAODv9-v3/250000/C8B54FCA-0B5C-D745-AEFB-089E72F3C64B.root
/eos/lyoeos.in2p3.fr/grid/cms/store/data/Run2018D/EGamma/NANOAOD/UL2018_MiniAODv2_NanoAODv9-v3/250000/C8E89947-8DB7-BC44-A859-6F874D4E6A39.root
/eos/lyoeos.in2p3.fr/grid/cms/store/data/Run2018D/EGamma/NANOAOD/UL2018_MiniAODv2_NanoAODv9-v3/250000/C99A7922-79C9-9242-BD9A-1C2C391435BA.root
/eos/lyoeos.in2p3.fr/grid/cms/store/data/Run2018D/EGamma/NANOAOD/UL2018_MiniAODv2_NanoAODv9-v3/250000/CB33E1D7-2439-C540-B983-FB6C7EF16B8B.root
/eos/lyoeos.in2p3.fr/grid/cms/store/data/Run2018D/EGamma/NANOAOD/UL2018_MiniAODv2_NanoAODv9-v3/250000/CCFE4F7A-2284-3E43-8B27-A320B5F1E653.root
/eos/lyoeos.in2p3.fr/grid/cms/store/data/Run2018D/EGamma/NANOAOD/UL2018_MiniAODv2_NanoAODv9-v3/250000/CD5EFE2F-D298-C640-8E8F-CF74501973EE.root
/eos/lyoeos.in2p3.fr/grid/cms/store/data/Run2018D/EGamma/NANOAOD/UL2018_MiniAODv2_NanoAODv9-v3/250000/CFD91101-E387-8B46-A019-C9794F66A2D3.root
/eos/lyoeos.in2p3.fr/grid/cms/store/data/Run2018D/EGamma/NANOAOD/UL2018_MiniAODv2_NanoAODv9-v3/250000/D03072CB-17DE-3E4A-8F40-BB9927FF1931.root
/eos/lyoeos.in2p3.fr/grid/cms/store/data/Run2018D/EGamma/NANOAOD/UL2018_MiniAODv2_NanoAODv9-v3/250000/D127CF7E-86A3-EE43-9147-A9A3C39AB5AF.root
/eos/lyoeos.in2p3.fr/grid/cms/store/data/Run2018D/EGamma/NANOAOD/UL2018_MiniAODv2_NanoAODv9-v3/250000/D1B64BE6-43CC-5440-981F-5A60F95D27C1.root
/eos/lyoeos.in2p3.fr/grid/cms/store/data/Run2018D/EGamma/NANOAOD/UL2018_MiniAODv2_NanoAODv9-v3/250000/D61FC23D-2882-9A4E-9839-7826010FFF6B.root
/eos/lyoeos.in2p3.fr/grid/cms/store/data/Run2018D/EGamma/NANOAOD/UL2018_MiniAODv2_NanoAODv9-v3/250000/D6B51865-FD1B-794B-8544-FFCE3F208E99.root
/eos/lyoeos.in2p3.fr/grid/cms/store/data/Run2018D/EGamma/NANOAOD/UL2018_MiniAODv2_NanoAODv9-v3/250000/D742DFDE-87FA-C64F-8E5F-4664EE1736FD.root
/eos/lyoeos.in2p3.fr/grid/cms/store/data/Run2018D/EGamma/NANOAOD/UL2018_MiniAODv2_NanoAODv9-v3/250000/D7A99CC4-7095-5A42-BA50-AF1CBDC2BD76.root
/eos/lyoeos.in2p3.fr/grid/cms/store/data/Run2018D/EGamma/NANOAOD/UL2018_MiniAODv2_NanoAODv9-v3/250000/DA7E6060-5259-E049-9C7A-000D3A182AFA.root
/eos/lyoeos.in2p3.fr/grid/cms/store/data/Run2018D/EGamma/NANOAOD/UL2018_MiniAODv2_NanoAODv9-v3/250000/DB2A685E-62D8-894C-AAFB-2124394A7E01.root
/eos/lyoeos.in2p3.fr/grid/cms/store/data/Run2018D/EGamma/NANOAOD/UL2018_MiniAODv2_NanoAODv9-v3/250000/DCA90608-A397-EB4A-BD8B-D418AAAAD230.root
/eos/lyoeos.in2p3.fr/grid/cms/store/data/Run2018D/EGamma/NANOAOD/UL2018_MiniAODv2_NanoAODv9-v3/250000/DDFA7DA2-B9AB-8842-BFA6-94E5D69B577B.root
/eos/lyoeos.in2p3.fr/grid/cms/store/data/Run2018D/EGamma/NANOAOD/UL2018_MiniAODv2_NanoAODv9-v3/250000/DE323400-3B1C-5A43-A566-E492C03DE648.root
/eos/lyoeos.in2p3.fr/grid/cms/store/data/Run2018D/EGamma/NANOAOD/UL2018_MiniAODv2_NanoAODv9-v3/250000/DE4EB5F3-1B37-7947-9232-54C1940BCE30.root
/eos/lyoeos.in2p3.fr/grid/cms/store/data/Run2018D/EGamma/NANOAOD/UL2018_MiniAODv2_NanoAODv9-v3/250000/DE94B8D3-B288-9F40-8E50-1C6162011D2A.root
/eos/lyoeos.in2p3.fr/grid/cms/store/data/Run2018D/EGamma/NANOAOD/UL2018_MiniAODv2_NanoAODv9-v3/250000/DEBDDA55-361A-6F48-AFDD-DCF22EECA3CF.root
/eos/lyoeos.in2p3.fr/grid/cms/store/data/Run2018D/EGamma/NANOAOD/UL2018_MiniAODv2_NanoAODv9-v3/250000/DF1F8548-FB2E-3248-948B-EC8C519B58B6.root
/eos/lyoeos.in2p3.fr/grid/cms/store/data/Run2018D/EGamma/NANOAOD/UL2018_MiniAODv2_NanoAODv9-v3/250000/DFEAF6FC-FBE7-8241-8D1C-D7CDE88DC3F1.root
/eos/lyoeos.in2p3.fr/grid/cms/store/data/Run2018D/EGamma/NANOAOD/UL2018_MiniAODv2_NanoAODv9-v3/250000/E1B4EB98-AB73-4F48-AE44-F8DCD565767A.root
/eos/lyoeos.in2p3.fr/grid/cms/store/data/Run2018D/EGamma/NANOAOD/UL2018_MiniAODv2_NanoAODv9-v3/250000/E22614F8-40E5-5749-95A3-75BD6F81EC52.root
/eos/lyoeos.in2p3.fr/grid/cms/store/data/Run2018D/EGamma/NANOAOD/UL2018_MiniAODv2_NanoAODv9-v3/250000/E29D592C-052B-7E4C-9249-DDE7AA1BD39E.root
/eos/lyoeos.in2p3.fr/grid/cms/store/data/Run2018D/EGamma/NANOAOD/UL2018_MiniAODv2_NanoAODv9-v3/250000/E43857D1-A6E9-9844-85F9-6ED9730D40B8.root
/eos/lyoeos.in2p3.fr/grid/cms/store/data/Run2018D/EGamma/NANOAOD/UL2018_MiniAODv2_NanoAODv9-v3/250000/E4929C5D-BAD6-504A-9EA0-623D1D78D352.root
/eos/lyoeos.in2p3.fr/grid/cms/store/data/Run2018D/EGamma/NANOAOD/UL2018_MiniAODv2_NanoAODv9-v3/250000/E50E0245-115F-B549-8D93-3BFAD6C44A8C.root
/eos/lyoeos.in2p3.fr/grid/cms/store/data/Run2018D/EGamma/NANOAOD/UL2018_MiniAODv2_NanoAODv9-v3/250000/E58EA883-3698-BB41-921B-9DB54213013E.root
/eos/lyoeos.in2p3.fr/grid/cms/store/data/Run2018D/EGamma/NANOAOD/UL2018_MiniAODv2_NanoAODv9-v3/250000/E6967FAD-F894-F644-8D80-4A8DD7AB8A7F.root
/eos/lyoeos.in2p3.fr/grid/cms/store/data/Run2018D/EGamma/NANOAOD/UL2018_MiniAODv2_NanoAODv9-v3/250000/E943CFB0-9C28-D747-9FB8-FEBF3B02F869.root
/eos/lyoeos.in2p3.fr/grid/cms/store/data/Run2018D/EGamma/NANOAOD/UL2018_MiniAODv2_NanoAODv9-v3/250000/E9F32FC0-45AB-584F-A264-51038D4D9190.root
/eos/lyoeos.in2p3.fr/grid/cms/store/data/Run2018D/EGamma/NANOAOD/UL2018_MiniAODv2_NanoAODv9-v3/250000/EB36AA55-3283-8643-ABD4-ABA0408763CA.root
/eos/lyoeos.in2p3.fr/grid/cms/store/data/Run2018D/EGamma/NANOAOD/UL2018_MiniAODv2_NanoAODv9-v3/250000/EB73F6CB-CB07-3345-A793-F277EFD106D5.root
/eos/lyoeos.in2p3.fr/grid/cms/store/data/Run2018D/EGamma/NANOAOD/UL2018_MiniAODv2_NanoAODv9-v3/250000/EE3D3644-112A-DC47-8641-8848C10A90E5.root
/eos/lyoeos.in2p3.fr/grid/cms/store/data/Run2018D/EGamma/NANOAOD/UL2018_MiniAODv2_NanoAODv9-v3/250000/EFD7FC16-DDD3-654A-884D-9A175D7467A2.root
/eos/lyoeos.in2p3.fr/grid/cms/store/data/Run2018D/EGamma/NANOAOD/UL2018_MiniAODv2_NanoAODv9-v3/250000/F00E2967-8011-7344-974B-C68B5D069F61.root
/eos/lyoeos.in2p3.fr/grid/cms/store/data/Run2018D/EGamma/NANOAOD/UL2018_MiniAODv2_NanoAODv9-v3/250000/F09C2300-6169-454A-8937-0D14E57AABC1.root
/eos/lyoeos.in2p3.fr/grid/cms/store/data/Run2018D/EGamma/NANOAOD/UL2018_MiniAODv2_NanoAODv9-v3/250000/F1C8159E-0180-AC4F-9B9B-00E792F68742.root
/eos/lyoeos.in2p3.fr/grid/cms/store/data/Run2018D/EGamma/NANOAOD/UL2018_MiniAODv2_NanoAODv9-v3/250000/F2D3F3C4-F0CF-F14B-B5D0-9DDAEBC0A9ED.root
/eos/lyoeos.in2p3.fr/grid/cms/store/data/Run2018D/EGamma/NANOAOD/UL2018_MiniAODv2_NanoAODv9-v3/250000/F40DA8E4-E5F4-424A-A49A-DE37A07C6D42.root
/eos/lyoeos.in2p3.fr/grid/cms/store/data/Run2018D/EGamma/NANOAOD/UL2018_MiniAODv2_NanoAODv9-v3/250000/F519077E-7D11-FE4D-A08B-F6C3B3B1D8C7.root
/eos/lyoeos.in2p3.fr/grid/cms/store/data/Run2018D/EGamma/NANOAOD/UL2018_MiniAODv2_NanoAODv9-v3/250000/F6EEFCA9-5EFB-0B47-A667-9AA93CC51906.root
/eos/lyoeos.in2p3.fr/grid/cms/store/data/Run2018D/EGamma/NANOAOD/UL2018_MiniAODv2_NanoAODv9-v3/250000/F971F20A-324E-2648-A377-9D15896647CD.root
/eos/lyoeos.in2p3.fr/grid/cms/store/data/Run2018D/EGamma/NANOAOD/UL2018_MiniAODv2_NanoAODv9-v3/250000/FBB7A0F8-E394-A443-93A8-F4561F16980F.root
/eos/lyoeos.in2p3.fr/grid/cms/store/data/Run2018D/EGamma/NANOAOD/UL2018_MiniAODv2_NanoAODv9-v3/250000/FCE073E9-FC46-9A46-9AC1-1A1C453F9BC9.root
/eos/lyoeos.in2p3.fr/grid/cms/store/data/Run2018D/EGamma/NANOAOD/UL2018_MiniAODv2_NanoAODv9-v3/250000/FE0524AD-1576-684A-A91B-2292816FD2E8.root
/eos/lyoeos.in2p3.fr/grid/cms/store/data/Run2018D/EGamma/NANOAOD/UL2018_MiniAODv2_NanoAODv9-v3/250000/FE652402-AABA-3843-A6E2-4B34D9714163.root
/eos/lyoeos.in2p3.fr/grid/cms/store/data/Run2018D/EGamma/NANOAOD/UL2018_MiniAODv2_NanoAODv9-v3/250000/FF5C422C-F9F3-124C-B715-122FA7A28FC2.root
/eos/lyoeos.in2p3.fr/grid/cms/store/data/Run2018D/EGamma/NANOAOD/UL2018_MiniAODv2_NanoAODv9-v3/250000/FF5EF4AF-CF11-A346-8EAC-CB3255E69F4F.root
/eos/lyoeos.in2p3.fr/grid/cms/store/data/Run2018D/EGamma/NANOAOD/UL2018_MiniAODv2_NanoAODv9-v3/250000/FF90CA69-BD16-CF46-BAB9-836AC17512AB.root
/eos/lyoeos.in2p3.fr/grid/cms/store/data/Run2018D/EGamma/NANOAOD/UL2018_MiniAODv2_NanoAODv9-v3/2510000/CE0D6889-C9C6-0A4E-BB1A-CC36168A7404.root
/eos/lyoeos.in2p3.fr/grid/cms/store/data/Run2018D/EGamma/NANOAOD/UL2018_MiniAODv2_NanoAODv9-v3/260000/18917F15-7A0B-A14C-855B-B58435289511.root
/eos/lyoeos.in2p3.fr/grid/cms/store/data/Run2018D/EGamma/NANOAOD/UL2018_MiniAODv2_NanoAODv9-v3/260000/1DFF419D-ADB6-A447-AFCE-7CD38D12D3C9.root
/eos/lyoeos.in2p3.fr/grid/cms/store/data/Run2018D/EGamma/NANOAOD/UL2018_MiniAODv2_NanoAODv9-v3/260000/6A3CBCFB-BCE7-8540-9123-A09F4EB4F619.root
/eos/lyoeos.in2p3.fr/grid/cms/store/data/Run2018D/EGamma/NANOAOD/UL2018_MiniAODv2_NanoAODv9-v3/260000/6E4660DE-9A52-324C-B9FA-CAC5A86B5F82.root
/eos/lyoeos.in2p3.fr/grid/cms/store/data/Run2018D/EGamma/NANOAOD/UL2018_MiniAODv2_NanoAODv9-v3/260000/8E8633F7-F33C-8741-B67E-FFA93FCFBA25.root
/eos/lyoeos.in2p3.fr/grid/cms/store/data/Run2018D/EGamma/NANOAOD/UL2018_MiniAODv2_NanoAODv9-v3/260000/A39A993D-0218-8140-8BDB-3382DB6D36AA.root
